Versuch2/datasets/damp1/T0002.CSV

Model,DPO2002B
Firmware Version,1.52

Point Format,Y,,,
Horizontal Units,S,,,
Horizontal Scale,1,,,
Sample Interval,0.00192012,,,
Filter Frequency,7e+07,,,
Record Length,5200,,,
Gating,0.0% to 100.0%,,0.0% to 100.0%,
Probe Attenuation,1,,10,
Vertical Units,V,,V,
Vertical Offset,0,,0,
Vertical Scale,0.2,,0.5,
Label,,,,
TIME,CH1,CH1 Peak Detect,CH2,CH2 Peak Detect
-5.000e+00,-0.656,-0.664,-0.73,-0.81
-4.998e+00,-0.648,-0.64,-0.75,-0.69
-4.996e+00,-0.648,-0.656,-0.79,-0.83
-4.994e+00,-0.64,-0.632,-0.79,-0.73
-4.992e+00,-0.64,-0.648,-0.81,-0.87
-4.990e+00,-0.632,-0.624,-0.83,-0.77
-4.988e+00,-0.632,-0.64,-0.85,-0.91
-4.987e+00,-0.632,-0.616,-0.85,-0.81
-4.985e+00,-0.624,-0.632,-0.87,-0.95
-4.983e+00,-0.616,-0.608,-0.89,-0.83
-4.981e+00,-0.616,-0.624,-0.91,-0.97
-4.979e+00,-0.608,-0.6,-0.93,-0.87
-4.977e+00,-0.6,-0.616,-0.95,-1.01
-4.975e+00,-0.608,-0.592,-0.95,-0.89
-4.973e+00,-0.6,-0.608,-0.97,-1.03
-4.971e+00,-0.592,-0.584,-0.99,-0.93
-4.969e+00,-0.584,-0.6,-1.01,-1.07
-4.967e+00,-0.584,-0.568,-1.03,-0.97
-4.965e+00,-0.584,-0.592,-1.03,-1.11
-4.964e+00,-0.576,-0.56,-1.07,-0.99
-4.962e+00,-0.568,-0.584,-1.07,-1.13
-4.960e+00,-0.56,-0.552,-1.09,-1.03
-4.958e+00,-0.56,-0.568,-1.11,-1.17
-4.956e+00,-0.56,-0.544,-1.13,-1.05
-4.954e+00,-0.552,-0.56,-1.13,-1.19
-4.952e+00,-0.544,-0.536,-1.15,-1.09
-4.950e+00,-0.544,-0.552,-1.17,-1.23
-4.948e+00,-0.536,-0.52,-1.19,-1.11
-4.946e+00,-0.528,-0.536,-1.19,-1.25
-4.944e+00,-0.52,-0.512,-1.23,-1.15
-4.942e+00,-0.52,-0.528,-1.23,-1.29
-4.940e+00,-0.512,-0.504,-1.23,-1.19
-4.939e+00,-0.504,-0.52,-1.27,-1.31
-4.937e+00,-0.504,-0.488,-1.27,-1.21
-4.935e+00,-0.496,-0.504,-1.27,-1.35
-4.933e+00,-0.496,-0.48,-1.29,-1.23
-4.931e+00,-0.488,-0.496,-1.31,-1.37
-4.929e+00,-0.48,-0.464,-1.31,-1.27
-4.927e+00,-0.472,-0.48,-1.33,-1.39
-4.925e+00,-0.464,-0.456,-1.35,-1.29
-4.923e+00,-0.464,-0.472,-1.35,-1.43
-4.921e+00,-0.456,-0.44,-1.39,-1.31
-4.919e+00,-0.448,-0.464,-1.39,-1.45
-4.917e+00,-0.448,-0.432,-1.41,-1.35
-4.916e+00,-0.44,-0.448,-1.41,-1.47
-4.914e+00,-0.432,-0.416,-1.43,-1.37
-4.912e+00,-0.424,-0.432,-1.43,-1.49
-4.910e+00,-0.416,-0.408,-1.45,-1.39
-4.908e+00,-0.416,-0.424,-1.47,-1.53
-4.906e+00,-0.408,-0.392,-1.49,-1.41
-4.904e+00,-0.4,-0.408,-1.49,-1.55
-4.902e+00,-0.392,-0.384,-1.49,-1.45
-4.900e+00,-0.392,-0.4,-1.51,-1.57
-4.898e+00,-0.384,-0.368,-1.53,-1.47
-4.896e+00,-0.376,-0.384,-1.53,-1.59
-4.894e+00,-0.368,-0.352,-1.55,-1.49
-4.892e+00,-0.36,-0.368,-1.57,-1.61
-4.891e+00,-0.352,-0.344,-1.57,-1.51
-4.889e+00,-0.352,-0.36,-1.55,-1.63
-4.887e+00,-0.344,-0.328,-1.59,-1.53
-4.885e+00,-0.336,-0.344,-1.61,-1.65
-4.883e+00,-0.336,-0.312,-1.61,-1.55
-4.881e+00,-0.32,-0.328,-1.63,-1.67
-4.879e+00,-0.312,-0.304,-1.63,-1.57
-4.877e+00,-0.304,-0.32,-1.65,-1.69
-4.875e+00,-0.296,-0.288,-1.65,-1.59
-4.873e+00,-0.288,-0.304,-1.65,-1.71
-4.871e+00,-0.288,-0.272,-1.67,-1.61
-4.869e+00,-0.28,-0.288,-1.67,-1.71
-4.868e+00,-0.272,-0.256,-1.69,-1.63
-4.866e+00,-0.264,-0.272,-1.69,-1.73
-4.864e+00,-0.264,-0.24,-1.71,-1.65
-4.862e+00,-0.24,-0.256,-1.71,-1.75
-4.860e+00,-0.24,-0.224,-1.71,-1.65
-4.858e+00,-0.232,-0.248,-1.73,-1.77
-4.856e+00,-0.232,-0.208,-1.71,-1.67
-4.854e+00,-0.224,-0.232,-1.73,-1.79
-4.852e+00,-0.208,-0.2,-1.73,-1.69
-4.850e+00,-0.208,-0.216,-1.75,-1.79
-4.848e+00,-0.192,-0.184,-1.75,-1.69
-4.846e+00,-0.192,-0.2,-1.77,-1.81
-4.844e+00,-0.184,-0.168,-1.77,-1.71
-4.843e+00,-0.176,-0.184,-1.77,-1.81
-4.841e+00,-0.168,-0.152,-1.79,-1.73
-4.839e+00,-0.16,-0.176,-1.79,-1.83
-4.837e+00,-0.152,-0.136,-1.77,-1.73
-4.835e+00,-0.144,-0.16,-1.79,-1.83
-4.833e+00,-0.136,-0.12,-1.81,-1.75
-4.831e+00,-0.128,-0.144,-1.79,-1.85
-4.829e+00,-0.12,-0.112,-1.81,-1.75
-4.827e+00,-0.12,-0.128,-1.81,-1.85
-4.825e+00,-0.112,-0.088,-1.81,-1.77
-4.823e+00,-0.096,-0.112,-1.83,-1.85
-4.821e+00,-0.096,-0.08,-1.83,-1.77
-4.820e+00,-0.088,-0.096,-1.81,-1.87
-4.818e+00,-0.08,-0.064,-1.83,-1.79
-4.816e+00,-0.072,-0.08,-1.81,-1.87
-4.814e+00,-0.064,-0.048,-1.83,-1.79
-4.812e+00,-0.056,-0.064,-1.85,-1.89
-4.810e+00,-0.048,-0.032,-1.85,-1.79
-4.808e+00,-0.04,-0.056,-1.85,-1.89
-4.806e+00,-0.032,-0.016,-1.85,-1.79
-4.804e+00,-0.024,-0.032,-1.85,-1.89
-4.802e+00,-0.016,-1.78814e-10,-1.85,-1.81
-4.800e+00,-0.008,-0.024,-1.85,-1.89
-4.798e+00,-0.008,0.008,-1.87,-1.81
-4.796e+00,0.008,-0.008,-1.87,-1.89
-4.795e+00,0.008,0.024,-1.87,-1.81
-4.793e+00,0.016,0.008,-1.87,-1.89
-4.791e+00,0.032,0.04,-1.87,-1.81
-4.789e+00,0.032,0.024,-1.87,-1.91
-4.787e+00,0.04,0.056,-1.87,-1.81
-4.785e+00,0.048,0.04,-1.85,-1.89
-4.783e+00,0.056,0.072,-1.85,-1.81
-4.781e+00,0.064,0.056,-1.87,-1.89
-4.779e+00,0.072,0.08,-1.87,-1.81
-4.777e+00,0.08,0.072,-1.87,-1.89
-4.775e+00,0.088,0.104,-1.85,-1.81
-4.773e+00,0.096,0.088,-1.83,-1.89
-4.772e+00,0.104,0.12,-1.85,-1.81
-4.770e+00,0.112,0.096,-1.87,-1.89
-4.768e+00,0.12,0.136,-1.85,-1.81
-4.766e+00,0.128,0.12,-1.83,-1.89
-4.764e+00,0.128,0.144,-1.85,-1.81
-4.762e+00,0.136,0.128,-1.85,-1.89
-4.760e+00,0.144,0.16,-1.85,-1.79
-4.758e+00,0.152,0.144,-1.85,-1.87
-4.756e+00,0.16,0.176,-1.85,-1.79
-4.754e+00,0.168,0.16,-1.85,-1.87
-4.752e+00,0.176,0.192,-1.83,-1.79
-4.750e+00,0.176,0.176,-1.81,-1.87
-4.748e+00,0.192,0.208,-1.83,-1.77
-4.747e+00,0.2,0.192,-1.81,-1.85
-4.745e+00,0.2,0.224,-1.83,-1.77
-4.743e+00,0.216,0.208,-1.81,-1.85
-4.741e+00,0.224,0.24,-1.81,-1.77
-4.739e+00,0.232,0.216,-1.79,-1.85
-4.737e+00,0.24,0.256,-1.81,-1.75
-4.735e+00,0.248,0.232,-1.81,-1.83
-4.733e+00,0.248,0.264,-1.79,-1.75
-4.731e+00,0.256,0.248,-1.79,-1.83
-4.729e+00,0.264,0.28,-1.79,-1.73
-4.727e+00,0.272,0.264,-1.79,-1.81
-4.725e+00,0.28,0.296,-1.77,-1.71
-4.724e+00,0.288,0.28,-1.77,-1.79
-4.722e+00,0.296,0.312,-1.77,-1.71
-4.720e+00,0.304,0.288,-1.77,-1.79
-4.718e+00,0.312,0.32,-1.77,-1.69
-4.716e+00,0.32,0.304,-1.75,-1.77
-4.714e+00,0.328,0.336,-1.73,-1.69
-4.712e+00,0.328,0.32,-1.73,-1.77
-4.710e+00,0.336,0.352,-1.73,-1.67
-4.708e+00,0.344,0.336,-1.73,-1.75
-4.706e+00,0.352,0.368,-1.71,-1.65
-4.704e+00,0.36,0.352,-1.69,-1.73
-4.702e+00,0.36,0.376,-1.71,-1.63
-4.700e+00,0.368,0.36,-1.67,-1.71
-4.699e+00,0.384,0.392,-1.67,-1.61
-4.697e+00,0.384,0.376,-1.67,-1.71
-4.695e+00,0.392,0.408,-1.67,-1.59
-4.693e+00,0.392,0.392,-1.63,-1.69
-4.691e+00,0.408,0.416,-1.63,-1.59
-4.689e+00,0.416,0.4,-1.65,-1.65
-4.687e+00,0.416,0.432,-1.63,-1.57
-4.685e+00,0.424,0.416,-1.61,-1.65
-4.683e+00,0.432,0.448,-1.59,-1.55
-4.681e+00,0.44,0.424,-1.57,-1.63
-4.679e+00,0.44,0.456,-1.59,-1.53
-4.677e+00,0.448,0.44,-1.59,-1.61
-4.675e+00,0.456,0.472,-1.57,-1.51
-4.674e+00,0.464,0.456,-1.55,-1.59
-4.672e+00,0.464,0.48,-1.53,-1.49
-4.670e+00,0.472,0.464,-1.53,-1.55
-4.668e+00,0.48,0.488,-1.53,-1.45
-4.666e+00,0.488,0.472,-1.51,-1.53
-4.664e+00,0.488,0.504,-1.49,-1.43
-4.662e+00,0.496,0.488,-1.47,-1.51
-4.660e+00,0.504,0.512,-1.47,-1.41
-4.658e+00,0.504,0.496,-1.45,-1.49
-4.656e+00,0.512,0.528,-1.45,-1.39
-4.654e+00,0.52,0.504,-1.43,-1.47
-4.652e+00,0.528,0.536,-1.41,-1.35
-4.651e+00,0.528,0.52,-1.41,-1.43
-4.649e+00,0.536,0.544,-1.39,-1.33
-4.647e+00,0.536,0.528,-1.37,-1.41
-4.645e+00,0.544,0.56,-1.37,-1.31
-4.643e+00,0.544,0.544,-1.37,-1.39
-4.641e+00,0.56,0.568,-1.33,-1.29
-4.639e+00,0.56,0.552,-1.33,-1.35
-4.637e+00,0.568,0.576,-1.31,-1.25
-4.635e+00,0.568,0.56,-1.29,-1.33
-4.633e+00,0.576,0.584,-1.29,-1.23
-4.631e+00,0.576,0.568,-1.27,-1.31
-4.629e+00,0.584,0.6,-1.25,-1.19
-4.627e+00,0.584,0.576,-1.23,-1.27
-4.626e+00,0.592,0.608,-1.23,-1.17
-4.624e+00,0.6,0.592,-1.21,-1.25
-4.622e+00,0.6,0.616,-1.19,-1.13
-4.620e+00,0.608,0.6,-1.19,-1.21
-4.618e+00,0.608,0.624,-1.19,-1.11
-4.616e+00,0.608,0.608,-1.13,-1.19
-4.614e+00,0.624,0.632,-1.15,-1.07
-4.612e+00,0.624,0.616,-1.13,-1.15
-4.610e+00,0.632,0.64,-1.11,-1.05
-4.608e+00,0.632,0.624,-1.09,-1.13
-4.606e+00,0.64,0.648,-1.09,-1.01
-4.604e+00,0.64,0.632,-1.05,-1.09
-4.603e+00,0.64,0.656,-1.05,-0.99
-4.601e+00,0.648,0.64,-1.03,-1.07
-4.599e+00,0.648,0.664,-1.01,-0.95
-4.597e+00,0.656,0.648,-1.01,-1.03
-4.595e+00,0.656,0.672,-0.97,-0.91
-4.593e+00,0.664,0.656,-0.97,-0.99
-4.591e+00,0.664,0.68,-0.95,-0.89
-4.589e+00,0.672,0.664,-0.93,-0.97
-4.587e+00,0.672,0.68,-0.91,-0.85
-4.585e+00,0.672,0.664,-0.91,-0.93
-4.583e+00,0.672,0.688,-0.87,-0.83
-4.581e+00,0.688,0.672,-0.87,-0.89
-4.579e+00,0.688,0.696,-0.85,-0.79
-4.578e+00,0.688,0.68,-0.83,-0.85
-4.576e+00,0.688,0.704,-0.81,-0.75
-4.574e+00,0.688,0.688,-0.79,-0.83
-4.572e+00,0.696,0.704,-0.79,-0.71
-4.570e+00,0.696,0.688,-0.77,-0.79
-4.568e+00,0.704,0.712,-0.75,-0.67
-4.566e+00,0.704,0.696,-0.73,-0.75
-4.564e+00,0.704,0.72,-0.69,-0.65
-4.562e+00,0.712,0.704,-0.69,-0.73
-4.560e+00,0.712,0.72,-0.67,-0.61
-4.558e+00,0.712,0.704,-0.65,-0.69
-4.556e+00,0.72,0.728,-0.63,-0.57
-4.555e+00,0.72,0.712,-0.63,-0.65
-4.553e+00,0.72,0.728,-0.59,-0.53
-4.551e+00,0.72,0.712,-0.57,-0.61
-4.549e+00,0.72,0.736,-0.57,-0.49
-4.547e+00,0.72,0.712,-0.53,-0.57
-4.545e+00,0.728,0.736,-0.51,-0.45
-4.543e+00,0.728,0.72,-0.51,-0.53
-4.541e+00,0.728,0.736,-0.49,-0.41
-4.539e+00,0.728,0.72,-0.45,-0.49
-4.537e+00,0.728,0.744,-0.43,-0.37
-4.535e+00,0.728,0.72,-0.43,-0.47
-4.533e+00,0.736,0.744,-0.41,-0.35
-4.531e+00,0.736,0.728,-0.39,-0.43
-4.530e+00,0.736,0.744,-0.37,-0.31
-4.528e+00,0.736,0.728,-0.35,-0.39
-4.526e+00,0.736,0.744,-0.33,-0.27
-4.524e+00,0.736,0.728,-0.31,-0.35
-4.522e+00,0.736,0.752,-0.29,-0.23
-4.520e+00,0.736,0.728,-0.29,-0.31
-4.518e+00,0.736,0.752,-0.27,-0.19
-4.516e+00,0.736,0.728,-0.25,-0.27
-4.514e+00,0.736,0.752,-0.23,-0.15
-4.512e+00,0.736,0.728,-0.21,-0.23
-4.510e+00,0.744,0.752,-0.19,-0.13
-4.508e+00,0.744,0.728,-0.17,-0.19
-4.507e+00,0.736,0.752,-0.15,-0.09
-4.505e+00,0.744,0.728,-0.13,-0.17
-4.503e+00,0.744,0.752,-0.11,-0.05
-4.501e+00,0.736,0.728,-0.09,-0.13
-4.499e+00,0.736,0.752,-0.09,-0.01
-4.497e+00,0.736,0.728,-0.05,-0.09
-4.495e+00,0.744,0.752,-0.03,0.03
-4.493e+00,0.736,0.728,-0.03,-0.05
-4.491e+00,0.736,0.752,0.01,0.07
-4.489e+00,0.736,0.728,0.01,-0.01
-4.487e+00,0.736,0.752,0.05,0.09
-4.485e+00,0.736,0.72,0.05,0.03
-4.483e+00,0.736,0.744,0.07,0.13
-4.482e+00,0.728,0.72,0.11,0.07
-4.480e+00,0.736,0.744,0.13,0.17
-4.478e+00,0.736,0.72,0.13,0.11
-4.476e+00,0.736,0.744,0.15,0.21
-4.474e+00,0.728,0.72,0.17,0.15
-4.472e+00,0.728,0.736,0.21,0.25
-4.470e+00,0.728,0.712,0.21,0.19
-4.468e+00,0.72,0.736,0.23,0.29
-4.466e+00,0.728,0.712,0.27,0.23
-4.464e+00,0.72,0.736,0.27,0.33
-4.462e+00,0.72,0.712,0.29,0.25
-4.460e+00,0.72,0.728,0.33,0.35
-4.459e+00,0.72,0.704,0.33,0.29
-4.457e+00,0.72,0.728,0.35,0.39
-4.455e+00,0.712,0.696,0.37,0.33
-4.453e+00,0.712,0.72,0.39,0.43
-4.451e+00,0.712,0.696,0.39,0.37
-4.449e+00,0.704,0.72,0.41,0.47
-4.447e+00,0.704,0.688,0.45,0.41
-4.445e+00,0.704,0.712,0.45,0.51
-4.443e+00,0.696,0.688,0.49,0.45
-4.441e+00,0.696,0.704,0.49,0.55
-4.439e+00,0.688,0.68,0.51,0.49
-4.437e+00,0.688,0.704,0.53,0.59
-4.435e+00,0.688,0.672,0.55,0.53
-4.434e+00,0.688,0.696,0.59,0.63
-4.432e+00,0.68,0.664,0.59,0.55
-4.430e+00,0.68,0.688,0.61,0.67
-4.428e+00,0.68,0.664,0.63,0.59
-4.426e+00,0.664,0.688,0.63,0.71
-4.424e+00,0.664,0.656,0.67,0.63
-4.422e+00,0.672,0.68,0.69,0.73
-4.420e+00,0.664,0.648,0.69,0.67
-4.418e+00,0.656,0.672,0.71,0.77
-4.416e+00,0.656,0.64,0.73,0.71
-4.414e+00,0.648,0.664,0.75,0.81
-4.412e+00,0.648,0.632,0.77,0.73
-4.411e+00,0.648,0.656,0.79,0.83
-4.409e+00,0.64,0.624,0.81,0.77
-4.407e+00,0.632,0.648,0.81,0.87
-4.405e+00,0.632,0.616,0.83,0.81
-4.403e+00,0.624,0.64,0.87,0.91
-4.401e+00,0.624,0.608,0.87,0.83
-4.399e+00,0.616,0.632,0.89,0.95
-4.397e+00,0.616,0.6,0.89,0.87
-4.395e+00,0.608,0.624,0.93,0.97
-4.393e+00,0.608,0.592,0.93,0.91
-4.391e+00,0.6,0.616,0.95,1.01
-4.389e+00,0.6,0.584,0.97,0.93
-4.387e+00,0.592,0.608,0.99,1.03
-4.386e+00,0.592,0.568,1.01,0.97
-4.384e+00,0.584,0.6,1.01,1.07
-4.382e+00,0.584,0.56,1.03,1.01
-4.380e+00,0.576,0.592,1.05,1.09
-4.378e+00,0.568,0.552,1.05,1.03
-4.376e+00,0.568,0.576,1.07,1.13
-4.374e+00,0.56,0.544,1.11,1.07
-4.372e+00,0.56,0.568,1.11,1.15
-4.370e+00,0.552,0.528,1.13,1.09
-4.368e+00,0.544,0.56,1.13,1.19
-4.366e+00,0.544,0.52,1.13,1.13
-4.364e+00,0.536,0.544,1.17,1.21
-4.363e+00,0.528,0.512,1.19,1.15
-4.361e+00,0.528,0.536,1.21,1.25
-4.359e+00,0.52,0.504,1.21,1.17
-4.357e+00,0.512,0.528,1.23,1.27
-4.355e+00,0.512,0.488,1.23,1.21
-4.353e+00,0.496,0.52,1.25,1.31
-4.351e+00,0.496,0.48,1.27,1.23
-4.349e+00,0.488,0.504,1.29,1.33
-4.347e+00,0.488,0.464,1.29,1.27
-4.345e+00,0.48,0.496,1.31,1.35
-4.343e+00,0.472,0.456,1.33,1.29
-4.341e+00,0.464,0.48,1.35,1.39
-4.339e+00,0.464,0.44,1.35,1.31
-4.338e+00,0.448,0.472,1.37,1.41
-4.336e+00,0.448,0.424,1.37,1.35
-4.334e+00,0.44,0.456,1.39,1.43
-4.332e+00,0.432,0.416,1.39,1.37
-4.330e+00,0.432,0.448,1.43,1.47
-4.328e+00,0.424,0.408,1.43,1.39
-4.326e+00,0.416,0.432,1.43,1.49
-4.324e+00,0.416,0.392,1.45,1.41
-4.322e+00,0.408,0.424,1.47,1.51
-4.320e+00,0.4,0.376,1.49,1.43
-4.318e+00,0.392,0.408,1.49,1.53
-4.316e+00,0.384,0.36,1.51,1.47
-4.315e+00,0.376,0.392,1.51,1.55
-4.313e+00,0.376,0.352,1.51,1.49
-4.311e+00,0.368,0.376,1.53,1.57
-4.309e+00,0.36,0.336,1.53,1.51
-4.307e+00,0.352,0.368,1.55,1.59
-4.305e+00,0.344,0.32,1.55,1.53
-4.303e+00,0.336,0.352,1.57,1.61
-4.301e+00,0.328,0.304,1.57,1.53
-4.299e+00,0.328,0.336,1.59,1.63
-4.297e+00,0.32,0.296,1.61,1.55
-4.295e+00,0.312,0.328,1.61,1.65
-4.293e+00,0.304,0.28,1.61,1.57
-4.291e+00,0.296,0.312,1.65,1.67
-4.290e+00,0.288,0.264,1.65,1.59
-4.288e+00,0.28,0.296,1.63,1.69
-4.286e+00,0.272,0.248,1.65,1.61
-4.284e+00,0.264,0.28,1.67,1.71
-4.282e+00,0.256,0.232,1.67,1.63
-4.280e+00,0.256,0.264,1.67,1.71
-4.278e+00,0.24,0.224,1.69,1.65
-4.276e+00,0.232,0.256,1.69,1.73
-4.274e+00,0.232,0.208,1.69,1.65
-4.272e+00,0.224,0.24,1.71,1.75
-4.270e+00,0.208,0.192,1.71,1.67
-4.268e+00,0.208,0.224,1.71,1.75
-4.267e+00,0.2,0.176,1.71,1.69
-4.265e+00,0.192,0.208,1.73,1.77
-4.263e+00,0.184,0.16,1.73,1.69
-4.261e+00,0.176,0.192,1.75,1.79
-4.259e+00,0.176,0.144,1.75,1.71
-4.257e+00,0.16,0.176,1.75,1.79
-4.255e+00,0.16,0.128,1.77,1.73
-4.253e+00,0.144,0.16,1.77,1.81
-4.251e+00,0.136,0.112,1.77,1.73
-4.249e+00,0.136,0.144,1.77,1.81
-4.247e+00,0.128,0.104,1.77,1.73
-4.245e+00,0.112,0.136,1.79,1.83
-4.243e+00,0.104,0.088,1.81,1.75
-4.242e+00,0.104,0.12,1.79,1.83
-4.240e+00,0.096,0.072,1.81,1.75
-4.238e+00,0.08,0.104,1.81,1.83
-4.236e+00,0.08,0.056,1.79,1.77
-4.234e+00,0.072,0.088,1.81,1.85
-4.232e+00,0.064,0.04,1.81,1.77
-4.230e+00,0.056,0.072,1.81,1.85
-4.228e+00,0.048,0.024,1.81,1.77
-4.226e+00,0.04,0.056,1.81,1.85
-4.224e+00,0.04,0.008,1.83,1.79
-4.222e+00,0.024,0.04,1.81,1.87
-4.220e+00,0.016,-0.008,1.83,1.77
-4.219e+00,0.008,0.024,1.83,1.87
-4.217e+00,-1.78814e-10,-0.016,1.83,1.79
-4.215e+00,-1.78814e-10,0.016,1.83,1.87
-4.213e+00,-0.016,-0.04,1.83,1.79
-4.211e+00,-0.016,-1.78814e-10,1.83,1.87
-4.209e+00,-0.024,-0.048,1.83,1.79
-4.207e+00,-0.032,-0.016,1.83,1.87
-4.205e+00,-0.04,-0.064,1.83,1.79
-4.203e+00,-0.048,-0.032,1.83,1.87
-4.201e+00,-0.056,-0.08,1.83,1.79
-4.199e+00,-0.056,-0.048,1.83,1.87
-4.197e+00,-0.072,-0.096,1.83,1.79
-4.195e+00,-0.08,-0.064,1.83,1.87
-4.194e+00,-0.08,-0.112,1.83,1.79
-4.192e+00,-0.088,-0.072,1.83,1.87
-4.190e+00,-0.096,-0.128,1.85,1.79
-4.188e+00,-0.112,-0.088,1.83,1.87
-4.186e+00,-0.112,-0.144,1.83,1.79
-4.184e+00,-0.12,-0.104,1.83,1.87
-4.182e+00,-0.136,-0.16,1.81,1.79
-4.180e+00,-0.136,-0.12,1.83,1.87
-4.178e+00,-0.144,-0.168,1.83,1.77
-4.176e+00,-0.16,-0.136,1.81,1.85
-4.174e+00,-0.16,-0.184,1.81,1.77
-4.172e+00,-0.168,-0.152,1.81,1.85
-4.171e+00,-0.176,-0.2,1.81,1.77
-4.169e+00,-0.184,-0.168,1.81,1.83
-4.167e+00,-0.192,-0.208,1.81,1.75
-4.165e+00,-0.2,-0.184,1.79,1.83
-4.163e+00,-0.208,-0.232,1.79,1.75
-4.161e+00,-0.208,-0.192,1.79,1.83
-4.159e+00,-0.216,-0.24,1.77,1.73
-4.157e+00,-0.232,-0.216,1.79,1.81
-4.155e+00,-0.232,-0.256,1.77,1.73
-4.153e+00,-0.24,-0.224,1.75,1.81
-4.151e+00,-0.248,-0.272,1.77,1.71
-4.149e+00,-0.256,-0.24,1.77,1.79
-4.147e+00,-0.264,-0.288,1.77,1.71
-4.146e+00,-0.272,-0.256,1.75,1.79
-4.144e+00,-0.272,-0.304,1.75,1.69
-4.142e+00,-0.288,-0.272,1.73,1.79
-4.140e+00,-0.288,-0.32,1.73,1.67
-4.138e+00,-0.296,-0.288,1.73,1.77
-4.136e+00,-0.304,-0.328,1.73,1.65
-4.134e+00,-0.312,-0.296,1.71,1.75
-4.132e+00,-0.32,-0.344,1.71,1.65
-4.130e+00,-0.328,-0.312,1.69,1.73
-4.128e+00,-0.336,-0.36,1.69,1.63
-4.126e+00,-0.344,-0.328,1.69,1.73
-4.124e+00,-0.344,-0.376,1.67,1.61
-4.123e+00,-0.352,-0.336,1.67,1.71
-4.121e+00,-0.36,-0.384,1.65,1.59
-4.119e+00,-0.368,-0.352,1.65,1.69
-4.117e+00,-0.368,-0.4,1.65,1.59
-4.115e+00,-0.384,-0.368,1.65,1.67
-4.113e+00,-0.384,-0.408,1.63,1.57
-4.111e+00,-0.392,-0.376,1.61,1.65
-4.109e+00,-0.4,-0.424,1.63,1.55
-4.107e+00,-0.416,-0.392,1.61,1.65
-4.105e+00,-0.416,-0.432,1.57,1.53
-4.103e+00,-0.424,-0.4,1.59,1.61
-4.101e+00,-0.424,-0.448,1.57,1.51
-4.099e+00,-0.432,-0.416,1.57,1.61
-4.098e+00,-0.44,-0.456,1.55,1.49
-4.096e+00,-0.44,-0.432,1.53,1.57
-4.094e+00,-0.448,-0.472,1.53,1.47
-4.092e+00,-0.456,-0.44,1.51,1.57
-4.090e+00,-0.464,-0.48,1.53,1.45
-4.088e+00,-0.464,-0.456,1.49,1.55
-4.086e+00,-0.472,-0.496,1.47,1.43
-4.084e+00,-0.48,-0.464,1.47,1.51
-4.082e+00,-0.488,-0.504,1.45,1.41
-4.080e+00,-0.488,-0.48,1.43,1.49
-4.078e+00,-0.496,-0.52,1.43,1.37
-4.076e+00,-0.504,-0.488,1.43,1.47
-4.075e+00,-0.504,-0.528,1.41,1.35
-4.073e+00,-0.512,-0.496,1.39,1.43
-4.071e+00,-0.52,-0.544,1.37,1.33
-4.069e+00,-0.52,-0.512,1.39,1.43
-4.067e+00,-0.528,-0.552,1.35,1.31
-4.065e+00,-0.536,-0.52,1.35,1.39
-4.063e+00,-0.536,-0.56,1.33,1.27
-4.061e+00,-0.544,-0.528,1.31,1.37
-4.059e+00,-0.552,-0.568,1.31,1.25
-4.057e+00,-0.56,-0.544,1.29,1.35
-4.055e+00,-0.56,-0.576,1.27,1.21
-4.053e+00,-0.568,-0.552,1.27,1.31
-4.051e+00,-0.576,-0.592,1.25,1.19
-4.050e+00,-0.576,-0.56,1.25,1.29
-4.048e+00,-0.576,-0.6,1.21,1.17
-4.046e+00,-0.584,-0.568,1.19,1.25
-4.044e+00,-0.584,-0.608,1.19,1.13
-4.042e+00,-0.592,-0.584,1.19,1.23
-4.040e+00,-0.6,-0.616,1.17,1.11
-4.038e+00,-0.6,-0.592,1.15,1.21
-4.036e+00,-0.608,-0.624,1.15,1.07
-4.034e+00,-0.608,-0.6,1.13,1.17
-4.032e+00,-0.616,-0.632,1.09,1.05
-4.030e+00,-0.616,-0.608,1.09,1.15
-4.028e+00,-0.624,-0.64,1.07,1.01
-4.026e+00,-0.632,-0.616,1.07,1.11
-4.025e+00,-0.632,-0.648,1.07,0.99
-4.023e+00,-0.632,-0.624,1.03,1.09
-4.021e+00,-0.64,-0.656,1.01,0.95
-4.019e+00,-0.64,-0.632,1.01,1.05
-4.017e+00,-0.648,-0.664,0.99,0.91
-4.015e+00,-0.648,-0.64,0.99,1.01
-4.013e+00,-0.648,-0.672,0.95,0.89
-4.011e+00,-0.656,-0.648,0.93,0.99
-4.009e+00,-0.656,-0.68,0.91,0.85
-4.007e+00,-0.664,-0.656,0.91,0.95
-4.005e+00,-0.664,-0.68,0.87,0.81
-4.003e+00,-0.672,-0.656,0.87,0.93
-4.002e+00,-0.672,-0.688,0.85,0.79
-4.000e+00,-0.672,-0.664,0.83,0.89
-3.998e+00,-0.68,-0.696,0.81,0.75
-3.996e+00,-0.68,-0.672,0.79,0.87
-3.994e+00,-0.68,-0.704,0.77,0.73
-3.992e+00,-0.688,-0.672,0.79,0.83
-3.990e+00,-0.688,-0.704,0.73,0.69
-3.988e+00,-0.696,-0.68,0.73,0.79
-3.986e+00,-0.696,-0.712,0.71,0.65
-3.984e+00,-0.696,-0.688,0.69,0.75
-3.982e+00,-0.696,-0.712,0.69,0.61
-3.980e+00,-0.696,-0.688,0.65,0.71
-3.978e+00,-0.704,-0.72,0.63,0.57
-3.977e+00,-0.712,-0.696,0.61,0.69
-3.975e+00,-0.704,-0.72,0.61,0.55
-3.973e+00,-0.704,-0.696,0.57,0.65
-3.971e+00,-0.712,-0.728,0.57,0.51
-3.969e+00,-0.712,-0.704,0.55,0.61
-3.967e+00,-0.712,-0.728,0.53,0.47
-3.965e+00,-0.712,-0.704,0.51,0.57
-3.963e+00,-0.72,-0.736,0.49,0.43
-3.961e+00,-0.72,-0.712,0.47,0.53
-3.959e+00,-0.72,-0.736,0.47,0.39
-3.957e+00,-0.72,-0.712,0.43,0.49
-3.955e+00,-0.72,-0.736,0.41,0.35
-3.954e+00,-0.728,-0.712,0.41,0.45
-3.952e+00,-0.728,-0.744,0.37,0.31
-3.950e+00,-0.728,-0.72,0.35,0.41
-3.948e+00,-0.728,-0.744,0.35,0.27
-3.946e+00,-0.728,-0.72,0.33,0.37
-3.944e+00,-0.736,-0.744,0.31,0.25
-3.942e+00,-0.736,-0.72,0.27,0.35
-3.940e+00,-0.736,-0.744,0.29,0.21
-3.938e+00,-0.728,-0.72,0.25,0.31
-3.936e+00,-0.728,-0.744,0.23,0.17
-3.934e+00,-0.736,-0.72,0.21,0.27
-3.932e+00,-0.728,-0.744,0.21,0.13
-3.930e+00,-0.736,-0.72,0.17,0.23
-3.929e+00,-0.728,-0.752,0.15,0.09
-3.927e+00,-0.736,-0.728,0.15,0.19
-3.925e+00,-0.736,-0.744,0.11,0.05
-3.923e+00,-0.736,-0.728,0.11,0.15
-3.921e+00,-0.736,-0.744,0.09,0.01
-3.919e+00,-0.728,-0.728,0.07,0.11
-3.917e+00,-0.736,-0.744,0.03,-0.03
-3.915e+00,-0.728,-0.72,0.03,0.07
-3.913e+00,-0.736,-0.744,-0.01,-0.07
-3.911e+00,-0.728,-0.72,-0.03,0.05
-3.909e+00,-0.728,-0.744,-0.05,-0.11
