Versuch2/datasets/damp1/T0013.CSV

Model,DPO2002B
Firmware Version,1.52

Point Format,Y,,,
Horizontal Units,S,,,
Horizontal Scale,0.4,,,
Sample Interval,0.000768049,,,
Filter Frequency,7e+07,,,
Record Length,5200,,,
Gating,0.0% to 100.0%,,0.0% to 100.0%,
Probe Attenuation,1,,10,
Vertical Units,V,,V,
Vertical Offset,0,,0,
Vertical Scale,0.2,,0.02,
Label,,,,
TIME,CH1,CH1 Peak Detect,CH2,CH2 Peak Detect
-2.0000e+00,-0.256,-0.264,0.0116,0.0028
-1.9992e+00,-0.248,-0.232,0.0252,0.0308
-1.9985e+00,-0.24,-0.248,0.0124,0.002
-1.9977e+00,-0.24,-0.224,0.0092,0.0284
-1.9969e+00,-0.232,-0.24,0.014,-0.0012
-1.9962e+00,-0.224,-0.216,0.0148,0.0276
-1.9954e+00,-0.216,-0.224,0.0116,0.0004
-1.9946e+00,-0.208,-0.2,0.0172,0.0252
-1.9939e+00,-0.208,-0.216,0.014,-0.0004
-1.9931e+00,-0.2,-0.184,0.0084,0.0252
-1.9923e+00,-0.192,-0.208,0.0148,-0.0012
-1.9916e+00,-0.184,-0.168,0.0156,0.0252
-1.9908e+00,-0.184,-0.192,0.0076,-0.002
-1.9900e+00,-0.176,-0.16,0.01,0.0228
-1.9892e+00,-0.168,-0.176,0.0132,-0.0036
-1.9885e+00,-0.16,-0.144,0.0036,0.022
-1.9877e+00,-0.152,-0.168,0.0076,-0.0036
-1.9869e+00,-0.152,-0.136,0.0124,0.022
-1.9862e+00,-0.144,-0.152,0.0052,-0.006
-1.9854e+00,-0.136,-0.128,0.0052,0.022
-1.9846e+00,-0.128,-0.136,0.0116,-0.0068
-1.9839e+00,-0.12,-0.112,0.006,0.0188
-1.9831e+00,-0.112,-0.128,0.0044,-0.0068
-1.9823e+00,-0.112,-0.096,0.0068,0.0204
-1.9816e+00,-0.104,-0.112,0.006,-0.0076
-1.9808e+00,-0.096,-0.08,0.0052,0.018
-1.9800e+00,-0.088,-0.104,0.0084,-0.0084
-1.9793e+00,-0.088,-0.072,0.0044,0.0164
-1.9785e+00,-0.08,-0.088,0.0004,-0.0084
-1.9777e+00,-0.072,-0.064,0.0052,0.0164
-1.9770e+00,-0.064,-0.08,0.0052,-0.0116
-1.9762e+00,-0.056,-0.048,-0.0044,0.0148
-1.9754e+00,-0.056,-0.064,-0.002,-0.0124
-1.9747e+00,-0.048,-0.032,0.0076,0.0148
-1.9739e+00,-0.04,-0.048,-0.0028,-0.0116
-1.9731e+00,-0.032,-0.024,0.002,0.0124
-1.9724e+00,-0.024,-0.04,0.0012,-0.014
-1.9716e+00,-0.024,-0.008,-0.0004,0.0116
-1.9708e+00,-0.016,-0.024,0.0004,-0.014
-1.9700e+00,-0.016,-1.78814e-10,-0.0004,0.0116
-1.9693e+00,-0.008,-0.016,-0.0044,-0.0164
-1.9685e+00,-1.78814e-10,0.016,-0.006,0.01
-1.9677e+00,0.008,-1.78814e-10,0.0012,-0.0172
-1.9670e+00,0.016,0.024,-0.0028,0.0092
-1.9662e+00,0.016,0.008,-0.0036,-0.0172
-1.9654e+00,0.024,0.04,-0.0028,0.0076
-1.9647e+00,0.032,0.024,-0.0028,-0.0188
-1.9639e+00,0.04,0.056,-0.0148,0.0076
-1.9631e+00,0.048,0.04,-0.0052,-0.0196
-1.9624e+00,0.048,0.064,-0.0044,0.006
-1.9616e+00,0.064,0.048,-0.01,-0.0196
-1.9608e+00,0.064,0.08,-0.0068,0.006
-1.9601e+00,0.072,0.064,-0.006,-0.0236
-1.9593e+00,0.08,0.088,-0.0124,0.0036
-1.9585e+00,0.08,0.072,-0.0108,-0.022
-1.9578e+00,0.088,0.104,-0.0052,0.0028
-1.9570e+00,0.096,0.088,-0.0132,-0.0228
-1.9562e+00,0.104,0.112,-0.0116,0.002
-1.9555e+00,0.104,0.096,-0.0068,-0.0236
-1.9547e+00,0.112,0.128,-0.0132,0.002
-1.9539e+00,0.12,0.112,-0.0108,-0.0252
-1.9531e+00,0.12,0.144,-0.0132,0.0004
-1.9524e+00,0.136,0.128,-0.0116,-0.0268
-1.9516e+00,0.144,0.152,-0.0164,0.0004
-1.9508e+00,0.144,0.136,-0.0124,-0.0276
-1.9501e+00,0.152,0.168,-0.0124,-0.002
-1.9493e+00,0.152,0.152,-0.0148,-0.0292
-1.9485e+00,0.16,0.176,-0.0148,-0.0028
-1.9478e+00,0.168,0.16,-0.0164,-0.0316
-1.9470e+00,0.176,0.192,-0.0252,-0.0036
-1.9462e+00,0.184,0.176,-0.0156,-0.0308
-1.9455e+00,0.192,0.208,-0.0172,-0.0044
-1.9447e+00,0.2,0.184,-0.0196,-0.0316
-1.9439e+00,0.2,0.216,-0.018,-0.006
-1.9432e+00,0.208,0.2,-0.0116,-0.0324
-1.9424e+00,0.216,0.232,-0.0228,-0.006
-1.9416e+00,0.224,0.216,-0.0196,-0.0324
-1.9409e+00,0.232,0.24,-0.0156,-0.0068
-1.9401e+00,0.232,0.224,-0.026,-0.0348
-1.9393e+00,0.24,0.256,-0.0228,-0.0076
-1.9386e+00,0.24,0.24,-0.0204,-0.0348
-1.9378e+00,0.256,0.264,-0.0252,-0.0092
-1.9370e+00,0.256,0.248,-0.0252,-0.0356
-1.9363e+00,0.272,0.28,-0.022,-0.0108
-1.9355e+00,0.272,0.264,-0.0268,-0.0372
-1.9347e+00,0.272,0.288,-0.0268,-0.0108
-1.9339e+00,0.288,0.272,-0.0236,-0.038
-1.9332e+00,0.288,0.304,-0.0212,-0.0124
-1.9324e+00,0.296,0.288,-0.0284,-0.0388
-1.9316e+00,0.304,0.312,-0.0204,-0.0116
-1.9309e+00,0.304,0.296,-0.0252,-0.042
-1.9301e+00,0.32,0.328,-0.0332,-0.0132
-1.9293e+00,0.32,0.312,-0.0228,-0.0412
-1.9286e+00,0.328,0.336,-0.0276,-0.0148
-1.9278e+00,0.328,0.32,-0.03,-0.0428
-1.9270e+00,0.336,0.352,-0.0276,-0.0156
-1.9263e+00,0.344,0.336,-0.0268,-0.0436
-1.9255e+00,0.344,0.36,-0.0372,-0.0172
-1.9247e+00,0.352,0.344,-0.0276,-0.0444
-1.9240e+00,0.36,0.376,-0.0284,-0.0172
-1.9232e+00,0.368,0.36,-0.0332,-0.0444
-1.9224e+00,0.368,0.384,-0.0324,-0.0188
-1.9217e+00,0.376,0.368,-0.0292,-0.046
-1.9209e+00,0.384,0.392,-0.0324,-0.0196
-1.9201e+00,0.392,0.376,-0.034,-0.0468
-1.9194e+00,0.392,0.408,-0.03,-0.0196
-1.9186e+00,0.4,0.392,-0.0348,-0.0476
-1.9178e+00,0.408,0.416,-0.0372,-0.0212
-1.9171e+00,0.408,0.4,-0.0316,-0.0484
-1.9163e+00,0.416,0.432,-0.0356,-0.022
-1.9155e+00,0.424,0.416,-0.042,-0.0492
-1.9147e+00,0.424,0.44,-0.0292,-0.0236
-1.9140e+00,0.432,0.424,-0.0388,-0.05
-1.9132e+00,0.44,0.448,-0.0428,-0.0244
-1.9124e+00,0.44,0.432,-0.0348,-0.0508
-1.9117e+00,0.448,0.456,-0.0348,-0.0252
-1.9109e+00,0.448,0.44,-0.0444,-0.0532
-1.9101e+00,0.464,0.472,-0.0404,-0.026
-1.9094e+00,0.464,0.456,-0.0372,-0.0524
-1.9086e+00,0.464,0.48,-0.0404,-0.0276
-1.9078e+00,0.472,0.464,-0.034,-0.0548
-1.9071e+00,0.472,0.488,-0.038,-0.0276
-1.9063e+00,0.48,0.472,-0.0452,-0.0548
-1.9055e+00,0.488,0.496,-0.0428,-0.0292
-1.9048e+00,0.496,0.48,-0.0404,-0.0556
-1.9040e+00,0.496,0.504,-0.0404,-0.0284
-1.9032e+00,0.496,0.496,-0.0396,-0.0556
-1.9025e+00,0.504,0.52,-0.0428,-0.03
-1.9017e+00,0.504,0.504,-0.046,-0.0564
-1.9009e+00,0.52,0.528,-0.0484,-0.0308
-1.9002e+00,0.52,0.512,-0.0388,-0.0588
-1.8994e+00,0.528,0.536,-0.0444,-0.0316
-1.8986e+00,0.528,0.52,-0.0484,-0.058
-1.8978e+00,0.536,0.544,-0.0388,-0.0332
-1.8971e+00,0.536,0.528,-0.0476,-0.0588
-1.8963e+00,0.536,0.552,-0.0516,-0.0332
-1.8955e+00,0.544,0.536,-0.0484,-0.0604
-1.8948e+00,0.552,0.56,-0.0468,-0.0348
-1.8940e+00,0.552,0.544,-0.0492,-0.0604
-1.8932e+00,0.56,0.568,-0.0476,-0.0332
-1.8925e+00,0.56,0.552,-0.0436,-0.0628
-1.8917e+00,0.568,0.576,-0.0516,-0.0356
-1.8909e+00,0.568,0.56,-0.0444,-0.0628
-1.8902e+00,0.576,0.584,-0.0452,-0.0372
-1.8894e+00,0.576,0.568,-0.0516,-0.0644
-1.8886e+00,0.576,0.6,-0.0484,-0.038
-1.8879e+00,0.584,0.576,-0.0492,-0.0644
-1.8871e+00,0.592,0.6,-0.054,-0.0372
-1.8863e+00,0.6,0.584,-0.0524,-0.0636
-1.8856e+00,0.592,0.608,-0.05,-0.038
-1.8848e+00,0.6,0.592,-0.0556,-0.0644
-1.8840e+00,0.608,0.616,-0.0524,-0.0396
-1.8833e+00,0.608,0.6,-0.0548,-0.0668
-1.8825e+00,0.616,0.624,-0.0556,-0.0396
-1.8817e+00,0.616,0.608,-0.0572,-0.066
-1.8810e+00,0.624,0.632,-0.0516,-0.0404
-1.8802e+00,0.624,0.616,-0.0524,-0.0668
-1.8794e+00,0.624,0.64,-0.0564,-0.0412
-1.8786e+00,0.632,0.624,-0.0524,-0.0676
-1.8779e+00,0.632,0.648,-0.0532,-0.0412
-1.8771e+00,0.64,0.632,-0.0596,-0.0692
-1.8763e+00,0.64,0.648,-0.0572,-0.0404
-1.8756e+00,0.64,0.632,-0.0564,-0.0684
-1.8748e+00,0.648,0.656,-0.0636,-0.0436
-1.8740e+00,0.648,0.64,-0.0556,-0.07
-1.8733e+00,0.656,0.664,-0.0548,-0.0428
-1.8725e+00,0.656,0.648,-0.0588,-0.0708
-1.8717e+00,0.656,0.672,-0.0548,-0.0444
-1.8710e+00,0.664,0.656,-0.0508,-0.0708
-1.8702e+00,0.664,0.68,-0.0612,-0.0444
-1.8694e+00,0.672,0.656,-0.0572,-0.0708
-1.8687e+00,0.672,0.68,-0.058,-0.046
-1.8679e+00,0.672,0.664,-0.0604,-0.0708
-1.8671e+00,0.68,0.688,-0.0596,-0.0468
-1.8664e+00,0.68,0.672,-0.054,-0.0724
-1.8656e+00,0.68,0.696,-0.0644,-0.0468
-1.8648e+00,0.688,0.672,-0.0612,-0.0724
-1.8641e+00,0.688,0.696,-0.0564,-0.0468
-1.8633e+00,0.688,0.68,-0.0572,-0.0732
-1.8625e+00,0.688,0.704,-0.0628,-0.0468
-1.8618e+00,0.696,0.688,-0.0548,-0.0724
-1.8610e+00,0.696,0.704,-0.0636,-0.0484
-1.8602e+00,0.696,0.688,-0.0644,-0.074
-1.8594e+00,0.704,0.712,-0.066,-0.0476
-1.8587e+00,0.704,0.696,-0.0588,-0.0748
-1.8579e+00,0.704,0.712,-0.0676,-0.0476
-1.8571e+00,0.712,0.696,-0.0596,-0.0748
-1.8564e+00,0.704,0.72,-0.0556,-0.0492
-1.8556e+00,0.712,0.704,-0.0652,-0.0748
-1.8548e+00,0.712,0.72,-0.0636,-0.0492
-1.8541e+00,0.712,0.704,-0.0612,-0.0764
-1.8533e+00,0.72,0.728,-0.066,-0.05
-1.8525e+00,0.72,0.712,-0.0636,-0.0764
-1.8518e+00,0.72,0.728,-0.0628,-0.0508
-1.8510e+00,0.72,0.712,-0.0652,-0.0772
-1.8502e+00,0.72,0.728,-0.066,-0.05
-1.8495e+00,0.72,0.712,-0.062,-0.0756
-1.8487e+00,0.728,0.736,-0.0628,-0.0516
-1.8479e+00,0.72,0.72,-0.0604,-0.0772
-1.8472e+00,0.728,0.736,-0.062,-0.0524
-1.8464e+00,0.728,0.72,-0.066,-0.0764
-1.8456e+00,0.728,0.736,-0.0684,-0.0524
-1.8449e+00,0.728,0.72,-0.0596,-0.0772
-1.8441e+00,0.736,0.744,-0.0612,-0.0524
-1.8433e+00,0.736,0.72,-0.0708,-0.078
-1.8425e+00,0.736,0.744,-0.066,-0.0524
-1.8418e+00,0.736,0.728,-0.07,-0.0772
-1.8410e+00,0.736,0.744,-0.0676,-0.0532
-1.8402e+00,0.736,0.728,-0.0652,-0.0772
-1.8395e+00,0.736,0.744,-0.0588,-0.0516
-1.8387e+00,0.736,0.728,-0.0652,-0.078
-1.8379e+00,0.736,0.744,-0.0692,-0.0532
-1.8372e+00,0.736,0.728,-0.066,-0.078
-1.8364e+00,0.736,0.752,-0.0684,-0.0532
-1.8356e+00,0.736,0.728,-0.0684,-0.0788
-1.8349e+00,0.736,0.752,-0.0596,-0.0516
-1.8341e+00,0.736,0.728,-0.0684,-0.0796
-1.8333e+00,0.736,0.752,-0.0652,-0.0532
-1.8326e+00,0.736,0.728,-0.0652,-0.0788
-1.8318e+00,0.744,0.752,-0.066,-0.054
-1.8310e+00,0.744,0.728,-0.0692,-0.0788
-1.8303e+00,0.744,0.752,-0.066,-0.054
-1.8295e+00,0.736,0.728,-0.0628,-0.0796
-1.8287e+00,0.736,0.752,-0.0716,-0.0532
-1.8280e+00,0.744,0.728,-0.0644,-0.0788
-1.8272e+00,0.736,0.752,-0.0612,-0.0524
-1.8264e+00,0.736,0.728,-0.0684,-0.0804
-1.8257e+00,0.736,0.752,-0.0668,-0.054
-1.8249e+00,0.736,0.728,-0.0652,-0.0796
-1.8241e+00,0.736,0.752,-0.0724,-0.0532
-1.8233e+00,0.736,0.728,-0.0676,-0.0788
-1.8226e+00,0.736,0.752,-0.0668,-0.054
-1.8218e+00,0.736,0.728,-0.0732,-0.0804
-1.8210e+00,0.736,0.744,-0.0692,-0.054
-1.8203e+00,0.736,0.728,-0.0644,-0.0804
-1.8195e+00,0.736,0.744,-0.0716,-0.054
-1.8187e+00,0.736,0.728,-0.0716,-0.0788
-1.8180e+00,0.736,0.744,-0.0652,-0.054
-1.8172e+00,0.736,0.72,-0.0684,-0.0804
-1.8164e+00,0.736,0.744,-0.0676,-0.054
-1.8157e+00,0.728,0.72,-0.062,-0.0804
-1.8149e+00,0.728,0.744,-0.07,-0.054
-1.8141e+00,0.728,0.72,-0.0732,-0.0796
-1.8134e+00,0.728,0.736,-0.0668,-0.054
-1.8126e+00,0.728,0.72,-0.0644,-0.0788
-1.8118e+00,0.72,0.736,-0.0716,-0.0548
-1.8111e+00,0.728,0.712,-0.0668,-0.0788
-1.8103e+00,0.72,0.736,-0.0684,-0.0548
-1.8095e+00,0.72,0.712,-0.0724,-0.0804
-1.8088e+00,0.72,0.728,-0.07,-0.054
-1.8080e+00,0.72,0.712,-0.0676,-0.0788
-1.8072e+00,0.72,0.728,-0.0692,-0.054
-1.8065e+00,0.712,0.704,-0.066,-0.0788
-1.8057e+00,0.712,0.728,-0.0628,-0.054
-1.8049e+00,0.712,0.704,-0.0708,-0.0796
-1.8041e+00,0.712,0.72,-0.07,-0.0532
-1.8034e+00,0.712,0.696,-0.066,-0.0804
-1.8026e+00,0.712,0.72,-0.0684,-0.0548
-1.8018e+00,0.704,0.696,-0.0684,-0.0788
-1.8011e+00,0.696,0.712,-0.0604,-0.0532
-1.8003e+00,0.696,0.688,-0.0668,-0.078
-1.7995e+00,0.704,0.712,-0.07,-0.054
-1.7988e+00,0.696,0.688,-0.0628,-0.0788
-1.7980e+00,0.696,0.704,-0.0692,-0.054
-1.7972e+00,0.696,0.68,-0.0692,-0.078
-1.7965e+00,0.688,0.696,-0.0612,-0.0516
-1.7957e+00,0.688,0.672,-0.0652,-0.0788
-1.7949e+00,0.688,0.696,-0.0708,-0.0532
-1.7942e+00,0.68,0.672,-0.0644,-0.0772
-1.7934e+00,0.68,0.688,-0.0628,-0.0524
-1.7926e+00,0.68,0.664,-0.07,-0.078
-1.7919e+00,0.672,0.688,-0.0628,-0.0524
-1.7911e+00,0.672,0.656,-0.062,-0.078
-1.7903e+00,0.664,0.68,-0.0668,-0.0516
-1.7896e+00,0.664,0.648,-0.0652,-0.0764
-1.7888e+00,0.664,0.672,-0.0596,-0.0508
-1.7880e+00,0.664,0.648,-0.0684,-0.0764
-1.7873e+00,0.656,0.672,-0.0644,-0.0492
-1.7865e+00,0.648,0.64,-0.0588,-0.0764
-1.7857e+00,0.656,0.664,-0.066,-0.05
-1.7849e+00,0.648,0.632,-0.0652,-0.0748
-1.7842e+00,0.64,0.656,-0.0604,-0.05
-1.7834e+00,0.64,0.624,-0.0644,-0.0764
-1.7826e+00,0.64,0.648,-0.0684,-0.05
-1.7819e+00,0.632,0.624,-0.0612,-0.0748
-1.7811e+00,0.632,0.648,-0.0652,-0.0484
-1.7803e+00,0.624,0.616,-0.0724,-0.0756
-1.7796e+00,0.624,0.64,-0.0564,-0.0492
-1.7788e+00,0.624,0.608,-0.0636,-0.0748
-1.7780e+00,0.624,0.632,-0.0668,-0.0492
-1.7773e+00,0.616,0.6,-0.0628,-0.074
-1.7765e+00,0.608,0.624,-0.0628,-0.0492
-1.7757e+00,0.608,0.592,-0.0652,-0.074
-1.7750e+00,0.6,0.616,-0.0588,-0.0484
-1.7742e+00,0.6,0.584,-0.0564,-0.0732
-1.7734e+00,0.6,0.608,-0.0612,-0.0476
-1.7727e+00,0.592,0.576,-0.0604,-0.074
-1.7719e+00,0.592,0.6,-0.0588,-0.0468
-1.7711e+00,0.584,0.568,-0.0652,-0.0748
-1.7704e+00,0.584,0.592,-0.062,-0.046
-1.7696e+00,0.576,0.56,-0.0564,-0.0716
-1.7688e+00,0.576,0.584,-0.0612,-0.0468
-1.7680e+00,0.568,0.552,-0.0652,-0.0716
-1.7673e+00,0.568,0.576,-0.0564,-0.0444
-1.7665e+00,0.568,0.544,-0.058,-0.07
-1.7657e+00,0.552,0.568,-0.058,-0.046
-1.7650e+00,0.552,0.536,-0.0532,-0.0692
-1.7642e+00,0.544,0.56,-0.0548,-0.0436
-1.7634e+00,0.544,0.528,-0.0604,-0.0692
-1.7627e+00,0.544,0.552,-0.0548,-0.0444
-1.7619e+00,0.536,0.52,-0.0572,-0.0692
-1.7611e+00,0.528,0.544,-0.0604,-0.0428
-1.7604e+00,0.52,0.512,-0.0588,-0.0684
-1.7596e+00,0.52,0.536,-0.0532,-0.0428
-1.7588e+00,0.512,0.504,-0.0604,-0.0692
-1.7581e+00,0.512,0.528,-0.0532,-0.0428
-1.7573e+00,0.512,0.488,-0.0532,-0.0676
-1.7565e+00,0.504,0.52,-0.0564,-0.0388
-1.7558e+00,0.504,0.48,-0.0524,-0.0668
-1.7550e+00,0.488,0.504,-0.054,-0.0404
-1.7542e+00,0.488,0.472,-0.0588,-0.066
-1.7535e+00,0.488,0.496,-0.0556,-0.0396
-1.7527e+00,0.48,0.464,-0.0492,-0.066
-1.7519e+00,0.48,0.488,-0.0524,-0.0404
-1.7512e+00,0.464,0.456,-0.0548,-0.0644
-1.7504e+00,0.464,0.48,-0.0476,-0.0388
-1.7496e+00,0.456,0.44,-0.0508,-0.0644
-1.7488e+00,0.456,0.464,-0.058,-0.038
-1.7481e+00,0.448,0.432,-0.0476,-0.0652
-1.7473e+00,0.44,0.456,-0.0492,-0.0372
-1.7465e+00,0.44,0.424,-0.054,-0.062
-1.7458e+00,0.432,0.448,-0.046,-0.0364
-1.7450e+00,0.432,0.408,-0.046,-0.0628
-1.7442e+00,0.424,0.44,-0.0516,-0.0364
-1.7435e+00,0.416,0.4,-0.0484,-0.0596
-1.7427e+00,0.416,0.424,-0.0452,-0.0356
-1.7419e+00,0.408,0.392,-0.0492,-0.0604
-1.7412e+00,0.408,0.416,-0.046,-0.034
-1.7404e+00,0.392,0.376,-0.0484,-0.0588
-1.7396e+00,0.392,0.408,-0.0516,-0.0324
-1.7389e+00,0.384,0.368,-0.046,-0.0588
-1.7381e+00,0.376,0.392,-0.0396,-0.0324
-1.7373e+00,0.376,0.352,-0.0492,-0.0588
-1.7366e+00,0.368,0.384,-0.0468,-0.0324
-1.7358e+00,0.36,0.344,-0.0396,-0.0572
-1.7350e+00,0.36,0.368,-0.0492,-0.0316
-1.7343e+00,0.352,0.328,-0.0484,-0.0548
-1.7335e+00,0.344,0.36,-0.0428,-0.0292
-1.7327e+00,0.344,0.32,-0.0452,-0.0556
-1.7320e+00,0.336,0.344,-0.0452,-0.0292
-1.7312e+00,0.328,0.304,-0.0412,-0.054
-1.7304e+00,0.328,0.336,-0.0412,-0.0292
-1.7296e+00,0.32,0.296,-0.0436,-0.0532
-1.7289e+00,0.312,0.328,-0.038,-0.0268
-1.7281e+00,0.304,0.28,-0.0364,-0.054
-1.7273e+00,0.296,0.312,-0.0444,-0.0268
-1.7266e+00,0.288,0.272,-0.0364,-0.0516
-1.7258e+00,0.288,0.304,-0.034,-0.0244
-1.7250e+00,0.28,0.256,-0.0428,-0.0516
-1.7243e+00,0.28,0.288,-0.0388,-0.0252
-1.7235e+00,0.264,0.248,-0.034,-0.0508
-1.7227e+00,0.264,0.272,-0.0396,-0.0244
-1.7220e+00,0.256,0.232,-0.0356,-0.0484
-1.7212e+00,0.248,0.264,-0.034,-0.0236
-1.7204e+00,0.248,0.224,-0.0412,-0.0484
-1.7197e+00,0.232,0.256,-0.0356,-0.0228
-1.7189e+00,0.232,0.208,-0.0356,-0.0476
-1.7181e+00,0.224,0.24,-0.0396,-0.022
-1.7174e+00,0.216,0.2,-0.0348,-0.046
-1.7166e+00,0.216,0.224,-0.0276,-0.0212
-1.7158e+00,0.208,0.184,-0.0332,-0.0468
-1.7151e+00,0.2,0.216,-0.0356,-0.0188
-1.7143e+00,0.192,0.176,-0.0308,-0.046
-1.7135e+00,0.192,0.2,-0.0348,-0.0188
-1.7127e+00,0.184,0.16,-0.0332,-0.0444
-1.7120e+00,0.168,0.192,-0.0268,-0.0172
-1.7112e+00,0.168,0.144,-0.0284,-0.0452
-1.7104e+00,0.16,0.176,-0.0332,-0.0156
-1.7097e+00,0.152,0.136,-0.0252,-0.042
-1.7089e+00,0.144,0.16,-0.0252,-0.0164
-1.7081e+00,0.136,0.12,-0.03,-0.0412
-1.7074e+00,0.136,0.152,-0.0244,-0.0148
-1.7066e+00,0.128,0.104,-0.0292,-0.0412
-1.7058e+00,0.128,0.136,-0.0316,-0.0148
-1.7051e+00,0.12,0.096,-0.0276,-0.0396
-1.7043e+00,0.112,0.12,-0.0236,-0.0124
-1.7035e+00,0.112,0.088,-0.0308,-0.0372
-1.7028e+00,0.096,0.112,-0.0268,-0.0116
-1.7020e+00,0.096,0.072,-0.0252,-0.0364
-1.7012e+00,0.088,0.104,-0.0268,-0.0108
-1.7005e+00,0.08,0.056,-0.0244,-0.038
-1.6997e+00,0.072,0.088,-0.0236,-0.0084
-1.6989e+00,0.072,0.048,-0.0196,-0.0356
-1.6982e+00,0.064,0.072,-0.0276,-0.0092
-1.6974e+00,0.056,0.032,-0.0164,-0.0356
-1.6966e+00,0.048,0.064,-0.0228,-0.0076
-1.6959e+00,0.04,0.024,-0.0236,-0.0332
-1.6951e+00,0.032,0.048,-0.0188,-0.0068
-1.6943e+00,0.032,0.008,-0.0188,-0.0332
-1.6935e+00,0.024,0.04,-0.0204,-0.0052
-1.6928e+00,0.016,-0.008,-0.0196,-0.03
-1.6920e+00,0.008,0.024,-0.0172,-0.0044
-1.6912e+00,0.008,-0.016,-0.0228,-0.0316
-1.6905e+00,-0.008,0.016,-0.0188,-0.0044
-1.6897e+00,-0.008,-0.032,-0.0156,-0.03
-1.6889e+00,-0.016,-1.78814e-10,-0.0196,-0.0044
-1.6882e+00,-0.024,-0.04,-0.0172,-0.0292
-1.6874e+00,-0.024,-0.016,-0.0148,-0.0028
-1.6866e+00,-0.04,-0.056,-0.0148,-0.0284
-1.6859e+00,-0.04,-0.024,-0.0164,-0.002
-1.6851e+00,-0.048,-0.064,-0.0092,-0.0268
-1.6843e+00,-0.048,-0.032,-0.0108,-0.0012
-1.6836e+00,-0.056,-0.08,-0.0156,-0.0252
-1.6828e+00,-0.064,-0.048,-0.01,-0.0004
-1.6820e+00,-0.072,-0.096,-0.01,-0.0244
-1.6813e+00,-0.08,-0.064,-0.0132,0.0012
-1.6805e+00,-0.08,-0.104,-0.0068,-0.0236
-1.6797e+00,-0.088,-0.072,-0.01,0.0028
-1.6790e+00,-0.096,-0.12,-0.0156,-0.0228
-1.6782e+00,-0.096,-0.088,-0.0092,0.0036
-1.6774e+00,-0.112,-0.128,-0.01,-0.0212
-1.6767e+00,-0.112,-0.104,-0.006,0.0052
-1.6759e+00,-0.12,-0.144,-0.0076,-0.0204
-1.6751e+00,-0.128,-0.112,-0.002,0.006
-1.6743e+00,-0.136,-0.152,-0.0116,-0.0196
-1.6736e+00,-0.136,-0.128,-0.0068,0.0076
-1.6728e+00,-0.144,-0.168,-0.0076,-0.0196
-1.6720e+00,-0.152,-0.136,-0.0092,0.0068
-1.6713e+00,-0.16,-0.184,-0.0044,-0.0188
-1.6705e+00,-0.16,-0.152,-0.0052,0.0084
-1.6697e+00,-0.168,-0.192,-0.0084,-0.018
-1.6690e+00,-0.176,-0.16,-0.0044,0.0092
-1.6682e+00,-0.184,-0.2,0.0004,-0.0156
-1.6674e+00,-0.192,-0.176,-0.0028,0.01
-1.6667e+00,-0.192,-0.216,-0.002,-0.014
-1.6659e+00,-0.2,-0.184,0.0012,0.0108
-1.6651e+00,-0.208,-0.232,-0.002,-0.0124
-1.6644e+00,-0.216,-0.2,-0.0068,0.0116
-1.6636e+00,-0.224,-0.24,-0.0012,-0.0116
-1.6628e+00,-0.224,-0.216,0.0004,0.0148
-1.6621e+00,-0.232,-0.256,-0.0012,-0.0116
-1.6613e+00,-0.232,-0.224,0.0012,0.014
-1.6605e+00,-0.24,-0.272,0.0004,-0.0108
-1.6598e+00,-0.248,-0.24,-0.0028,0.0148
-1.6590e+00,-0.264,-0.28,0.0028,-0.01
-1.6582e+00,-0.264,-0.248,0.0052,0.0156
-1.6575e+00,-0.264,-0.288,0.0012,-0.01
-1.6567e+00,-0.272,-0.256,0.0068,0.0164
-1.6559e+00,-0.28,-0.304,0.0052,-0.0076
-1.6551e+00,-0.288,-0.272,-0.002,0.0172
-1.6544e+00,-0.296,-0.312,0.002,-0.006
-1.6536e+00,-0.296,-0.288,0.01,0.0196
-1.6528e+00,-0.304,-0.328,0.0044,-0.0068
-1.6521e+00,-0.312,-0.296,0.0068,0.0204
-1.6513e+00,-0.32,-0.336,0.0084,-0.0044
-1.6505e+00,-0.32,-0.312,0.0052,0.0196
-1.6498e+00,-0.328,-0.344,0.006,-0.0036
-1.6490e+00,-0.336,-0.32,0.0124,0.022
-1.6482e+00,-0.336,-0.36,0.0084,-0.0036
-1.6475e+00,-0.344,-0.328,0.01,0.0236
-1.6467e+00,-0.352,-0.376,0.0132,-0.002
-1.6459e+00,-0.36,-0.344,0.0084,0.0236
-1.6452e+00,-0.36,-0.384,0.0052,-0.0004
-1.6444e+00,-0.368,-0.352,0.014,0.0252
-1.6436e+00,-0.376,-0.392,0.0116,-0.0004
-1.6429e+00,-0.376,-0.368,0.0108,0.026
-1.6421e+00,-0.384,-0.4,0.0124,0.0012
-1.6413e+00,-0.392,-0.376,0.014,0.0268
-1.6406e+00,-0.4,-0.416,0.0076,0.0012
-1.6398e+00,-0.4,-0.384,0.0156,0.0284
-1.6390e+00,-0.4,-0.424,0.0164,0.002
-1.6382e+00,-0.416,-0.4,0.0108,0.0284
-1.6375e+00,-0.416,-0.44,0.0156,0.0036
-1.6367e+00,-0.424,-0.408,0.018,0.03
-1.6359e+00,-0.432,-0.448,0.014,0.0036
-1.6352e+00,-0.432,-0.424,0.0172,0.0308
-1.6344e+00,-0.44,-0.456,0.0188,0.0044
-1.6336e+00,-0.44,-0.432,0.0164,0.0316
-1.6329e+00,-0.448,-0.464,0.0164,0.006
-1.6321e+00,-0.456,-0.44,0.0276,0.0316
-1.6313e+00,-0.464,-0.48,0.0196,0.0076
-1.6306e+00,-0.464,-0.448,0.014,0.0324
-1.6298e+00,-0.464,-0.488,0.022,0.0068
-1.6290e+00,-0.472,-0.456,0.018,0.0332
-1.6283e+00,-0.48,-0.496,0.0188,0.0084
-1.6275e+00,-0.48,-0.472,0.0228,0.034
-1.6267e+00,-0.488,-0.504,0.0236,0.0092
-1.6260e+00,-0.488,-0.48,0.018,0.0356
-1.6252e+00,-0.496,-0.512,0.0244,0.0116
-1.6244e+00,-0.504,-0.488,0.0244,0.0364
-1.6237e+00,-0.504,-0.52,0.0212,0.0116
-1.6229e+00,-0.512,-0.496,0.022,0.038
-1.6221e+00,-0.52,-0.536,0.0236,0.0116
-1.6214e+00,-0.52,-0.504,0.0252,0.038
-1.6206e+00,-0.52,-0.544,0.0252,0.014
-1.6198e+00,-0.528,-0.512,0.0268,0.0388
-1.6190e+00,-0.536,-0.552,0.0212,0.0132
-1.6183e+00,-0.536,-0.528,0.022,0.0388
