Versuch2/datasets/rest/T0001.CSV

Model,DPO2002B
Firmware Version,1.52

Point Format,Y,,,
Horizontal Units,S,,,
Horizontal Scale,1,,,
Sample Interval,0.00192012,,,
Filter Frequency,7e+07,,,
Record Length,5200,,,
Gating,0.0% to 100.0%,,0.0% to 100.0%,
Probe Attenuation,1,,10,
Vertical Units,V,,V,
Vertical Offset,0,,0,
Vertical Scale,0.02,,0.5,
Label,,,,
TIME,CH1,CH1 Peak Detect,CH2,CH2 Peak Detect
-5.000e+00,-1.78814e-11,-0.0016,-1.67,-1.69
-4.998e+00,-0.0008,0.0024,-1.65,-1.59
-4.996e+00,-1.78814e-11,-0.0024,-1.65,-1.67
-4.994e+00,-1.78814e-11,0.0024,-1.63,-1.59
-4.992e+00,-1.78814e-11,-0.0016,-1.63,-1.67
-4.990e+00,0.0008,0.0024,-1.61,-1.57
-4.988e+00,-0.0008,-0.0016,-1.61,-1.65
-4.987e+00,-1.78814e-11,0.0024,-1.61,-1.53
-4.985e+00,-0.0008,-0.0016,-1.59,-1.61
-4.983e+00,-1.78814e-11,0.0024,-1.57,-1.53
-4.981e+00,-1.78814e-11,-0.0016,-1.55,-1.61
-4.979e+00,0.0008,0.0024,-1.57,-1.49
-4.977e+00,-1.78814e-11,-0.0016,-1.55,-1.57
-4.975e+00,-1.78814e-11,0.0024,-1.53,-1.47
-4.973e+00,0.0008,-0.0016,-1.53,-1.55
-4.971e+00,0.0008,0.0024,-1.49,-1.45
-4.969e+00,-1.78814e-11,-0.0016,-1.49,-1.53
-4.967e+00,-1.78814e-11,0.0024,-1.49,-1.43
-4.965e+00,-1.78814e-11,-0.0016,-1.47,-1.51
-4.964e+00,-1.78814e-11,0.0024,-1.45,-1.39
-4.962e+00,-1.78814e-11,-0.0016,-1.45,-1.49
-4.960e+00,-1.78814e-11,0.0024,-1.43,-1.37
-4.958e+00,0.0008,-0.0016,-1.43,-1.45
-4.956e+00,0.0008,0.0024,-1.41,-1.35
-4.954e+00,-1.78814e-11,-0.0016,-1.43,-1.43
-4.952e+00,-1.78814e-11,0.0024,-1.39,-1.33
-4.950e+00,0.0008,-0.0016,-1.37,-1.41
-4.948e+00,0.0008,0.0024,-1.35,-1.31
-4.946e+00,-1.78814e-11,-0.0016,-1.33,-1.37
-4.944e+00,-1.78814e-11,0.0024,-1.33,-1.27
-4.942e+00,-1.78814e-11,-0.0016,-1.33,-1.35
-4.940e+00,0.0008,0.0024,-1.31,-1.25
-4.939e+00,-1.78814e-11,-0.0016,-1.31,-1.33
-4.937e+00,0.0008,0.0024,-1.29,-1.23
-4.935e+00,-1.78814e-11,-0.0016,-1.27,-1.31
-4.933e+00,-1.78814e-11,0.0024,-1.25,-1.19
-4.931e+00,0.0008,-0.0016,-1.23,-1.27
-4.929e+00,0.0008,0.0024,-1.23,-1.17
-4.927e+00,-1.78814e-11,-0.0016,-1.21,-1.23
-4.925e+00,-1.78814e-11,0.0024,-1.19,-1.13
-4.923e+00,-0.0008,-0.0016,-1.19,-1.21
-4.921e+00,-1.78814e-11,0.0024,-1.19,-1.09
-4.919e+00,-1.78814e-11,-0.0016,-1.15,-1.19
-4.917e+00,-1.78814e-11,0.0024,-1.11,-1.07
-4.916e+00,0.0008,-0.0016,-1.11,-1.15
-4.914e+00,-1.78814e-11,0.0024,-1.09,-1.03
-4.912e+00,-1.78814e-11,-0.0016,-1.09,-1.11
-4.910e+00,0.0008,0.0024,-1.07,-1.01
-4.908e+00,0.0008,-0.0016,-1.05,-1.09
-4.906e+00,-1.78814e-11,0.0016,-1.03,-0.97
-4.904e+00,0.0008,-0.0016,-1.01,-1.05
-4.902e+00,-1.78814e-11,0.0016,-1.01,-0.95
-4.900e+00,-1.78814e-11,-0.0016,-0.99,-1.03
-4.898e+00,-1.78814e-11,0.0024,-0.97,-0.91
-4.896e+00,-1.78814e-11,-0.0016,-0.97,-0.99
-4.894e+00,-0.0008,0.0024,-0.95,-0.87
-4.892e+00,-1.78814e-11,-0.0024,-0.93,-0.95
-4.891e+00,-1.78814e-11,0.0024,-0.91,-0.85
-4.889e+00,-1.78814e-11,-0.0016,-0.91,-0.93
-4.887e+00,-1.78814e-11,0.0024,-0.87,-0.81
-4.885e+00,0.0008,-0.0016,-0.85,-0.89
-4.883e+00,-1.78814e-11,0.0024,-0.85,-0.77
-4.881e+00,-0.0008,-0.0016,-0.83,-0.85
-4.879e+00,-1.78814e-11,0.0024,-0.79,-0.75
-4.877e+00,-1.78814e-11,-0.0016,-0.79,-0.83
-4.875e+00,0.0008,0.0024,-0.77,-0.71
-4.873e+00,-0.0008,-0.0016,-0.77,-0.79
-4.871e+00,-1.78814e-11,0.0024,-0.73,-0.67
-4.869e+00,-1.78814e-11,-0.0016,-0.73,-0.75
-4.868e+00,-1.78814e-11,0.0024,-0.69,-0.63
-4.866e+00,0.0008,-0.0016,-0.69,-0.71
-4.864e+00,-1.78814e-11,0.0016,-0.67,-0.59
-4.862e+00,0.0008,-0.0016,-0.65,-0.69
-4.860e+00,-1.78814e-11,0.0024,-0.63,-0.55
-4.858e+00,-1.78814e-11,-0.0016,-0.61,-0.63
-4.856e+00,-1.78814e-11,0.0024,-0.59,-0.53
-4.854e+00,-1.78814e-11,-0.0016,-0.57,-0.61
-4.852e+00,-1.78814e-11,0.0016,-0.55,-0.49
-4.850e+00,-1.78814e-11,-0.0016,-0.53,-0.57
-4.848e+00,-1.78814e-11,0.0016,-0.51,-0.45
-4.846e+00,0.0008,-0.0016,-0.49,-0.53
-4.844e+00,-1.78814e-11,0.0024,-0.47,-0.41
-4.843e+00,-1.78814e-11,-0.0016,-0.47,-0.49
-4.841e+00,-1.78814e-11,0.0024,-0.43,-0.37
-4.839e+00,-1.78814e-11,-0.0024,-0.41,-0.45
-4.837e+00,-1.78814e-11,0.0016,-0.41,-0.35
-4.835e+00,-1.78814e-11,-0.0016,-0.39,-0.41
-4.833e+00,0.0008,0.0024,-0.35,-0.29
-4.831e+00,-0.0008,-0.0016,-0.35,-0.37
-4.829e+00,-1.78814e-11,0.0024,-0.31,-0.27
-4.827e+00,0.0008,-0.0016,-0.29,-0.33
-4.825e+00,-1.78814e-11,0.0024,-0.29,-0.23
-4.823e+00,0.0008,-0.0016,-0.27,-0.29
-4.821e+00,-1.78814e-11,0.0024,-0.25,-0.19
-4.820e+00,-1.78814e-11,-0.0016,-0.23,-0.27
-4.818e+00,-1.78814e-11,0.0024,-0.21,-0.15
-4.816e+00,0.0008,-0.0016,-0.21,-0.23
-4.814e+00,-1.78814e-11,0.0024,-0.17,-0.11
-4.812e+00,-1.78814e-11,-0.0024,-0.17,-0.19
-4.810e+00,0.0008,0.0024,-0.15,-0.07
-4.808e+00,-1.78814e-11,-0.0016,-0.13,-0.15
-4.806e+00,-1.78814e-11,0.0024,-0.11,-0.03
-4.804e+00,-1.78814e-11,-0.0016,-0.09,-0.11
-4.802e+00,-1.78814e-11,0.0024,-0.07,-0.01
-4.800e+00,-1.78814e-11,-0.0016,-0.05,-0.07
-4.798e+00,-1.78814e-11,0.0024,-0.05,0.03
-4.796e+00,0.0008,-0.0016,-0.01,-0.03
-4.795e+00,-1.78814e-11,0.0024,0.01,0.07
-4.793e+00,-1.78814e-11,-0.0016,0.03,-0.01
-4.791e+00,-1.78814e-11,0.0024,0.05,0.11
-4.789e+00,0.0008,-0.0016,0.07,0.05
-4.787e+00,0.0008,0.0024,0.09,0.15
-4.785e+00,0.0008,-0.0016,0.11,0.07
-4.783e+00,-1.78814e-11,0.0024,0.13,0.19
-4.781e+00,-1.78814e-11,-0.0016,0.15,0.11
-4.779e+00,0.0008,0.0024,0.17,0.23
-4.777e+00,-1.78814e-11,-0.0016,0.17,0.15
-4.775e+00,-1.78814e-11,0.0024,0.21,0.27
-4.773e+00,-1.78814e-11,-0.0016,0.23,0.19
-4.772e+00,-1.78814e-11,0.0024,0.25,0.29
-4.770e+00,-1.78814e-11,-0.0016,0.25,0.23
-4.768e+00,-1.78814e-11,0.0016,0.27,0.33
-4.766e+00,-1.78814e-11,-0.0016,0.29,0.27
-4.764e+00,-1.78814e-11,0.0016,0.31,0.37
-4.762e+00,-0.0008,-0.0016,0.35,0.31
-4.760e+00,-1.78814e-11,0.0016,0.35,0.41
-4.758e+00,-1.78814e-11,-0.0016,0.39,0.35
-4.756e+00,0.0008,0.0024,0.39,0.45
-4.754e+00,0.0008,-0.0016,0.39,0.37
-4.752e+00,-1.78814e-11,0.0024,0.43,0.49
-4.750e+00,0.0008,-0.0016,0.47,0.43
-4.748e+00,-0.0008,0.0024,0.47,0.53
-4.747e+00,-1.78814e-11,-0.0016,0.49,0.45
-4.745e+00,0.0008,0.0024,0.51,0.55
-4.743e+00,-1.78814e-11,-0.0016,0.53,0.49
-4.741e+00,-1.78814e-11,0.0024,0.55,0.61
-4.739e+00,0.0008,-0.0016,0.55,0.53
-4.737e+00,-1.78814e-11,0.0024,0.59,0.63
-4.735e+00,-1.78814e-11,-0.0016,0.61,0.57
-4.733e+00,-0.0008,0.0024,0.61,0.67
-4.731e+00,-1.78814e-11,-0.0016,0.63,0.61
-4.729e+00,0.0008,0.0024,0.67,0.71
-4.727e+00,-1.78814e-11,-0.0016,0.67,0.63
-4.725e+00,0.0008,0.0024,0.69,0.75
-4.724e+00,-1.78814e-11,-0.0016,0.71,0.67
-4.722e+00,-1.78814e-11,0.0024,0.73,0.77
-4.720e+00,-0.0008,-0.0016,0.75,0.71
-4.718e+00,-1.78814e-11,0.0024,0.75,0.81
-4.716e+00,0.0008,-0.0016,0.79,0.75
-4.714e+00,0.0008,0.0024,0.79,0.85
-4.712e+00,0.0008,-0.0024,0.79,0.79
-4.710e+00,-1.78814e-11,0.0024,0.83,0.89
-4.708e+00,-1.78814e-11,-0.0016,0.83,0.81
-4.706e+00,-1.78814e-11,0.0024,0.85,0.91
-4.704e+00,-1.78814e-11,-0.0016,0.87,0.85
-4.702e+00,-1.78814e-11,0.0024,0.89,0.95
-4.700e+00,0.0008,-0.0016,0.91,0.87
-4.699e+00,0.0008,0.0024,0.93,0.97
-4.697e+00,-1.78814e-11,-0.0016,0.95,0.91
-4.695e+00,-1.78814e-11,0.0024,0.95,1.01
-4.693e+00,-0.0008,-0.0016,0.97,0.95
-4.691e+00,-1.78814e-11,0.0024,0.99,1.05
-4.689e+00,-1.78814e-11,-0.0016,1.01,0.97
-4.687e+00,0.0008,0.0024,1.01,1.07
-4.685e+00,0.0008,-0.0016,1.03,1.01
-4.683e+00,-1.78814e-11,0.0024,1.05,1.11
-4.681e+00,-1.78814e-11,-0.0016,1.07,1.03
-4.679e+00,0.0008,0.0024,1.09,1.13
-4.677e+00,0.0008,-0.0016,1.11,1.07
-4.675e+00,-1.78814e-11,0.0016,1.11,1.17
-4.674e+00,-1.78814e-11,-0.0024,1.13,1.11
-4.672e+00,-1.78814e-11,0.0024,1.15,1.19
-4.670e+00,-1.78814e-11,-0.0016,1.17,1.13
-4.668e+00,-1.78814e-11,0.0024,1.17,1.23
-4.666e+00,-1.78814e-11,-0.0016,1.19,1.17
-4.664e+00,-1.78814e-11,0.0024,1.21,1.25
-4.662e+00,0.0008,-0.0016,1.21,1.19
-4.660e+00,-1.78814e-11,0.0024,1.23,1.29
-4.658e+00,-1.78814e-11,-0.0016,1.25,1.21
-4.656e+00,-1.78814e-11,0.0024,1.27,1.31
-4.654e+00,0.0008,-0.0016,1.27,1.25
-4.652e+00,0.0008,0.0024,1.29,1.33
-4.651e+00,0.0008,-0.0016,1.31,1.27
-4.649e+00,0.0008,0.0024,1.29,1.37
-4.647e+00,-1.78814e-11,-0.0016,1.33,1.29
-4.645e+00,-1.78814e-11,0.0024,1.35,1.39
-4.643e+00,-1.78814e-11,-0.0016,1.35,1.33
-4.641e+00,-1.78814e-11,0.0024,1.37,1.41
-4.639e+00,-1.78814e-11,-0.0016,1.37,1.35
-4.637e+00,-1.78814e-11,0.0016,1.39,1.43
-4.635e+00,-1.78814e-11,-0.0016,1.41,1.37
-4.633e+00,-1.78814e-11,0.0024,1.43,1.47
-4.631e+00,-1.78814e-11,-0.0016,1.43,1.39
-4.629e+00,-0.0008,0.0024,1.43,1.49
-4.627e+00,-1.78814e-11,-0.0016,1.45,1.43
-4.626e+00,-1.78814e-11,0.0024,1.49,1.51
-4.624e+00,-1.78814e-11,-0.0016,1.47,1.45
-4.622e+00,0.0016,0.0024,1.49,1.53
-4.620e+00,-1.78814e-11,-0.0016,1.49,1.47
-4.618e+00,-1.78814e-11,0.0016,1.51,1.55
-4.616e+00,-1.78814e-11,-0.0016,1.51,1.49
-4.614e+00,-1.78814e-11,0.0024,1.53,1.57
-4.612e+00,-1.78814e-11,-0.0016,1.55,1.51
-4.610e+00,-1.78814e-11,0.0024,1.55,1.59
-4.608e+00,-1.78814e-11,-0.0016,1.57,1.53
-4.606e+00,-1.78814e-11,0.0024,1.59,1.61
-4.604e+00,-1.78814e-11,-0.0016,1.59,1.55
-4.603e+00,0.0008,0.0016,1.59,1.63
-4.601e+00,-0.0008,-0.0016,1.61,1.57
-4.599e+00,0.0008,0.0024,1.63,1.65
-4.597e+00,-1.78814e-11,-0.0016,1.63,1.59
-4.595e+00,-1.78814e-11,0.0024,1.65,1.67
-4.593e+00,-1.78814e-11,-0.0016,1.65,1.61
-4.591e+00,-1.78814e-11,0.0024,1.65,1.69
-4.589e+00,0.0008,-0.0016,1.65,1.61
-4.587e+00,-1.78814e-11,0.0024,1.67,1.71
-4.585e+00,-1.78814e-11,-0.0016,1.67,1.63
-4.583e+00,0.0008,0.0024,1.69,1.71
-4.581e+00,-1.78814e-11,-0.0016,1.69,1.65
-4.579e+00,-1.78814e-11,0.0024,1.69,1.73
-4.578e+00,-1.78814e-11,-0.0016,1.69,1.65
-4.576e+00,-1.78814e-11,0.0024,1.71,1.75
-4.574e+00,-1.78814e-11,-0.0016,1.71,1.67
-4.572e+00,0.0008,0.0024,1.71,1.77
-4.570e+00,-1.78814e-11,-0.0024,1.73,1.69
-4.568e+00,-1.78814e-11,0.0024,1.75,1.77
-4.566e+00,0.0008,-0.0016,1.75,1.71
-4.564e+00,-1.78814e-11,0.0024,1.73,1.79
-4.562e+00,0.0008,-0.0016,1.75,1.71
-4.560e+00,-1.78814e-11,0.0024,1.77,1.79
-4.558e+00,-1.78814e-11,-0.0016,1.77,1.73
-4.556e+00,-1.78814e-11,0.0024,1.77,1.81
-4.555e+00,-1.78814e-11,-0.0016,1.79,1.73
-4.553e+00,0.0008,0.0016,1.79,1.81
-4.551e+00,-1.78814e-11,-0.0016,1.77,1.75
-4.549e+00,0.0008,0.0024,1.79,1.83
-4.547e+00,-1.78814e-11,-0.0016,1.79,1.75
-4.545e+00,-1.78814e-11,0.0016,1.79,1.83
-4.543e+00,-1.78814e-11,-0.0016,1.81,1.75
-4.541e+00,0.0008,0.0016,1.81,1.83
-4.539e+00,-1.78814e-11,-0.0016,1.81,1.77
-4.537e+00,-1.78814e-11,0.0024,1.81,1.85
-4.535e+00,-1.78814e-11,-0.0024,1.81,1.77
-4.533e+00,-1.78814e-11,0.0016,1.81,1.85
-4.531e+00,0.0008,-0.0016,1.83,1.77
-4.530e+00,-1.78814e-11,0.0024,1.81,1.85
-4.528e+00,-1.78814e-11,-0.0016,1.83,1.79
-4.526e+00,-1.78814e-11,0.0024,1.83,1.87
-4.524e+00,-1.78814e-11,-0.0016,1.83,1.79
-4.522e+00,-1.78814e-11,0.0024,1.83,1.87
-4.520e+00,0.0008,-0.0024,1.83,1.79
-4.518e+00,-1.78814e-11,0.0016,1.83,1.87
-4.516e+00,-1.78814e-11,-0.0016,1.83,1.79
-4.514e+00,-1.78814e-11,0.0024,1.83,1.87
-4.512e+00,0.0008,-0.0024,1.83,1.79
-4.510e+00,-1.78814e-11,0.0024,1.83,1.87
-4.508e+00,-1.78814e-11,-0.0024,1.83,1.79
-4.507e+00,-1.78814e-11,0.0016,1.83,1.87
-4.505e+00,-1.78814e-11,-0.0016,1.83,1.79
-4.503e+00,-1.78814e-11,0.0024,1.83,1.87
-4.501e+00,-1.78814e-11,-0.0016,1.83,1.79
-4.499e+00,-1.78814e-11,0.0016,1.83,1.87
-4.497e+00,-1.78814e-11,-0.0016,1.85,1.79
-4.495e+00,-1.78814e-11,0.0024,1.83,1.87
-4.493e+00,-1.78814e-11,-0.0016,1.83,1.79
-4.491e+00,-1.78814e-11,0.0024,1.81,1.87
-4.489e+00,0.0008,-0.0016,1.83,1.79
-4.487e+00,0.0008,0.0024,1.83,1.87
-4.485e+00,-1.78814e-11,-0.0016,1.83,1.77
-4.483e+00,-1.78814e-11,0.0024,1.81,1.85
-4.482e+00,-1.78814e-11,-0.0016,1.81,1.77
-4.480e+00,-1.78814e-11,0.0024,1.81,1.85
-4.478e+00,-1.78814e-11,-0.0016,1.81,1.77
-4.476e+00,-1.78814e-11,0.0024,1.81,1.85
-4.474e+00,-1.78814e-11,-0.0016,1.81,1.75
-4.472e+00,-1.78814e-11,0.0024,1.81,1.83
-4.470e+00,-1.78814e-11,-0.0016,1.81,1.75
-4.468e+00,-1.78814e-11,0.0024,1.81,1.83
-4.466e+00,-1.78814e-11,-0.0016,1.79,1.75
-4.464e+00,-1.78814e-11,0.0024,1.79,1.83
-4.462e+00,-1.78814e-11,-0.0016,1.77,1.73
-4.460e+00,-1.78814e-11,0.0024,1.77,1.81
-4.459e+00,-1.78814e-11,-0.0016,1.77,1.71
-4.457e+00,-1.78814e-11,0.0024,1.75,1.81
-4.455e+00,-1.78814e-11,-0.0016,1.75,1.71
-4.453e+00,-1.78814e-11,0.0024,1.75,1.79
-4.451e+00,0.0008,-0.0016,1.75,1.71
-4.449e+00,-1.78814e-11,0.0024,1.75,1.79
-4.447e+00,-1.78814e-11,-0.0016,1.73,1.69
-4.445e+00,-1.78814e-11,0.0024,1.73,1.77
-4.443e+00,0.0008,-0.0016,1.73,1.67
-4.441e+00,0.0008,0.0024,1.71,1.77
-4.439e+00,0.0008,-0.0016,1.69,1.67
-4.437e+00,-1.78814e-11,0.0024,1.71,1.75
-4.435e+00,-1.78814e-11,-0.0024,1.69,1.65
-4.434e+00,-1.78814e-11,0.0024,1.67,1.73
-4.432e+00,-0.0008,-0.0016,1.67,1.63
-4.430e+00,-0.0008,0.0016,1.67,1.71
-4.428e+00,0.0008,-0.0016,1.67,1.61
-4.426e+00,0.0008,0.0024,1.65,1.69
-4.424e+00,0.0008,-0.0016,1.65,1.59
-4.422e+00,-1.78814e-11,0.0016,1.63,1.69
-4.420e+00,-1.78814e-11,-0.0016,1.65,1.59
-4.418e+00,0.0008,0.0024,1.63,1.67
-4.416e+00,0.0008,-0.0016,1.63,1.57
-4.414e+00,0.0008,0.0024,1.61,1.65
-4.412e+00,-1.78814e-11,-0.0016,1.59,1.55
-4.411e+00,0.0008,0.0024,1.59,1.63
-4.409e+00,-1.78814e-11,-0.0016,1.57,1.53
-4.407e+00,-1.78814e-11,0.0024,1.57,1.61
-4.405e+00,-1.78814e-11,-0.0016,1.55,1.51
-4.403e+00,-1.78814e-11,0.0024,1.55,1.59
-4.401e+00,-1.78814e-11,-0.0016,1.55,1.49
-4.399e+00,0.0008,0.0024,1.53,1.57
-4.397e+00,-1.78814e-11,-0.0016,1.53,1.47
-4.395e+00,-1.78814e-11,0.0024,1.51,1.55
-4.393e+00,0.0008,-0.0016,1.49,1.45
-4.391e+00,-0.0008,0.0024,1.49,1.53
-4.389e+00,-1.78814e-11,-0.0016,1.49,1.41
-4.387e+00,-1.78814e-11,0.0024,1.45,1.51
-4.386e+00,0.0008,-0.0024,1.45,1.39
-4.384e+00,-1.78814e-11,0.0024,1.43,1.49
-4.382e+00,0.0008,-0.0016,1.43,1.37
-4.380e+00,-1.78814e-11,0.0024,1.41,1.45
-4.378e+00,-1.78814e-11,-0.0016,1.41,1.35
-4.376e+00,-1.78814e-11,0.0024,1.39,1.43
-4.374e+00,0.0008,-0.0016,1.37,1.33
-4.372e+00,0.0008,0.0024,1.39,1.41
-4.370e+00,-1.78814e-11,-0.0016,1.35,1.29
-4.368e+00,-1.78814e-11,0.0024,1.33,1.39
-4.366e+00,-1.78814e-11,-0.0016,1.33,1.27
-4.364e+00,-1.78814e-11,0.0024,1.33,1.37
-4.363e+00,-1.78814e-11,-0.0016,1.29,1.25
-4.361e+00,-1.78814e-11,0.0024,1.31,1.33
-4.359e+00,-1.78814e-11,-0.0016,1.27,1.21
-4.357e+00,-1.78814e-11,0.0024,1.27,1.31
-4.355e+00,-1.78814e-11,-0.0016,1.25,1.19
-4.353e+00,0.0008,0.0024,1.23,1.29
-4.351e+00,-1.78814e-11,-0.0016,1.21,1.15
-4.349e+00,0.0008,0.0024,1.19,1.25
-4.347e+00,-1.78814e-11,-0.0016,1.19,1.13
-4.345e+00,-1.78814e-11,0.0024,1.17,1.23
-4.343e+00,-1.78814e-11,-0.0016,1.15,1.09
-4.341e+00,-1.78814e-11,0.0024,1.13,1.19
-4.339e+00,-0.0008,-0.0016,1.13,1.07
-4.338e+00,-1.78814e-11,0.0024,1.11,1.17
-4.336e+00,-1.78814e-11,-0.0016,1.09,1.03
-4.334e+00,-1.78814e-11,0.0024,1.07,1.13
-4.332e+00,0.0008,-0.0016,1.05,1.01
-4.330e+00,-1.78814e-11,0.0024,1.05,1.11
-4.328e+00,0.0008,-0.0016,1.03,0.97
-4.326e+00,0.0008,0.0024,1.03,1.07
-4.324e+00,-0.0008,-0.0016,0.99,0.95
-4.322e+00,0.0008,0.0024,1.01,1.03
-4.320e+00,-1.78814e-11,-0.0016,0.97,0.91
-4.318e+00,-0.0008,0.0016,0.97,1.01
-4.316e+00,0.0008,-0.0016,0.93,0.87
-4.315e+00,0.0008,0.0024,0.93,0.97
-4.313e+00,-0.0008,-0.0016,0.91,0.85
-4.311e+00,-1.78814e-11,0.0024,0.89,0.95
-4.309e+00,0.0008,-0.0016,0.87,0.81
-4.307e+00,0.0008,0.0024,0.85,0.91
-4.305e+00,-1.78814e-11,-0.0016,0.83,0.77
-4.303e+00,0.0008,0.0024,0.83,0.89
-4.301e+00,-1.78814e-11,-0.0016,0.81,0.75
-4.299e+00,-1.78814e-11,0.0024,0.79,0.85
-4.297e+00,-1.78814e-11,-0.0016,0.77,0.71
-4.295e+00,-1.78814e-11,0.0024,0.77,0.81
-4.293e+00,0.0008,-0.0016,0.75,0.67
-4.291e+00,-1.78814e-11,0.0024,0.73,0.77
-4.290e+00,-1.78814e-11,-0.0024,0.69,0.63
-4.288e+00,-1.78814e-11,0.0024,0.69,0.75
-4.286e+00,-1.78814e-11,-0.0016,0.65,0.61
-4.284e+00,-1.78814e-11,0.0016,0.63,0.71
-4.282e+00,0.0008,-0.0016,0.63,0.57
-4.280e+00,-1.78814e-11,0.0024,0.61,0.67
-4.278e+00,0.0008,-0.0016,0.59,0.53
-4.276e+00,-1.78814e-11,0.0024,0.59,0.63
-4.274e+00,-1.78814e-11,-0.0016,0.57,0.49
-4.272e+00,-1.78814e-11,0.0024,0.53,0.59
-4.270e+00,-1.78814e-11,-0.0016,0.53,0.45
-4.268e+00,-1.78814e-11,0.0024,0.51,0.55
-4.267e+00,0.0008,-0.0016,0.49,0.41
-4.265e+00,-1.78814e-11,0.0024,0.47,0.51
-4.263e+00,-1.78814e-11,-0.0016,0.45,0.37
-4.261e+00,-1.78814e-11,0.0016,0.43,0.49
-4.259e+00,0.0008,-0.0016,0.41,0.35
-4.257e+00,0.0008,0.0024,0.39,0.45
-4.255e+00,-1.78814e-11,-0.0016,0.37,0.31
-4.253e+00,-1.78814e-11,0.0016,0.33,0.41
-4.251e+00,-1.78814e-11,-0.0016,0.31,0.27
-4.249e+00,-1.78814e-11,0.0016,0.31,0.37
-4.247e+00,0.0008,-0.0016,0.29,0.23
-4.245e+00,-1.78814e-11,0.0024,0.27,0.33
-4.243e+00,-1.78814e-11,-0.0016,0.25,0.19
-4.242e+00,0.0008,0.0024,0.25,0.29
-4.240e+00,-1.78814e-11,-0.0016,0.23,0.15
-4.238e+00,-1.78814e-11,0.0024,0.21,0.25
-4.236e+00,0.0008,-0.0016,0.19,0.11
-4.234e+00,-1.78814e-11,0.0024,0.17,0.23
-4.232e+00,-1.78814e-11,-0.0016,0.17,0.07
-4.230e+00,-1.78814e-11,0.0024,0.13,0.19
-4.228e+00,-1.78814e-11,-0.0016,0.11,0.03
-4.226e+00,-1.78814e-11,0.0024,0.09,0.15
-4.224e+00,-1.78814e-11,-0.0016,0.07,0.01
-4.222e+00,-1.78814e-11,0.0024,0.05,0.11
-4.220e+00,-1.78814e-11,-0.0016,0.05,-0.03
-4.219e+00,0.0008,0.0024,0.01,0.07
-4.217e+00,-1.78814e-11,-0.0016,-0.01,-0.07
-4.215e+00,-1.78814e-11,0.0024,-0.03,0.03
-4.213e+00,0.0008,-0.0016,-0.05,-0.11
-4.211e+00,-1.78814e-11,0.0024,-0.07,-0.01
-4.209e+00,0.0008,-0.0016,-0.09,-0.15
-4.207e+00,-1.78814e-11,0.0024,-0.11,-0.05
-4.205e+00,-1.78814e-11,-0.0016,-0.13,-0.19
-4.203e+00,0.0008,0.0016,-0.13,-0.07
-4.201e+00,0.0008,-0.0016,-0.17,-0.23
-4.199e+00,0.0008,0.0024,-0.17,-0.13
-4.197e+00,0.0008,-0.0016,-0.19,-0.27
-4.195e+00,-0.0008,0.0016,-0.21,-0.15
-4.194e+00,0.0008,-0.0016,-0.23,-0.29
-4.192e+00,0.0008,0.0024,-0.23,-0.19
-4.190e+00,-1.78814e-11,-0.0016,-0.27,-0.35
-4.188e+00,0.0008,0.0024,-0.29,-0.23
-4.186e+00,-1.78814e-11,-0.0016,-0.31,-0.37
-4.184e+00,0.0008,0.0024,-0.31,-0.27
-4.182e+00,-1.78814e-11,-0.0016,-0.35,-0.41
-4.180e+00,-1.78814e-11,0.0016,-0.37,-0.31
-4.178e+00,-1.78814e-11,-0.0016,-0.39,-0.45
-4.176e+00,-1.78814e-11,0.0024,-0.41,-0.33
-4.174e+00,-1.78814e-11,-0.0016,-0.41,-0.49
-4.172e+00,0.0008,0.0024,-0.43,-0.37
-4.171e+00,-1.78814e-11,-0.0016,-0.45,-0.53
-4.169e+00,-1.78814e-11,0.0024,-0.47,-0.41
-4.167e+00,-1.78814e-11,-0.0016,-0.51,-0.57
-4.165e+00,-1.78814e-11,0.0024,-0.51,-0.45
-4.163e+00,-1.78814e-11,-0.0016,-0.55,-0.61
-4.161e+00,-1.78814e-11,0.0024,-0.55,-0.49
-4.159e+00,-1.78814e-11,-0.0016,-0.57,-0.63
-4.157e+00,-1.78814e-11,0.0024,-0.57,-0.51
-4.155e+00,-1.78814e-11,-0.0016,-0.61,-0.67
-4.153e+00,-1.78814e-11,0.0024,-0.63,-0.57
-4.151e+00,0.0008,-0.0016,-0.65,-0.71
-4.149e+00,-1.78814e-11,0.0024,-0.67,-0.59
-4.147e+00,-1.78814e-11,-0.0016,-0.69,-0.75
-4.146e+00,-1.78814e-11,0.0024,-0.71,-0.63
-4.144e+00,-1.78814e-11,-0.0016,-0.71,-0.79
-4.142e+00,-1.78814e-11,0.0024,-0.73,-0.67
-4.140e+00,-1.78814e-11,-0.0016,-0.77,-0.83
-4.138e+00,-1.78814e-11,0.0024,-0.75,-0.71
-4.136e+00,-1.78814e-11,-0.0016,-0.79,-0.85
-4.134e+00,-1.78814e-11,0.0024,-0.81,-0.75
-4.132e+00,0.0008,-0.0016,-0.81,-0.89
-4.130e+00,-1.78814e-11,0.0024,-0.85,-0.77
-4.128e+00,-1.78814e-11,-0.0016,-0.87,-0.91
-4.126e+00,-1.78814e-11,0.0024,-0.87,-0.81
-4.124e+00,0.0008,-0.0016,-0.89,-0.95
-4.123e+00,0.0008,0.0024,-0.91,-0.85
-4.121e+00,0.0008,-0.0016,-0.93,-0.99
-4.119e+00,-1.78814e-11,0.0024,-0.93,-0.87
-4.117e+00,-1.78814e-11,-0.0016,-0.95,-1.03
-4.115e+00,-1.78814e-11,0.0024,-0.97,-0.91
-4.113e+00,-1.78814e-11,-0.0016,-0.99,-1.05
-4.111e+00,-1.78814e-11,0.0024,-1.01,-0.95
-4.109e+00,-0.0008,-0.0024,-1.03,-1.09
-4.107e+00,-1.78814e-11,0.0024,-1.03,-0.97
-4.105e+00,-1.78814e-11,-0.0016,-1.07,-1.11
-4.103e+00,0.0008,0.0024,-1.07,-1.01
-4.101e+00,-1.78814e-11,-0.0016,-1.09,-1.15
-4.099e+00,0.0008,0.0024,-1.09,-1.03
-4.098e+00,0.0008,-0.0016,-1.11,-1.19
-4.096e+00,-0.0008,0.0024,-1.13,-1.07
-4.094e+00,-1.78814e-11,-0.0016,-1.15,-1.21
-4.092e+00,-1.78814e-11,0.0024,-1.17,-1.11
-4.090e+00,-1.78814e-11,-0.0016,-1.17,-1.23
-4.088e+00,0.0008,0.0024,-1.19,-1.13
-4.086e+00,-1.78814e-11,-0.0016,-1.21,-1.27
-4.084e+00,-1.78814e-11,0.0024,-1.23,-1.17
-4.082e+00,0.0008,-0.0016,-1.23,-1.29
-4.080e+00,-1.78814e-11,0.0016,-1.25,-1.19
-4.078e+00,-1.78814e-11,-0.0016,-1.27,-1.33
-4.076e+00,-1.78814e-11,0.0024,-1.29,-1.23
-4.075e+00,-1.78814e-11,-0.0016,-1.29,-1.35
-4.073e+00,-1.78814e-11,0.0024,-1.31,-1.25
-4.071e+00,-1.78814e-11,-0.0016,-1.31,-1.39
