Versuch2/datasets/rest/T0015.CSV

Model,DPO2002B
Firmware Version,1.52

Point Format,Y,,,
Horizontal Units,S,,,
Horizontal Scale,1,,,
Sample Interval,0.00192012,,,
Filter Frequency,7e+07,,,
Record Length,5200,,,
Gating,0.0% to 100.0%,,0.0% to 100.0%,
Probe Attenuation,1,,10,
Vertical Units,V,,V,
Vertical Offset,0,,0,
Vertical Scale,0.2,,1,
Label,,,,
TIME,CH1,CH1 Peak Detect,CH2,CH2 Peak Detect
-5.000e+00,-0.736,-0.752,-1.02,-1.18
-4.998e+00,-0.728,-0.72,-1.06,-0.94
-4.996e+00,-0.736,-0.744,-1.14,-1.26
-4.994e+00,-0.728,-0.72,-1.14,-1.06
-4.992e+00,-0.736,-0.744,-1.22,-1.38
-4.990e+00,-0.736,-0.72,-1.26,-1.14
-4.988e+00,-0.728,-0.744,-1.3,-1.46
-4.987e+00,-0.728,-0.72,-1.38,-1.22
-4.985e+00,-0.728,-0.744,-1.42,-1.54
-4.983e+00,-0.728,-0.72,-1.5,-1.34
-4.981e+00,-0.728,-0.736,-1.54,-1.66
-4.979e+00,-0.72,-0.712,-1.58,-1.46
-4.977e+00,-0.72,-0.736,-1.62,-1.74
-4.975e+00,-0.72,-0.712,-1.66,-1.54
-4.973e+00,-0.72,-0.736,-1.7,-1.86
-4.971e+00,-0.72,-0.712,-1.74,-1.62
-4.969e+00,-0.72,-0.728,-1.82,-1.94
-4.967e+00,-0.72,-0.712,-1.86,-1.74
-4.965e+00,-0.712,-0.728,-1.9,-2.02
-4.964e+00,-0.712,-0.704,-1.94,-1.82
-4.962e+00,-0.712,-0.728,-1.98,-2.14
-4.960e+00,-0.704,-0.696,-2.02,-1.9
-4.958e+00,-0.712,-0.72,-2.06,-2.22
-4.956e+00,-0.704,-0.696,-2.14,-1.98
-4.954e+00,-0.704,-0.712,-2.18,-2.3
-4.952e+00,-0.696,-0.688,-2.22,-2.06
-4.950e+00,-0.696,-0.712,-2.26,-2.38
-4.948e+00,-0.696,-0.688,-2.26,-2.18
-4.946e+00,-0.696,-0.704,-2.34,-2.46
-4.944e+00,-0.696,-0.68,-2.42,-2.26
-4.942e+00,-0.688,-0.704,-2.42,-2.54
-4.940e+00,-0.688,-0.68,-2.46,-2.34
-4.939e+00,-0.688,-0.696,-2.5,-2.62
-4.937e+00,-0.68,-0.672,-2.54,-2.42
-4.935e+00,-0.68,-0.688,-2.62,-2.7
-4.933e+00,-0.68,-0.664,-2.66,-2.5
-4.931e+00,-0.672,-0.688,-2.7,-2.78
-4.929e+00,-0.672,-0.656,-2.7,-2.58
-4.927e+00,-0.664,-0.68,-2.74,-2.9
-4.925e+00,-0.664,-0.648,-2.82,-2.66
-4.923e+00,-0.664,-0.672,-2.82,-2.94
-4.921e+00,-0.656,-0.648,-2.9,-2.74
-4.919e+00,-0.656,-0.664,-2.9,-3.02
-4.917e+00,-0.648,-0.64,-2.94,-2.82
-4.916e+00,-0.648,-0.656,-2.98,-3.1
-4.914e+00,-0.64,-0.632,-3.02,-2.9
-4.912e+00,-0.64,-0.648,-3.06,-3.18
-4.910e+00,-0.632,-0.624,-3.1,-2.98
-4.908e+00,-0.632,-0.648,-3.1,-3.26
-4.906e+00,-0.624,-0.616,-3.14,-3.06
-4.904e+00,-0.624,-0.632,-3.22,-3.3
-4.902e+00,-0.616,-0.608,-3.22,-3.14
-4.900e+00,-0.616,-0.624,-3.26,-3.38
-4.898e+00,-0.616,-0.6,-3.3,-3.18
-4.896e+00,-0.608,-0.616,-3.38,-3.46
-4.894e+00,-0.6,-0.592,-3.38,-3.26
-4.892e+00,-0.6,-0.608,-3.42,-3.5
-4.891e+00,-0.592,-0.584,-3.42,-3.34
-4.889e+00,-0.592,-0.6,-3.46,-3.58
-4.887e+00,-0.584,-0.576,-3.5,-3.38
-4.885e+00,-0.584,-0.592,-3.54,-3.62
-4.883e+00,-0.576,-0.56,-3.54,-3.46
-4.881e+00,-0.568,-0.584,-3.58,-3.66
-4.879e+00,-0.568,-0.552,-3.62,-3.5
-4.877e+00,-0.56,-0.576,-3.62,-3.74
-4.875e+00,-0.552,-0.544,-3.66,-3.58
-4.873e+00,-0.552,-0.56,-3.7,-3.78
-4.871e+00,-0.544,-0.536,-3.74,-3.62
-4.869e+00,-0.536,-0.552,-3.78,-3.86
-4.868e+00,-0.536,-0.52,-3.78,-3.7
-4.866e+00,-0.528,-0.536,-3.86,-3.9
-4.864e+00,-0.528,-0.512,-3.82,-3.74
-4.862e+00,-0.512,-0.528,-3.86,-3.94
-4.860e+00,-0.512,-0.504,-3.9,-3.78
-4.858e+00,-0.512,-0.52,-3.9,-4.02
-4.856e+00,-0.504,-0.488,-3.94,-3.82
-4.854e+00,-0.496,-0.504,-3.94,-4.02
-4.852e+00,-0.496,-0.48,-3.98,-3.86
-4.850e+00,-0.488,-0.496,-4.02,-4.1
-4.848e+00,-0.488,-0.472,-4.02,-3.94
-4.846e+00,-0.472,-0.488,-4.06,-4.14
-4.844e+00,-0.472,-0.456,-4.06,-3.98
-4.843e+00,-0.464,-0.472,-4.1,-4.18
-4.841e+00,-0.456,-0.448,-4.1,-4.02
-4.839e+00,-0.448,-0.464,-4.14,-4.22
-4.837e+00,-0.448,-0.432,-4.14,-4.06
-4.835e+00,-0.44,-0.448,-4.18,-4.26
-4.833e+00,-0.432,-0.416,-4.18,-4.1
-4.831e+00,-0.432,-0.432,-4.18,-4.26
-4.829e+00,-0.416,-0.408,-4.22,-4.14
-4.827e+00,-0.416,-0.424,-4.22,-4.3
-4.825e+00,-0.408,-0.392,-4.26,-4.18
-4.823e+00,-0.4,-0.408,-4.26,-4.34
-4.821e+00,-0.392,-0.384,-4.3,-4.18
-4.820e+00,-0.392,-0.4,-4.3,-4.38
-4.818e+00,-0.376,-0.368,-4.3,-4.22
-4.816e+00,-0.376,-0.384,-4.34,-4.38
-4.814e+00,-0.368,-0.352,-4.34,-4.26
-4.812e+00,-0.36,-0.368,-4.34,-4.42
-4.810e+00,-0.352,-0.344,-4.34,-4.26
-4.808e+00,-0.344,-0.36,-4.38,-4.46
-4.806e+00,-0.344,-0.328,-4.38,-4.3
-4.804e+00,-0.336,-0.344,-4.38,-4.46
-4.802e+00,-0.328,-0.312,-4.42,-4.3
-4.800e+00,-0.32,-0.328,-4.42,-4.5
-4.798e+00,-0.312,-0.304,-4.42,-4.34
-4.796e+00,-0.304,-0.32,-4.42,-4.5
-4.795e+00,-0.304,-0.288,-4.46,-4.38
-4.793e+00,-0.296,-0.304,-4.46,-4.5
-4.791e+00,-0.288,-0.272,-4.46,-4.38
-4.789e+00,-0.28,-0.288,-4.46,-4.54
-4.787e+00,-0.272,-0.256,-4.46,-4.38
-4.785e+00,-0.256,-0.272,-4.5,-4.54
-4.783e+00,-0.256,-0.24,-4.5,-4.38
-4.781e+00,-0.248,-0.264,-4.46,-4.54
-4.779e+00,-0.24,-0.232,-4.5,-4.42
-4.777e+00,-0.232,-0.248,-4.46,-4.54
-4.775e+00,-0.224,-0.208,-4.5,-4.42
-4.773e+00,-0.216,-0.232,-4.5,-4.54
-4.772e+00,-0.216,-0.2,-4.5,-4.42
-4.770e+00,-0.208,-0.216,-4.5,-4.54
-4.768e+00,-0.2,-0.184,-4.5,-4.42
-4.766e+00,-0.192,-0.2,-4.5,-4.54
-4.764e+00,-0.184,-0.168,-4.54,-4.42
-4.762e+00,-0.176,-0.184,-4.54,-4.54
-4.760e+00,-0.168,-0.152,-4.5,-4.42
-4.758e+00,-0.16,-0.176,-4.5,-4.58
-4.756e+00,-0.152,-0.136,-4.5,-4.42
-4.754e+00,-0.144,-0.152,-4.5,-4.54
-4.752e+00,-0.136,-0.12,-4.5,-4.42
-4.750e+00,-0.128,-0.144,-4.5,-4.54
-4.748e+00,-0.12,-0.112,-4.5,-4.42
-4.747e+00,-0.12,-0.128,-4.5,-4.54
-4.745e+00,-0.112,-0.096,-4.5,-4.42
-4.743e+00,-0.104,-0.112,-4.46,-4.54
-4.741e+00,-0.088,-0.08,-4.46,-4.38
-4.739e+00,-0.088,-0.096,-4.5,-4.54
-4.737e+00,-0.08,-0.064,-4.46,-4.38
-4.735e+00,-0.072,-0.08,-4.46,-4.5
-4.733e+00,-0.064,-0.048,-4.46,-4.38
-4.731e+00,-0.056,-0.064,-4.46,-4.5
-4.729e+00,-0.048,-0.032,-4.42,-4.34
-4.727e+00,-0.04,-0.056,-4.42,-4.5
-4.725e+00,-0.032,-0.016,-4.42,-4.34
-4.724e+00,-0.024,-0.032,-4.38,-4.46
-4.722e+00,-0.024,-0.008,-4.42,-4.34
-4.720e+00,-0.008,-0.024,-4.38,-4.46
-4.718e+00,-0.008,0.008,-4.38,-4.3
-4.716e+00,0.008,-0.008,-4.38,-4.42
-4.714e+00,0.008,0.024,-4.38,-4.26
-4.712e+00,0.016,0.008,-4.38,-4.38
-4.710e+00,0.024,0.04,-4.34,-4.26
-4.708e+00,0.032,0.024,-4.34,-4.38
-4.706e+00,0.04,0.056,-4.3,-4.22
-4.704e+00,0.056,0.04,-4.3,-4.34
-4.702e+00,0.056,0.072,-4.26,-4.18
-4.700e+00,0.064,0.048,-4.26,-4.3
-4.699e+00,0.072,0.088,-4.26,-4.18
-4.697e+00,0.08,0.064,-4.22,-4.26
-4.695e+00,0.088,0.104,-4.22,-4.14
-4.693e+00,0.096,0.088,-4.18,-4.26
-4.691e+00,0.096,0.112,-4.18,-4.1
-4.689e+00,0.112,0.096,-4.18,-4.22
-4.687e+00,0.12,0.128,-4.14,-4.06
-4.685e+00,0.128,0.112,-4.14,-4.18
-4.683e+00,0.128,0.144,-4.06,-4.02
-4.681e+00,0.136,0.128,-4.1,-4.14
-4.679e+00,0.144,0.16,-4.06,-3.98
-4.677e+00,0.152,0.144,-4.06,-4.1
-4.675e+00,0.16,0.176,-4.02,-3.94
-4.674e+00,0.168,0.16,-4.02,-4.06
-4.672e+00,0.176,0.192,-3.98,-3.9
-4.670e+00,0.184,0.176,-3.98,-4.02
-4.668e+00,0.192,0.208,-3.94,-3.86
-4.666e+00,0.2,0.184,-3.94,-3.98
-4.664e+00,0.208,0.224,-3.9,-3.82
-4.662e+00,0.216,0.208,-3.9,-3.94
-4.660e+00,0.224,0.24,-3.82,-3.78
-4.658e+00,0.232,0.216,-3.82,-3.86
-4.656e+00,0.24,0.256,-3.82,-3.7
-4.654e+00,0.248,0.232,-3.78,-3.82
-4.652e+00,0.256,0.272,-3.78,-3.66
-4.651e+00,0.264,0.248,-3.74,-3.78
-4.649e+00,0.264,0.28,-3.7,-3.62
-4.647e+00,0.272,0.264,-3.7,-3.74
-4.645e+00,0.28,0.296,-3.62,-3.58
-4.643e+00,0.288,0.28,-3.62,-3.66
-4.641e+00,0.296,0.312,-3.58,-3.5
-4.639e+00,0.304,0.288,-3.58,-3.62
-4.637e+00,0.312,0.328,-3.54,-3.46
-4.635e+00,0.32,0.304,-3.54,-3.58
-4.633e+00,0.328,0.336,-3.5,-3.42
-4.631e+00,0.336,0.32,-3.5,-3.5
-4.629e+00,0.344,0.352,-3.46,-3.34
-4.627e+00,0.344,0.336,-3.42,-3.46
-4.626e+00,0.352,0.368,-3.38,-3.3
-4.624e+00,0.36,0.352,-3.38,-3.42
-4.622e+00,0.36,0.376,-3.34,-3.22
-4.620e+00,0.376,0.36,-3.3,-3.34
-4.618e+00,0.384,0.392,-3.26,-3.18
-4.616e+00,0.384,0.376,-3.26,-3.3
-4.614e+00,0.392,0.408,-3.22,-3.1
-4.612e+00,0.4,0.392,-3.18,-3.22
-4.610e+00,0.408,0.416,-3.14,-3.02
-4.608e+00,0.408,0.4,-3.1,-3.14
-4.606e+00,0.416,0.432,-3.1,-2.98
-4.604e+00,0.432,0.416,-3.02,-3.1
-4.603e+00,0.424,0.448,-3.02,-2.9
-4.601e+00,0.44,0.424,-2.98,-3.02
-4.599e+00,0.44,0.456,-2.94,-2.82
-4.597e+00,0.448,0.44,-2.9,-2.98
-4.595e+00,0.456,0.472,-2.86,-2.78
-4.593e+00,0.464,0.456,-2.86,-2.9
-4.591e+00,0.464,0.48,-2.82,-2.7
-4.589e+00,0.472,0.464,-2.78,-2.82
-4.587e+00,0.48,0.488,-2.74,-2.62
-4.585e+00,0.48,0.472,-2.7,-2.74
-4.583e+00,0.488,0.504,-2.66,-2.58
-4.581e+00,0.496,0.488,-2.66,-2.7
-4.579e+00,0.504,0.512,-2.62,-2.5
-4.578e+00,0.504,0.496,-2.54,-2.62
-4.576e+00,0.512,0.528,-2.54,-2.42
-4.574e+00,0.52,0.512,-2.5,-2.54
-4.572e+00,0.52,0.536,-2.46,-2.34
-4.570e+00,0.528,0.52,-2.42,-2.46
-4.568e+00,0.536,0.544,-2.38,-2.26
-4.566e+00,0.536,0.528,-2.34,-2.38
-4.564e+00,0.544,0.56,-2.3,-2.18
-4.562e+00,0.552,0.544,-2.26,-2.3
-4.560e+00,0.552,0.568,-2.22,-2.1
-4.558e+00,0.56,0.552,-2.18,-2.26
-4.556e+00,0.568,0.576,-2.14,-2.06
-4.555e+00,0.576,0.56,-2.14,-2.18
-4.553e+00,0.576,0.592,-2.06,-1.98
-4.551e+00,0.576,0.568,-2.06,-2.1
-4.549e+00,0.584,0.6,-2.02,-1.9
-4.547e+00,0.592,0.576,-1.94,-2.02
-4.545e+00,0.592,0.608,-1.94,-1.82
-4.543e+00,0.6,0.592,-1.9,-1.94
-4.541e+00,0.6,0.616,-1.82,-1.74
-4.539e+00,0.608,0.6,-1.82,-1.86
-4.537e+00,0.616,0.624,-1.78,-1.66
-4.535e+00,0.616,0.608,-1.74,-1.78
-4.533e+00,0.616,0.632,-1.7,-1.58
-4.531e+00,0.624,0.616,-1.66,-1.7
-4.530e+00,0.624,0.64,-1.62,-1.5
-4.528e+00,0.624,0.624,-1.58,-1.62
-4.526e+00,0.64,0.648,-1.54,-1.42
-4.524e+00,0.64,0.632,-1.5,-1.54
-4.522e+00,0.64,0.656,-1.46,-1.34
-4.520e+00,0.648,0.64,-1.42,-1.46
-4.518e+00,0.648,0.664,-1.38,-1.26
-4.516e+00,0.656,0.648,-1.34,-1.38
-4.514e+00,0.656,0.672,-1.3,-1.18
-4.512e+00,0.664,0.656,-1.26,-1.3
-4.510e+00,0.664,0.68,-1.22,-1.1
-4.508e+00,0.664,0.656,-1.14,-1.22
-4.507e+00,0.672,0.68,-1.14,-1.02
-4.505e+00,0.68,0.664,-1.1,-1.14
-4.503e+00,0.68,0.688,-1.06,-0.94
-4.501e+00,0.688,0.672,-1.02,-1.06
-4.499e+00,0.688,0.696,-0.98,-0.86
-4.497e+00,0.688,0.68,-0.94,-0.98
-4.495e+00,0.688,0.704,-0.9,-0.78
-4.493e+00,0.696,0.68,-0.86,-0.9
-4.491e+00,0.696,0.704,-0.78,-0.7
-4.489e+00,0.696,0.688,-0.74,-0.82
-4.487e+00,0.704,0.712,-0.74,-0.62
-4.485e+00,0.704,0.696,-0.7,-0.74
-4.483e+00,0.704,0.72,-0.62,-0.54
-4.482e+00,0.704,0.696,-0.62,-0.66
-4.480e+00,0.712,0.72,-0.54,-0.46
-4.478e+00,0.712,0.704,-0.54,-0.58
-4.476e+00,0.712,0.728,-0.5,-0.38
-4.474e+00,0.72,0.712,-0.42,-0.5
-4.472e+00,0.72,0.728,-0.42,-0.3
-4.470e+00,0.72,0.712,-0.38,-0.42
-4.468e+00,0.72,0.736,-0.3,-0.22
-4.466e+00,0.72,0.712,-0.3,-0.34
-4.464e+00,0.728,0.736,-0.26,-0.14
-4.462e+00,0.728,0.72,-0.18,-0.26
-4.460e+00,0.728,0.736,-0.18,-0.06
-4.459e+00,0.728,0.72,-0.14,-0.18
-4.457e+00,0.728,0.744,-0.1,0.02
-4.455e+00,0.736,0.72,-0.06,-0.1
-4.453e+00,0.736,0.744,-0.02,0.1
-4.451e+00,0.728,0.728,0.02,-0.02
-4.449e+00,0.736,0.744,0.1,0.18
-4.447e+00,0.736,0.728,0.1,0.06
-4.445e+00,0.736,0.744,0.14,0.22
-4.443e+00,0.736,0.728,0.18,0.14
-4.441e+00,0.736,0.752,0.22,0.3
-4.439e+00,0.744,0.728,0.26,0.22
-4.437e+00,0.736,0.752,0.3,0.38
-4.435e+00,0.736,0.728,0.34,0.3
-4.434e+00,0.736,0.752,0.38,0.46
-4.432e+00,0.744,0.728,0.42,0.38
-4.430e+00,0.736,0.752,0.46,0.54
-4.428e+00,0.744,0.728,0.5,0.46
-4.426e+00,0.736,0.752,0.54,0.62
-4.424e+00,0.736,0.728,0.58,0.54
-4.422e+00,0.744,0.752,0.62,0.7
-4.420e+00,0.736,0.728,0.62,0.62
-4.418e+00,0.744,0.752,0.66,0.78
-4.416e+00,0.744,0.728,0.74,0.7
-4.414e+00,0.736,0.752,0.74,0.86
-4.412e+00,0.736,0.728,0.78,0.74
-4.411e+00,0.736,0.752,0.82,0.94
-4.409e+00,0.736,0.728,0.86,0.82
-4.407e+00,0.736,0.744,0.9,0.98
-4.405e+00,0.736,0.728,0.94,0.9
-4.403e+00,0.736,0.744,0.98,1.1
-4.401e+00,0.736,0.72,1.06,0.98
-4.399e+00,0.736,0.744,1.06,1.14
-4.397e+00,0.736,0.72,1.1,1.06
-4.395e+00,0.728,0.744,1.14,1.22
-4.393e+00,0.728,0.72,1.14,1.14
-4.391e+00,0.728,0.736,1.18,1.3
-4.389e+00,0.728,0.712,1.26,1.18
-4.387e+00,0.728,0.736,1.26,1.38
-4.386e+00,0.72,0.712,1.3,1.26
-4.384e+00,0.72,0.736,1.34,1.42
-4.382e+00,0.72,0.712,1.38,1.34
-4.380e+00,0.72,0.728,1.42,1.5
-4.378e+00,0.72,0.704,1.42,1.38
-4.376e+00,0.72,0.728,1.5,1.58
-4.374e+00,0.72,0.696,1.54,1.46
-4.372e+00,0.712,0.72,1.54,1.62
-4.370e+00,0.712,0.696,1.58,1.54
-4.368e+00,0.704,0.72,1.62,1.7
-4.366e+00,0.704,0.688,1.62,1.58
-4.364e+00,0.704,0.712,1.66,1.78
-4.363e+00,0.696,0.688,1.7,1.66
-4.361e+00,0.696,0.712,1.74,1.82
-4.359e+00,0.696,0.68,1.78,1.74
-4.357e+00,0.688,0.704,1.78,1.9
-4.355e+00,0.688,0.672,1.82,1.78
-4.353e+00,0.688,0.696,1.86,1.94
-4.351e+00,0.688,0.664,1.9,1.86
-4.349e+00,0.68,0.688,1.94,2.02
-4.347e+00,0.68,0.664,1.94,1.9
-4.345e+00,0.672,0.688,1.98,2.06
-4.343e+00,0.664,0.656,2.02,1.98
-4.341e+00,0.664,0.68,2.02,2.14
-4.339e+00,0.656,0.648,2.06,2.02
-4.338e+00,0.656,0.672,2.1,2.18
-4.336e+00,0.656,0.64,2.14,2.06
-4.334e+00,0.648,0.664,2.14,2.22
-4.332e+00,0.648,0.632,2.18,2.14
-4.330e+00,0.64,0.656,2.22,2.3
-4.328e+00,0.64,0.624,2.22,2.18
-4.326e+00,0.64,0.648,2.26,2.34
-4.324e+00,0.632,0.616,2.3,2.26
-4.322e+00,0.632,0.64,2.3,2.38
-4.320e+00,0.624,0.608,2.34,2.3
-4.318e+00,0.616,0.632,2.38,2.46
-4.316e+00,0.616,0.6,2.38,2.34
-4.315e+00,0.608,0.624,2.42,2.5
-4.313e+00,0.608,0.592,2.46,2.38
-4.311e+00,0.608,0.616,2.46,2.54
-4.309e+00,0.6,0.584,2.5,2.42
-4.307e+00,0.592,0.608,2.54,2.58
-4.305e+00,0.592,0.568,2.54,2.5
-4.303e+00,0.584,0.6,2.54,2.62
-4.301e+00,0.576,0.56,2.58,2.54
-4.299e+00,0.576,0.592,2.62,2.66
-4.297e+00,0.568,0.552,2.62,2.58
-4.295e+00,0.568,0.576,2.66,2.7
-4.293e+00,0.568,0.544,2.7,2.62
-4.291e+00,0.552,0.568,2.7,2.74
-4.290e+00,0.552,0.528,2.7,2.66
-4.288e+00,0.544,0.56,2.74,2.78
-4.286e+00,0.544,0.52,2.78,2.7
-4.284e+00,0.536,0.544,2.78,2.82
-4.282e+00,0.536,0.512,2.78,2.74
-4.280e+00,0.52,0.536,2.82,2.86
-4.278e+00,0.52,0.504,2.82,2.78
-4.276e+00,0.512,0.528,2.82,2.9
-4.274e+00,0.504,0.488,2.9,2.82
-4.272e+00,0.504,0.52,2.86,2.94
-4.270e+00,0.488,0.48,2.9,2.86
-4.268e+00,0.496,0.504,2.94,2.98
-4.267e+00,0.488,0.464,2.94,2.86
-4.265e+00,0.48,0.496,2.94,3.02
-4.263e+00,0.472,0.456,2.94,2.9
-4.261e+00,0.464,0.48,2.98,3.06
-4.259e+00,0.464,0.44,2.98,2.94
-4.257e+00,0.456,0.472,2.98,3.06
-4.255e+00,0.448,0.424,3.02,2.98
-4.253e+00,0.44,0.456,3.06,3.1
-4.251e+00,0.432,0.416,3.06,2.98
-4.249e+00,0.432,0.44,3.06,3.1
-4.247e+00,0.424,0.408,3.06,3.02
-4.245e+00,0.416,0.432,3.1,3.14
-4.243e+00,0.416,0.392,3.1,3.06
-4.242e+00,0.408,0.424,3.1,3.18
-4.240e+00,0.4,0.376,3.14,3.06
-4.238e+00,0.384,0.408,3.1,3.22
-4.236e+00,0.384,0.36,3.14,3.1
-4.234e+00,0.384,0.392,3.18,3.22
-4.232e+00,0.376,0.352,3.18,3.1
-4.230e+00,0.368,0.376,3.18,3.22
-4.228e+00,0.36,0.336,3.18,3.14
-4.226e+00,0.352,0.368,3.22,3.26
-4.224e+00,0.344,0.32,3.22,3.14
-4.222e+00,0.336,0.352,3.22,3.26
-4.220e+00,0.328,0.304,3.22,3.14
-4.219e+00,0.328,0.336,3.22,3.3
-4.217e+00,0.32,0.296,3.26,3.18
-4.215e+00,0.312,0.328,3.26,3.3
-4.213e+00,0.304,0.28,3.26,3.18
-4.211e+00,0.304,0.312,3.26,3.3
-4.209e+00,0.288,0.264,3.3,3.18
-4.207e+00,0.28,0.296,3.26,3.3
-4.205e+00,0.28,0.248,3.26,3.22
-4.203e+00,0.264,0.28,3.3,3.34
-4.201e+00,0.256,0.232,3.26,3.22
-4.199e+00,0.256,0.264,3.3,3.34
-4.197e+00,0.248,0.224,3.3,3.22
-4.195e+00,0.24,0.256,3.3,3.34
-4.194e+00,0.232,0.2,3.3,3.26
-4.192e+00,0.224,0.24,3.3,3.34
-4.190e+00,0.216,0.192,3.3,3.26
-4.188e+00,0.208,0.224,3.3,3.38
-4.186e+00,0.2,0.176,3.3,3.26
-4.184e+00,0.192,0.208,3.3,3.34
-4.182e+00,0.184,0.16,3.34,3.26
-4.180e+00,0.176,0.192,3.3,3.38
-4.178e+00,0.168,0.144,3.3,3.26
-4.176e+00,0.16,0.176,3.3,3.38
-4.174e+00,0.152,0.128,3.3,3.26
-4.172e+00,0.144,0.16,3.3,3.38
-4.171e+00,0.136,0.112,3.3,3.26
-4.169e+00,0.136,0.144,3.3,3.34
-4.167e+00,0.12,0.104,3.3,3.22
-4.165e+00,0.112,0.128,3.3,3.34
-4.163e+00,0.112,0.088,3.3,3.22
-4.161e+00,0.104,0.12,3.3,3.34
-4.159e+00,0.096,0.072,3.3,3.22
-4.157e+00,0.088,0.104,3.3,3.34
-4.155e+00,0.08,0.056,3.3,3.22
-4.153e+00,0.072,0.088,3.3,3.34
-4.151e+00,0.064,0.04,3.26,3.22
-4.149e+00,0.056,0.072,3.26,3.34
-4.147e+00,0.048,0.024,3.26,3.18
-4.146e+00,0.04,0.056,3.22,3.3
-4.144e+00,0.04,0.008,3.22,3.18
-4.142e+00,0.024,0.04,3.26,3.3
-4.140e+00,0.016,-0.008,3.22,3.18
-4.138e+00,0.016,0.024,3.22,3.3
-4.136e+00,0.008,-0.016,3.22,3.14
-4.134e+00,-1.78814e-10,0.016,3.22,3.26
-4.132e+00,-0.008,-0.04,3.22,3.14
-4.130e+00,-0.016,-1.78814e-10,3.22,3.26
-4.128e+00,-0.024,-0.048,3.22,3.14
-4.126e+00,-0.032,-0.016,3.18,3.26
-4.124e+00,-0.04,-0.064,3.18,3.1
-4.123e+00,-0.04,-0.032,3.18,3.22
-4.121e+00,-0.056,-0.08,3.14,3.06
-4.119e+00,-0.056,-0.048,3.14,3.22
-4.117e+00,-0.064,-0.096,3.1,3.06
-4.115e+00,-0.08,-0.064,3.1,3.18
-4.113e+00,-0.088,-0.112,3.1,3.02
-4.111e+00,-0.088,-0.08,3.1,3.14
-4.109e+00,-0.096,-0.128,3.1,2.98
-4.107e+00,-0.112,-0.096,3.06,3.14
-4.105e+00,-0.112,-0.144,3.06,2.98
-4.103e+00,-0.128,-0.104,3.02,3.1
-4.101e+00,-0.136,-0.16,3.02,2.94
-4.099e+00,-0.136,-0.12,3.02,3.06
-4.098e+00,-0.144,-0.168,2.98,2.9
-4.096e+00,-0.152,-0.136,2.98,3.06
-4.094e+00,-0.16,-0.184,2.98,2.9
-4.092e+00,-0.168,-0.152,2.94,3.02
-4.090e+00,-0.176,-0.2,2.94,2.86
-4.088e+00,-0.176,-0.168,2.94,2.98
-4.086e+00,-0.192,-0.216,2.9,2.82
-4.084e+00,-0.2,-0.184,2.86,2.94
-4.082e+00,-0.2,-0.232,2.86,2.78
-4.080e+00,-0.216,-0.192,2.86,2.9
-4.078e+00,-0.224,-0.24,2.82,2.74
-4.076e+00,-0.232,-0.208,2.82,2.9
-4.075e+00,-0.232,-0.264,2.82,2.74
-4.073e+00,-0.24,-0.224,2.78,2.86
-4.071e+00,-0.248,-0.272,2.78,2.7
-4.069e+00,-0.256,-0.24,2.74,2.82
-4.067e+00,-0.264,-0.288,2.74,2.66
-4.065e+00,-0.272,-0.256,2.7,2.78
-4.063e+00,-0.28,-0.304,2.66,2.62
-4.061e+00,-0.288,-0.272,2.66,2.74
-4.059e+00,-0.288,-0.32,2.66,2.54
-4.057e+00,-0.296,-0.288,2.62,2.7
-4.055e+00,-0.304,-0.328,2.62,2.54
-4.053e+00,-0.312,-0.296,2.58,2.66
-4.051e+00,-0.32,-0.344,2.58,2.46
-4.050e+00,-0.328,-0.312,2.54,2.62
-4.048e+00,-0.336,-0.36,2.5,2.42
-4.046e+00,-0.344,-0.328,2.5,2.58
-4.044e+00,-0.344,-0.376,2.5,2.38
-4.042e+00,-0.352,-0.336,2.46,2.54
-4.040e+00,-0.36,-0.384,2.46,2.34
-4.038e+00,-0.368,-0.352,2.42,2.5
-4.036e+00,-0.376,-0.4,2.38,2.3
-4.034e+00,-0.384,-0.368,2.34,2.46
-4.032e+00,-0.384,-0.408,2.34,2.26
-4.030e+00,-0.392,-0.376,2.3,2.42
-4.028e+00,-0.4,-0.424,2.3,2.22
-4.026e+00,-0.408,-0.392,2.3,2.38
-4.025e+00,-0.416,-0.432,2.26,2.18
-4.023e+00,-0.424,-0.408,2.22,2.3
-4.021e+00,-0.432,-0.448,2.22,2.1
-4.019e+00,-0.432,-0.424,2.18,2.26
-4.017e+00,-0.44,-0.456,2.14,2.06
-4.015e+00,-0.448,-0.432,2.14,2.22
-4.013e+00,-0.448,-0.472,2.1,2.02
-4.011e+00,-0.456,-0.44,2.1,2.18
-4.009e+00,-0.464,-0.488,2.06,1.98
-4.007e+00,-0.464,-0.456,2.06,2.14
-4.005e+00,-0.472,-0.496,2.02,1.9
-4.003e+00,-0.48,-0.464,1.98,2.06
-4.002e+00,-0.488,-0.504,1.98,1.86
-4.000e+00,-0.496,-0.48,1.94,2.02
-3.998e+00,-0.496,-0.52,1.9,1.82
-3.996e+00,-0.504,-0.488,1.86,1.98
-3.994e+00,-0.504,-0.528,1.82,1.78
-3.992e+00,-0.512,-0.496,1.82,1.94
-3.990e+00,-0.52,-0.536,1.82,1.7
-3.988e+00,-0.52,-0.512,1.78,1.86
-3.986e+00,-0.528,-0.544,1.74,1.66
-3.984e+00,-0.536,-0.52,1.7,1.82
-3.982e+00,-0.536,-0.56,1.7,1.62
-3.980e+00,-0.544,-0.528,1.66,1.78
-3.978e+00,-0.552,-0.568,1.62,1.54
-3.977e+00,-0.552,-0.544,1.62,1.7
-3.975e+00,-0.56,-0.576,1.58,1.5
-3.973e+00,-0.568,-0.552,1.58,1.66
-3.971e+00,-0.568,-0.592,1.54,1.42
-3.969e+00,-0.576,-0.56,1.5,1.58
-3.967e+00,-0.584,-0.6,1.5,1.38
-3.965e+00,-0.584,-0.568,1.46,1.54
-3.963e+00,-0.584,-0.608,1.42,1.34
-3.961e+00,-0.592,-0.584,1.38,1.5
-3.959e+00,-0.6,-0.616,1.38,1.26
-3.957e+00,-0.6,-0.592,1.34,1.42
-3.955e+00,-0.6,-0.624,1.3,1.22
-3.954e+00,-0.616,-0.6,1.3,1.38
-3.952e+00,-0.616,-0.632,1.26,1.14
-3.950e+00,-0.616,-0.608,1.22,1.3
-3.948e+00,-0.624,-0.64,1.22,1.1
-3.946e+00,-0.632,-0.616,1.14,1.26
-3.944e+00,-0.632,-0.648,1.14,1.02
-3.942e+00,-0.632,-0.624,1.1,1.18
-3.940e+00,-0.64,-0.656,1.06,0.98
-3.938e+00,-0.64,-0.632,1.02,1.14
-3.936e+00,-0.648,-0.664,1.02,0.9
-3.934e+00,-0.648,-0.64,0.98,1.06
-3.932e+00,-0.656,-0.672,0.94,0.86
-3.930e+00,-0.656,-0.648,0.9,1.02
-3.929e+00,-0.656,-0.68,0.9,0.78
-3.927e+00,-0.664,-0.648,0.86,0.94
-3.925e+00,-0.664,-0.68,0.82,0.74
-3.923e+00,-0.672,-0.656,0.82,0.9
-3.921e+00,-0.672,-0.688,0.78,0.66
-3.919e+00,-0.68,-0.664,0.74,0.82
-3.917e+00,-0.68,-0.696,0.7,0.62
-3.915e+00,-0.688,-0.672,0.66,0.78
-3.913e+00,-0.68,-0.704,0.66,0.54
-3.911e+00,-0.688,-0.672,0.62,0.7
-3.909e+00,-0.688,-0.704,0.58,0.5
-3.907e+00,-0.688,-0.68,0.54,0.66
-3.906e+00,-0.696,-0.712,0.5,0.42
-3.904e+00,-0.696,-0.688,0.5,0.58
-3.902e+00,-0.696,-0.712,0.46,0.38
-3.900e+00,-0.696,-0.688,0.46,0.54
-3.898e+00,-0.704,-0.72,0.42,0.3
-3.896e+00,-0.704,-0.696,0.38,0.46
