Versuch2/datasets/rest/T0029.CSV

Model,DPO2002B
Firmware Version,1.52

Point Format,Y,,,
Horizontal Units,S,,,
Horizontal Scale,0.4,,,
Sample Interval,0.000768049,,,
Filter Frequency,7e+07,,,
Record Length,5200,,,
Gating,0.0% to 100.0%,,0.0% to 100.0%,
Probe Attenuation,1,,10,
Vertical Units,V,,V,
Vertical Offset,0,,0,
Vertical Scale,0.05,,2,
Label,,,,
TIME,CH1,CH1 Peak Detect,CH2,CH2 Peak Detect
-2.0000e+00,-0.028,-0.03,6.12,6.04
-1.9992e+00,-0.026,-0.024,6.2,6.28
-1.9985e+00,-0.026,-0.03,6.2,6.12
-1.9977e+00,-0.026,-0.022,6.2,6.28
-1.9969e+00,-0.026,-0.028,6.2,6.12
-1.9962e+00,-0.024,-0.022,6.28,6.28
-1.9954e+00,-0.024,-0.028,6.28,6.12
-1.9946e+00,-0.024,-0.02,6.28,6.36
-1.9939e+00,-0.022,-0.028,6.28,6.12
-1.9931e+00,-0.022,-0.02,6.28,6.36
-1.9923e+00,-0.022,-0.026,6.28,6.2
-1.9916e+00,-0.024,-0.02,6.28,6.36
-1.9908e+00,-0.024,-0.026,6.28,6.2
-1.9900e+00,-0.024,-0.018,6.36,6.44
-1.9892e+00,-0.02,-0.024,6.36,6.2
-1.9885e+00,-0.02,-0.018,6.36,6.44
-1.9877e+00,-0.02,-0.024,6.36,6.28
-1.9869e+00,-0.022,-0.018,6.36,6.44
-1.9862e+00,-0.02,-0.024,6.36,6.28
-1.9854e+00,-0.02,-0.018,6.36,6.44
-1.9846e+00,-0.02,-0.024,6.36,6.28
-1.9839e+00,-0.022,-0.016,6.36,6.44
-1.9831e+00,-0.02,-0.022,6.44,6.28
-1.9823e+00,-0.018,-0.016,6.44,6.52
-1.9816e+00,-0.018,-0.022,6.36,6.36
-1.9808e+00,-0.018,-0.016,6.44,6.52
-1.9800e+00,-0.018,-0.022,6.44,6.36
-1.9793e+00,-0.018,-0.014,6.44,6.52
-1.9785e+00,-0.018,-0.022,6.44,6.36
-1.9777e+00,-0.018,-0.014,6.44,6.52
-1.9770e+00,-0.016,-0.02,6.44,6.36
-1.9762e+00,-0.016,-0.012,6.52,6.6
-1.9754e+00,-0.016,-0.02,6.52,6.36
-1.9747e+00,-0.016,-0.012,6.52,6.6
-1.9739e+00,-0.014,-0.018,6.52,6.36
-1.9731e+00,-0.016,-0.012,6.52,6.6
-1.9724e+00,-0.016,-0.018,6.52,6.44
-1.9716e+00,-0.012,-0.01,6.52,6.6
-1.9708e+00,-0.014,-0.018,6.52,6.44
-1.9700e+00,-0.014,-0.01,6.52,6.6
-1.9693e+00,-0.014,-0.016,6.52,6.44
-1.9685e+00,-0.012,-0.01,6.52,6.68
-1.9677e+00,-0.012,-0.016,6.52,6.44
-1.9670e+00,-0.012,-0.01,6.6,6.68
-1.9662e+00,-0.012,-0.016,6.6,6.44
-1.9654e+00,-0.012,-0.008,6.6,6.68
-1.9647e+00,-0.012,-0.016,6.6,6.44
-1.9639e+00,-0.012,-0.008,6.6,6.68
-1.9631e+00,-0.01,-0.014,6.6,6.52
-1.9624e+00,-0.01,-0.006,6.6,6.68
-1.9616e+00,-0.01,-0.014,6.6,6.52
-1.9608e+00,-0.008,-0.006,6.6,6.68
-1.9601e+00,-0.01,-0.014,6.6,6.52
-1.9593e+00,-0.008,-0.006,6.6,6.76
-1.9585e+00,-0.008,-0.012,6.68,6.52
-1.9578e+00,-0.01,-0.006,6.68,6.76
-1.9570e+00,-0.008,-0.012,6.68,6.52
-1.9562e+00,-0.008,-0.004,6.68,6.76
-1.9555e+00,-0.006,-0.01,6.68,6.6
-1.9547e+00,-0.006,-0.004,6.68,6.76
-1.9539e+00,-0.006,-0.01,6.68,6.6
-1.9531e+00,-0.004,-0.002,6.68,6.76
-1.9524e+00,-0.004,-0.01,6.68,6.6
-1.9516e+00,-0.006,-0.002,6.68,6.76
-1.9508e+00,-0.004,-0.008,6.68,6.6
-1.9501e+00,-0.004,-0.002,6.68,6.76
-1.9493e+00,-0.004,-0.008,6.68,6.6
-1.9485e+00,-0.004,-4.47035e-11,6.68,6.76
-1.9478e+00,-0.004,-0.008,6.68,6.6
-1.9470e+00,-0.004,-4.47035e-11,6.76,6.76
-1.9462e+00,-0.004,-0.008,6.68,6.6
-1.9455e+00,-0.002,-4.47035e-11,6.76,6.84
-1.9447e+00,-0.002,-0.006,6.76,6.6
-1.9439e+00,-0.002,-4.47035e-11,6.76,6.84
-1.9432e+00,-4.47035e-11,-0.006,6.76,6.6
-1.9424e+00,-0.002,0.002,6.76,6.84
-1.9416e+00,-0.002,-0.004,6.76,6.6
-1.9409e+00,-4.47035e-11,0.002,6.76,6.84
-1.9401e+00,-4.47035e-11,-0.004,6.76,6.6
-1.9393e+00,-4.47035e-11,0.002,6.76,6.84
-1.9386e+00,-4.47035e-11,-0.004,6.76,6.68
-1.9378e+00,-4.47035e-11,0.004,6.76,6.84
-1.9370e+00,-4.47035e-11,-0.002,6.76,6.68
-1.9363e+00,0.002,0.004,6.76,6.84
-1.9355e+00,-4.47035e-11,-0.002,6.76,6.68
-1.9347e+00,0.002,0.006,6.76,6.84
-1.9339e+00,0.002,-0.002,6.76,6.68
-1.9332e+00,0.002,0.006,6.76,6.84
-1.9324e+00,0.002,-4.47035e-11,6.76,6.68
-1.9316e+00,0.002,0.006,6.76,6.84
-1.9309e+00,0.004,-4.47035e-11,6.84,6.68
-1.9301e+00,0.004,0.008,6.76,6.84
-1.9293e+00,0.006,-4.47035e-11,6.76,6.68
-1.9286e+00,0.006,0.008,6.76,6.84
-1.9278e+00,0.004,0.002,6.76,6.68
-1.9270e+00,0.006,0.008,6.84,6.84
-1.9263e+00,0.004,0.002,6.76,6.68
-1.9255e+00,0.006,0.008,6.84,6.84
-1.9247e+00,0.006,0.002,6.84,6.68
-1.9240e+00,0.006,0.01,6.76,6.84
-1.9232e+00,0.008,0.004,6.76,6.68
-1.9224e+00,0.008,0.01,6.76,6.92
-1.9217e+00,0.008,0.004,6.76,6.68
-1.9209e+00,0.008,0.012,6.84,6.84
-1.9201e+00,0.008,0.004,6.84,6.68
-1.9194e+00,0.008,0.012,6.76,6.84
-1.9186e+00,0.008,0.004,6.76,6.68
-1.9178e+00,0.008,0.012,6.84,6.92
-1.9171e+00,0.01,0.006,6.76,6.68
-1.9163e+00,0.01,0.014,6.76,6.84
-1.9155e+00,0.01,0.006,6.84,6.68
-1.9147e+00,0.01,0.014,6.76,6.84
-1.9140e+00,0.01,0.008,6.76,6.68
-1.9132e+00,0.01,0.014,6.76,6.92
-1.9124e+00,0.012,0.008,6.76,6.68
-1.9117e+00,0.012,0.016,6.76,6.84
-1.9109e+00,0.014,0.008,6.76,6.68
-1.9101e+00,0.012,0.016,6.84,6.84
-1.9094e+00,0.012,0.01,6.84,6.68
-1.9086e+00,0.014,0.018,6.76,6.84
-1.9078e+00,0.014,0.01,6.84,6.68
-1.9071e+00,0.014,0.016,6.84,6.84
-1.9063e+00,0.014,0.01,6.76,6.68
-1.9055e+00,0.014,0.018,6.76,6.84
-1.9048e+00,0.014,0.012,6.76,6.68
-1.9040e+00,0.016,0.018,6.76,6.84
-1.9032e+00,0.014,0.012,6.76,6.68
-1.9025e+00,0.016,0.02,6.76,6.84
-1.9017e+00,0.016,0.012,6.76,6.68
-1.9009e+00,0.016,0.02,6.76,6.84
-1.9002e+00,0.018,0.012,6.76,6.68
-1.8994e+00,0.018,0.02,6.76,6.84
-1.8986e+00,0.016,0.014,6.76,6.6
-1.8978e+00,0.016,0.02,6.76,6.84
-1.8971e+00,0.018,0.014,6.76,6.6
-1.8963e+00,0.02,0.022,6.76,6.84
-1.8955e+00,0.018,0.016,6.76,6.6
-1.8948e+00,0.018,0.022,6.76,6.84
-1.8940e+00,0.02,0.016,6.76,6.6
-1.8932e+00,0.02,0.024,6.76,6.84
-1.8925e+00,0.022,0.016,6.76,6.6
-1.8917e+00,0.02,0.024,6.68,6.84
-1.8909e+00,0.02,0.018,6.76,6.6
-1.8902e+00,0.02,0.024,6.76,6.76
-1.8894e+00,0.02,0.018,6.68,6.6
-1.8886e+00,0.022,0.026,6.68,6.76
-1.8879e+00,0.022,0.02,6.68,6.6
-1.8871e+00,0.024,0.026,6.68,6.76
-1.8863e+00,0.022,0.02,6.68,6.6
-1.8856e+00,0.024,0.026,6.68,6.76
-1.8848e+00,0.022,0.02,6.68,6.6
-1.8840e+00,0.022,0.026,6.68,6.76
-1.8833e+00,0.024,0.02,6.68,6.52
-1.8825e+00,0.024,0.028,6.68,6.76
-1.8817e+00,0.024,0.022,6.6,6.52
-1.8810e+00,0.026,0.028,6.68,6.76
-1.8802e+00,0.024,0.022,6.68,6.52
-1.8794e+00,0.024,0.028,6.68,6.76
-1.8786e+00,0.026,0.022,6.68,6.52
-1.8779e+00,0.026,0.03,6.6,6.76
-1.8771e+00,0.028,0.024,6.6,6.52
-1.8763e+00,0.026,0.03,6.6,6.68
-1.8756e+00,0.028,0.024,6.6,6.52
-1.8748e+00,0.028,0.03,6.6,6.68
-1.8740e+00,0.028,0.024,6.6,6.44
-1.8733e+00,0.028,0.032,6.6,6.68
-1.8725e+00,0.028,0.026,6.6,6.44
-1.8717e+00,0.03,0.032,6.6,6.68
-1.8710e+00,0.03,0.026,6.6,6.44
-1.8702e+00,0.03,0.034,6.6,6.68
-1.8694e+00,0.03,0.028,6.6,6.44
-1.8687e+00,0.03,0.034,6.52,6.6
-1.8679e+00,0.03,0.028,6.52,6.44
-1.8671e+00,0.032,0.034,6.52,6.6
-1.8664e+00,0.03,0.028,6.6,6.36
-1.8656e+00,0.03,0.034,6.52,6.6
-1.8648e+00,0.032,0.028,6.44,6.36
-1.8641e+00,0.032,0.036,6.52,6.6
-1.8633e+00,0.032,0.03,6.52,6.36
-1.8625e+00,0.032,0.036,6.44,6.6
-1.8618e+00,0.034,0.03,6.44,6.36
-1.8610e+00,0.032,0.036,6.44,6.52
-1.8602e+00,0.034,0.03,6.44,6.36
-1.8594e+00,0.034,0.036,6.44,6.52
-1.8587e+00,0.034,0.03,6.52,6.28
-1.8579e+00,0.034,0.038,6.44,6.52
-1.8571e+00,0.034,0.032,6.44,6.28
-1.8564e+00,0.036,0.04,6.44,6.52
-1.8556e+00,0.036,0.034,6.36,6.28
-1.8548e+00,0.038,0.04,6.44,6.44
-1.8541e+00,0.036,0.034,6.36,6.28
-1.8533e+00,0.036,0.04,6.36,6.44
-1.8525e+00,0.036,0.034,6.36,6.28
-1.8518e+00,0.038,0.042,6.36,6.44
-1.8510e+00,0.038,0.034,6.36,6.2
-1.8502e+00,0.038,0.042,6.28,6.44
-1.8495e+00,0.038,0.036,6.28,6.2
-1.8487e+00,0.04,0.042,6.28,6.36
-1.8479e+00,0.04,0.036,6.28,6.2
-1.8472e+00,0.038,0.042,6.28,6.36
-1.8464e+00,0.04,0.036,6.28,6.12
-1.8456e+00,0.04,0.044,6.2,6.36
-1.8449e+00,0.04,0.036,6.28,6.12
-1.8441e+00,0.04,0.044,6.2,6.28
-1.8433e+00,0.04,0.038,6.2,6.12
-1.8425e+00,0.04,0.044,6.2,6.28
-1.8418e+00,0.042,0.038,6.2,6.04
-1.8410e+00,0.042,0.046,6.2,6.28
-1.8402e+00,0.042,0.04,6.2,6.04
-1.8395e+00,0.044,0.046,6.2,6.28
-1.8387e+00,0.042,0.04,6.12,6.04
-1.8379e+00,0.044,0.046,6.12,6.2
-1.8372e+00,0.044,0.04,6.12,6.04
-1.8364e+00,0.044,0.048,6.12,6.2
-1.8356e+00,0.046,0.042,6.12,5.96
-1.8349e+00,0.046,0.048,6.04,6.2
-1.8341e+00,0.046,0.042,6.04,5.96
-1.8333e+00,0.044,0.048,6.04,6.12
-1.8326e+00,0.046,0.042,6.04,5.96
-1.8318e+00,0.046,0.05,6.04,6.12
-1.8310e+00,0.046,0.044,5.96,5.88
-1.8303e+00,0.048,0.05,6.04,6.04
-1.8295e+00,0.046,0.044,5.96,5.88
-1.8287e+00,0.048,0.052,5.96,6.04
-1.8280e+00,0.048,0.044,5.96,5.8
-1.8272e+00,0.048,0.052,5.96,6.04
-1.8264e+00,0.048,0.044,5.96,5.8
-1.8257e+00,0.048,0.052,5.96,5.96
-1.8249e+00,0.048,0.046,5.88,5.8
-1.8241e+00,0.05,0.052,5.88,5.96
-1.8233e+00,0.05,0.046,5.88,5.72
-1.8226e+00,0.05,0.054,5.8,5.96
-1.8218e+00,0.052,0.046,5.8,5.72
-1.8210e+00,0.05,0.054,5.8,5.88
-1.8203e+00,0.05,0.048,5.8,5.72
-1.8195e+00,0.052,0.054,5.8,5.88
-1.8187e+00,0.052,0.048,5.8,5.64
-1.8180e+00,0.052,0.056,5.8,5.88
-1.8172e+00,0.054,0.05,5.72,5.64
-1.8164e+00,0.054,0.056,5.72,5.8
-1.8157e+00,0.054,0.05,5.72,5.64
-1.8149e+00,0.052,0.056,5.72,5.8
-1.8141e+00,0.054,0.05,5.64,5.56
-1.8134e+00,0.054,0.058,5.64,5.72
-1.8126e+00,0.056,0.05,5.64,5.56
-1.8118e+00,0.056,0.058,5.64,5.72
-1.8111e+00,0.054,0.052,5.64,5.48
-1.8103e+00,0.056,0.058,5.56,5.72
-1.8095e+00,0.056,0.052,5.56,5.48
-1.8088e+00,0.056,0.06,5.56,5.64
-1.8080e+00,0.056,0.052,5.56,5.48
-1.8072e+00,0.056,0.06,5.56,5.64
-1.8065e+00,0.056,0.054,5.48,5.4
-1.8057e+00,0.056,0.06,5.48,5.56
-1.8049e+00,0.056,0.054,5.48,5.4
-1.8041e+00,0.056,0.06,5.48,5.56
-1.8034e+00,0.058,0.054,5.48,5.32
-1.8026e+00,0.058,0.062,5.48,5.56
-1.8018e+00,0.058,0.056,5.4,5.32
-1.8011e+00,0.058,0.062,5.4,5.48
-1.8003e+00,0.058,0.056,5.4,5.24
-1.7995e+00,0.06,0.062,5.32,5.48
-1.7988e+00,0.058,0.056,5.32,5.24
-1.7980e+00,0.058,0.064,5.32,5.48
-1.7972e+00,0.06,0.058,5.32,5.24
-1.7965e+00,0.062,0.064,5.24,5.4
-1.7957e+00,0.062,0.058,5.32,5.16
-1.7949e+00,0.06,0.066,5.24,5.4
-1.7942e+00,0.062,0.058,5.24,5.16
-1.7934e+00,0.062,0.066,5.24,5.32
-1.7926e+00,0.064,0.06,5.24,5.08
-1.7919e+00,0.062,0.066,5.16,5.32
-1.7911e+00,0.062,0.06,5.16,5.08
-1.7903e+00,0.064,0.066,5.16,5.24
-1.7896e+00,0.064,0.06,5.16,5
-1.7888e+00,0.066,0.068,5.08,5.24
-1.7880e+00,0.066,0.06,5.08,5
-1.7873e+00,0.064,0.068,5.08,5.16
-1.7865e+00,0.064,0.06,5.08,4.92
-1.7857e+00,0.064,0.068,5,5.16
-1.7849e+00,0.064,0.062,5,4.92
-1.7842e+00,0.066,0.068,5,5.08
-1.7834e+00,0.066,0.062,5,4.84
-1.7826e+00,0.064,0.07,5,5.08
-1.7819e+00,0.066,0.062,5,4.84
-1.7811e+00,0.066,0.07,4.92,5.08
-1.7803e+00,0.066,0.062,4.92,4.76
-1.7796e+00,0.066,0.07,4.92,5
-1.7788e+00,0.066,0.064,4.84,4.76
-1.7780e+00,0.068,0.07,4.84,4.92
-1.7773e+00,0.068,0.064,4.76,4.68
-1.7765e+00,0.07,0.072,4.84,4.92
-1.7757e+00,0.07,0.066,4.84,4.68
-1.7750e+00,0.068,0.072,4.76,4.92
-1.7742e+00,0.07,0.066,4.76,4.6
-1.7734e+00,0.07,0.072,4.68,4.84
-1.7727e+00,0.07,0.066,4.68,4.6
-1.7719e+00,0.07,0.074,4.68,4.84
-1.7711e+00,0.07,0.066,4.68,4.52
-1.7704e+00,0.07,0.074,4.68,4.76
-1.7696e+00,0.072,0.068,4.6,4.52
-1.7688e+00,0.072,0.074,4.6,4.68
-1.7680e+00,0.072,0.068,4.6,4.44
-1.7673e+00,0.072,0.074,4.6,4.68
-1.7665e+00,0.07,0.068,4.6,4.44
-1.7657e+00,0.072,0.076,4.52,4.6
-1.7650e+00,0.072,0.068,4.52,4.36
-1.7642e+00,0.072,0.076,4.44,4.6
-1.7634e+00,0.074,0.07,4.44,4.36
-1.7627e+00,0.072,0.076,4.44,4.52
-1.7619e+00,0.072,0.07,4.44,4.28
-1.7611e+00,0.072,0.076,4.36,4.52
-1.7604e+00,0.074,0.07,4.44,4.28
-1.7596e+00,0.074,0.076,4.36,4.44
-1.7588e+00,0.074,0.07,4.36,4.2
-1.7581e+00,0.074,0.078,4.36,4.44
-1.7573e+00,0.076,0.072,4.28,4.2
-1.7565e+00,0.076,0.08,4.28,4.36
-1.7558e+00,0.076,0.072,4.2,4.12
-1.7550e+00,0.076,0.08,4.2,4.36
-1.7542e+00,0.076,0.072,4.2,4.12
-1.7535e+00,0.076,0.08,4.2,4.28
-1.7527e+00,0.076,0.072,4.2,4.04
-1.7519e+00,0.076,0.08,4.12,4.28
-1.7512e+00,0.078,0.074,4.12,4.04
-1.7504e+00,0.076,0.082,4.12,4.2
-1.7496e+00,0.078,0.074,4.04,3.96
-1.7488e+00,0.078,0.082,4.04,4.12
-1.7481e+00,0.078,0.074,4.04,3.88
-1.7473e+00,0.078,0.082,4.04,4.12
-1.7465e+00,0.078,0.074,3.96,3.88
-1.7458e+00,0.078,0.082,3.96,4.12
-1.7450e+00,0.078,0.074,3.96,3.8
-1.7442e+00,0.078,0.082,3.88,4.04
-1.7435e+00,0.078,0.076,3.88,3.8
-1.7427e+00,0.08,0.082,3.88,3.96
-1.7419e+00,0.08,0.076,3.8,3.72
-1.7412e+00,0.078,0.084,3.8,3.96
-1.7404e+00,0.08,0.076,3.8,3.64
-1.7396e+00,0.08,0.084,3.72,3.88
-1.7389e+00,0.08,0.076,3.72,3.64
-1.7381e+00,0.08,0.084,3.72,3.88
-1.7373e+00,0.08,0.078,3.72,3.56
-1.7366e+00,0.082,0.084,3.72,3.8
-1.7358e+00,0.084,0.078,3.64,3.56
-1.7350e+00,0.082,0.086,3.64,3.8
-1.7343e+00,0.082,0.078,3.64,3.48
-1.7335e+00,0.082,0.086,3.56,3.72
-1.7327e+00,0.082,0.078,3.56,3.48
-1.7320e+00,0.082,0.086,3.48,3.64
-1.7312e+00,0.084,0.08,3.48,3.4
-1.7304e+00,0.084,0.086,3.56,3.64
-1.7296e+00,0.084,0.08,3.48,3.32
-1.7289e+00,0.084,0.088,3.48,3.56
-1.7281e+00,0.086,0.08,3.4,3.32
-1.7273e+00,0.084,0.086,3.4,3.56
-1.7266e+00,0.084,0.08,3.4,3.24
-1.7258e+00,0.084,0.088,3.32,3.48
-1.7250e+00,0.084,0.08,3.24,3.24
-1.7243e+00,0.086,0.088,3.32,3.4
-1.7235e+00,0.084,0.082,3.24,3.16
-1.7227e+00,0.084,0.088,3.24,3.4
-1.7220e+00,0.086,0.082,3.24,3.08
-1.7212e+00,0.084,0.088,3.24,3.32
-1.7204e+00,0.084,0.082,3.16,3.08
-1.7197e+00,0.086,0.088,3.16,3.32
-1.7189e+00,0.086,0.082,3.16,3
-1.7181e+00,0.086,0.09,3.08,3.24
-1.7174e+00,0.086,0.082,3.08,3
-1.7166e+00,0.086,0.09,3.08,3.16
-1.7158e+00,0.088,0.082,3.08,2.92
-1.7151e+00,0.088,0.09,3,3.16
-1.7143e+00,0.088,0.084,3,2.84
-1.7135e+00,0.088,0.09,3,3.08
-1.7127e+00,0.088,0.084,2.92,2.84
-1.7120e+00,0.088,0.09,2.92,3
-1.7112e+00,0.086,0.084,2.92,2.76
-1.7104e+00,0.086,0.092,2.84,3
-1.7097e+00,0.09,0.084,2.84,2.68
-1.7089e+00,0.09,0.092,2.76,2.92
-1.7081e+00,0.088,0.084,2.84,2.68
-1.7074e+00,0.088,0.092,2.76,2.84
-1.7066e+00,0.088,0.084,2.76,2.6
-1.7058e+00,0.088,0.092,2.68,2.84
-1.7051e+00,0.09,0.086,2.68,2.52
-1.7043e+00,0.088,0.092,2.68,2.76
-1.7035e+00,0.088,0.086,2.6,2.52
-1.7028e+00,0.088,0.092,2.6,2.76
-1.7020e+00,0.088,0.086,2.52,2.44
-1.7012e+00,0.088,0.092,2.52,2.68
-1.7005e+00,0.09,0.086,2.52,2.44
-1.6997e+00,0.09,0.092,2.44,2.68
-1.6989e+00,0.09,0.086,2.44,2.36
-1.6982e+00,0.09,0.094,2.44,2.6
-1.6974e+00,0.09,0.088,2.44,2.28
-1.6966e+00,0.092,0.094,2.36,2.52
-1.6959e+00,0.09,0.088,2.36,2.28
-1.6951e+00,0.092,0.094,2.36,2.44
-1.6943e+00,0.092,0.088,2.28,2.2
-1.6935e+00,0.092,0.094,2.28,2.44
-1.6928e+00,0.092,0.088,2.28,2.12
-1.6920e+00,0.094,0.094,2.2,2.36
-1.6912e+00,0.092,0.088,2.2,2.12
-1.6905e+00,0.094,0.096,2.2,2.28
-1.6897e+00,0.092,0.088,2.12,2.04
-1.6889e+00,0.092,0.096,2.12,2.28
-1.6882e+00,0.092,0.088,2.12,1.96
-1.6874e+00,0.092,0.096,2.12,2.2
-1.6866e+00,0.092,0.088,2.04,1.96
-1.6859e+00,0.092,0.096,2.04,2.12
-1.6851e+00,0.092,0.088,2.04,1.88
-1.6843e+00,0.092,0.096,1.96,2.12
-1.6836e+00,0.092,0.088,1.96,1.8
-1.6828e+00,0.094,0.096,1.88,2.04
-1.6820e+00,0.092,0.09,1.88,1.72
-1.6813e+00,0.092,0.096,1.88,1.96
-1.6805e+00,0.094,0.09,1.8,1.72
-1.6797e+00,0.094,0.096,1.8,1.88
-1.6790e+00,0.092,0.09,1.8,1.64
-1.6782e+00,0.094,0.096,1.72,1.88
-1.6774e+00,0.094,0.09,1.72,1.56
-1.6767e+00,0.094,0.098,1.64,1.8
-1.6759e+00,0.094,0.09,1.64,1.56
-1.6751e+00,0.094,0.098,1.64,1.72
-1.6743e+00,0.094,0.09,1.56,1.48
-1.6736e+00,0.094,0.098,1.56,1.72
-1.6728e+00,0.094,0.09,1.56,1.4
-1.6720e+00,0.094,0.098,1.48,1.64
-1.6713e+00,0.094,0.09,1.48,1.4
-1.6705e+00,0.094,0.098,1.48,1.56
-1.6697e+00,0.094,0.092,1.4,1.32
-1.6690e+00,0.094,0.098,1.4,1.56
-1.6682e+00,0.096,0.092,1.4,1.24
-1.6674e+00,0.094,0.098,1.32,1.48
-1.6667e+00,0.094,0.092,1.32,1.24
-1.6659e+00,0.096,0.098,1.32,1.4
-1.6651e+00,0.094,0.092,1.24,1.16
-1.6644e+00,0.094,0.098,1.24,1.4
-1.6636e+00,0.096,0.092,1.24,1.08
-1.6628e+00,0.096,0.098,1.16,1.32
-1.6621e+00,0.094,0.092,1.16,1
-1.6613e+00,0.092,0.098,1.16,1.24
-1.6605e+00,0.094,0.092,1.08,1
-1.6598e+00,0.094,0.098,1.08,1.24
-1.6590e+00,0.094,0.092,1,0.92
-1.6582e+00,0.094,0.098,1,1.16
-1.6575e+00,0.094,0.092,1,0.84
-1.6567e+00,0.094,0.098,1,1.08
-1.6559e+00,0.098,0.092,0.92,0.84
-1.6551e+00,0.096,0.098,0.84,1
-1.6544e+00,0.096,0.092,0.92,0.76
-1.6536e+00,0.096,0.098,0.84,1
-1.6528e+00,0.094,0.092,0.84,0.68
-1.6521e+00,0.096,0.1,0.76,0.92
-1.6513e+00,0.094,0.092,0.76,0.68
-1.6505e+00,0.096,0.098,0.76,0.84
-1.6498e+00,0.096,0.092,0.68,0.6
-1.6490e+00,0.096,0.1,0.68,0.84
-1.6482e+00,0.096,0.092,0.68,0.52
-1.6475e+00,0.096,0.1,0.68,0.76
-1.6467e+00,0.096,0.092,0.6,0.44
-1.6459e+00,0.096,0.098,0.52,0.68
-1.6452e+00,0.096,0.092,0.52,0.44
-1.6444e+00,0.096,0.098,0.52,0.6
-1.6436e+00,0.096,0.092,0.52,0.36
-1.6429e+00,0.096,0.1,0.44,0.6
-1.6421e+00,0.096,0.092,0.44,0.28
-1.6413e+00,0.096,0.1,0.44,0.52
-1.6406e+00,0.096,0.092,0.36,0.2
-1.6398e+00,0.094,0.098,0.36,0.52
-1.6390e+00,0.094,0.092,0.28,0.2
-1.6382e+00,0.096,0.1,0.28,0.44
-1.6375e+00,0.096,0.092,0.28,0.12
-1.6367e+00,0.096,0.1,0.2,0.36
-1.6359e+00,0.096,0.092,0.2,0.04
-1.6352e+00,0.096,0.1,0.12,0.28
-1.6344e+00,0.096,0.092,0.12,-0.04
-1.6336e+00,0.096,0.1,0.12,0.28
-1.6329e+00,0.096,0.092,0.04,-0.04
-1.6321e+00,0.096,0.098,0.04,0.2
-1.6313e+00,0.096,0.092,0.04,-0.12
-1.6306e+00,0.096,0.098,-0.04,0.12
-1.6298e+00,0.096,0.092,-0.04,-0.2
-1.6290e+00,0.096,0.1,-0.04,0.12
-1.6283e+00,0.096,0.092,-0.12,-0.2
-1.6275e+00,0.094,0.098,-0.12,0.04
-1.6267e+00,0.096,0.092,-0.12,-0.28
-1.6260e+00,0.096,0.098,-0.2,-0.04
-1.6252e+00,0.094,0.092,-0.2,-0.36
-1.6244e+00,0.096,0.098,-0.28,-0.04
-1.6237e+00,0.094,0.092,-0.28,-0.36
-1.6229e+00,0.096,0.098,-0.28,-0.12
-1.6221e+00,0.094,0.092,-0.28,-0.44
-1.6214e+00,0.094,0.098,-0.36,-0.2
-1.6206e+00,0.094,0.09,-0.36,-0.52
-1.6198e+00,0.094,0.098,-0.36,-0.28
-1.6190e+00,0.094,0.092,-0.44,-0.52
-1.6183e+00,0.096,0.098,-0.52,-0.28
-1.6175e+00,0.096,0.092,-0.52,-0.6
-1.6167e+00,0.096,0.098,-0.52,-0.36
-1.6160e+00,0.096,0.092,-0.52,-0.68
-1.6152e+00,0.096,0.098,-0.6,-0.44
-1.6144e+00,0.094,0.092,-0.6,-0.76
-1.6137e+00,0.096,0.098,-0.6,-0.44
-1.6129e+00,0.094,0.09,-0.68,-0.76
-1.6121e+00,0.094,0.098,-0.68,-0.52
-1.6114e+00,0.096,0.092,-0.68,-0.84
-1.6106e+00,0.094,0.098,-0.76,-0.6
-1.6098e+00,0.096,0.092,-0.76,-0.92
-1.6091e+00,0.094,0.098,-0.84,-0.6
-1.6083e+00,0.094,0.09,-0.84,-0.92
-1.6075e+00,0.094,0.098,-0.84,-0.68
-1.6068e+00,0.094,0.09,-0.84,-1
-1.6060e+00,0.094,0.096,-0.92,-0.76
-1.6052e+00,0.094,0.09,-0.92,-1.08
-1.6045e+00,0.092,0.096,-1,-0.76
-1.6037e+00,0.092,0.09,-1,-1.08
-1.6029e+00,0.094,0.096,-1,-0.84
-1.6022e+00,0.092,0.09,-1,-1.16
-1.6014e+00,0.094,0.096,-1.08,-0.92
-1.6006e+00,0.092,0.09,-1.08,-1.24
-1.5998e+00,0.092,0.096,-1.08,-1
-1.5991e+00,0.092,0.088,-1.16,-1.24
-1.5983e+00,0.092,0.096,-1.16,-1
-1.5975e+00,0.092,0.09,-1.16,-1.32
-1.5968e+00,0.092,0.096,-1.24,-1.08
-1.5960e+00,0.092,0.09,-1.24,-1.4
-1.5952e+00,0.092,0.096,-1.24,-1.16
-1.5945e+00,0.092,0.088,-1.32,-1.4
-1.5937e+00,0.092,0.096,-1.32,-1.16
-1.5929e+00,0.092,0.088,-1.4,-1.48
-1.5922e+00,0.092,0.096,-1.4,-1.24
-1.5914e+00,0.092,0.088,-1.4,-1.56
-1.5906e+00,0.092,0.096,-1.48,-1.32
-1.5899e+00,0.092,0.088,-1.48,-1.64
-1.5891e+00,0.092,0.094,-1.48,-1.32
-1.5883e+00,0.092,0.088,-1.56,-1.64
-1.5876e+00,0.092,0.094,-1.56,-1.4
-1.5868e+00,0.09,0.086,-1.56,-1.72
-1.5860e+00,0.09,0.094,-1.64,-1.48
-1.5853e+00,0.09,0.086,-1.64,-1.8
-1.5845e+00,0.09,0.094,-1.72,-1.48
-1.5837e+00,0.09,0.086,-1.72,-1.8
-1.5829e+00,0.09,0.094,-1.72,-1.56
-1.5822e+00,0.09,0.086,-1.8,-1.88
-1.5814e+00,0.09,0.094,-1.8,-1.64
-1.5806e+00,0.09,0.086,-1.8,-1.96
-1.5799e+00,0.09,0.092,-1.8,-1.72
-1.5791e+00,0.088,0.086,-1.88,-2.04
-1.5783e+00,0.088,0.092,-1.88,-1.72
-1.5776e+00,0.088,0.086,-1.96,-2.04
-1.5768e+00,0.088,0.092,-1.96,-1.8
-1.5760e+00,0.09,0.086,-2.04,-2.12
-1.5753e+00,0.09,0.092,-2.04,-1.88
-1.5745e+00,0.088,0.084,-2.04,-2.2
-1.5737e+00,0.088,0.092,-2.04,-1.88
-1.5730e+00,0.088,0.084,-2.12,-2.2
-1.5722e+00,0.088,0.092,-2.2,-1.96
-1.5714e+00,0.088,0.084,-2.12,-2.28
-1.5707e+00,0.088,0.092,-2.2,-1.96
-1.5699e+00,0.088,0.084,-2.2,-2.36
-1.5691e+00,0.088,0.092,-2.2,-2.04
-1.5684e+00,0.088,0.084,-2.28,-2.36
-1.5676e+00,0.088,0.09,-2.28,-2.12
-1.5668e+00,0.086,0.082,-2.28,-2.44
-1.5661e+00,0.086,0.09,-2.36,-2.2
-1.5653e+00,0.086,0.082,-2.36,-2.52
-1.5645e+00,0.086,0.09,-2.36,-2.2
-1.5637e+00,0.086,0.082,-2.44,-2.52
-1.5630e+00,0.086,0.09,-2.44,-2.28
-1.5622e+00,0.086,0.082,-2.44,-2.6
-1.5614e+00,0.086,0.088,-2.52,-2.36
-1.5607e+00,0.086,0.08,-2.52,-2.68
-1.5599e+00,0.086,0.088,-2.52,-2.36
-1.5591e+00,0.084,0.08,-2.6,-2.76
-1.5584e+00,0.086,0.088,-2.6,-2.44
-1.5576e+00,0.086,0.08,-2.6,-2.76
-1.5568e+00,0.084,0.088,-2.68,-2.52
