Versuch2/datasets/damp2/T0020.CSV

Model,DPO2002B
Firmware Version,1.52

Point Format,Y,,,
Horizontal Units,S,,,
Horizontal Scale,1,,,
Sample Interval,0.00192012,,,
Filter Frequency,7e+07,,,
Record Length,5200,,,
Gating,0.0% to 100.0%,,0.0% to 100.0%,
Probe Attenuation,1,,10,
Vertical Units,V,,V,
Vertical Offset,0,,0,
Vertical Scale,0.2,,0.1,
Label,,,,
TIME,CH1,CH1 Peak Detect,CH2,CH2 Peak Detect
-5.000e+00,0.6,0.592,0.198,0.182
-4.998e+00,0.6,0.616,0.206,0.226
-4.996e+00,0.6,0.6,0.214,0.186
-4.994e+00,0.608,0.616,0.21,0.234
-4.992e+00,0.608,0.6,0.218,0.19
-4.990e+00,0.608,0.624,0.214,0.234
-4.988e+00,0.616,0.608,0.214,0.198
-4.987e+00,0.616,0.632,0.214,0.242
-4.985e+00,0.616,0.616,0.226,0.202
-4.983e+00,0.624,0.632,0.214,0.246
-4.981e+00,0.624,0.616,0.218,0.206
-4.979e+00,0.632,0.64,0.23,0.25
-4.977e+00,0.632,0.624,0.23,0.21
-4.975e+00,0.632,0.648,0.226,0.25
-4.973e+00,0.64,0.632,0.23,0.214
-4.971e+00,0.64,0.656,0.242,0.258
-4.969e+00,0.64,0.632,0.23,0.218
-4.967e+00,0.648,0.656,0.238,0.262
-4.965e+00,0.648,0.64,0.238,0.218
-4.964e+00,0.648,0.664,0.238,0.262
-4.962e+00,0.656,0.648,0.242,0.226
-4.960e+00,0.656,0.664,0.254,0.27
-4.958e+00,0.656,0.648,0.246,0.226
-4.956e+00,0.664,0.672,0.25,0.274
-4.954e+00,0.664,0.656,0.254,0.23
-4.952e+00,0.664,0.68,0.254,0.274
-4.950e+00,0.672,0.664,0.258,0.234
-4.948e+00,0.672,0.68,0.254,0.282
-4.946e+00,0.672,0.664,0.266,0.238
-4.944e+00,0.68,0.688,0.258,0.282
-4.942e+00,0.672,0.672,0.266,0.242
-4.940e+00,0.68,0.696,0.266,0.286
-4.939e+00,0.68,0.672,0.266,0.246
-4.937e+00,0.688,0.696,0.262,0.29
-4.935e+00,0.688,0.672,0.27,0.25
-4.933e+00,0.688,0.704,0.274,0.294
-4.931e+00,0.688,0.68,0.27,0.254
-4.929e+00,0.696,0.704,0.27,0.298
-4.927e+00,0.696,0.688,0.278,0.254
-4.925e+00,0.696,0.704,0.278,0.298
-4.923e+00,0.704,0.688,0.278,0.258
-4.921e+00,0.704,0.712,0.282,0.302
-4.919e+00,0.704,0.696,0.286,0.262
-4.917e+00,0.704,0.712,0.282,0.306
-4.916e+00,0.704,0.696,0.286,0.266
-4.914e+00,0.712,0.72,0.29,0.31
-4.912e+00,0.712,0.696,0.29,0.27
-4.910e+00,0.712,0.72,0.286,0.314
-4.908e+00,0.712,0.704,0.294,0.27
-4.906e+00,0.712,0.72,0.294,0.314
-4.904e+00,0.712,0.704,0.298,0.274
-4.902e+00,0.72,0.728,0.298,0.318
-4.900e+00,0.712,0.712,0.298,0.278
-4.898e+00,0.72,0.728,0.294,0.322
-4.896e+00,0.72,0.712,0.302,0.282
-4.894e+00,0.72,0.728,0.302,0.326
-4.892e+00,0.72,0.712,0.31,0.282
-4.891e+00,0.728,0.736,0.306,0.33
-4.889e+00,0.728,0.72,0.314,0.286
-4.887e+00,0.728,0.736,0.314,0.33
-4.885e+00,0.728,0.72,0.306,0.29
-4.883e+00,0.728,0.736,0.314,0.33
-4.881e+00,0.728,0.72,0.314,0.286
-4.879e+00,0.728,0.736,0.314,0.334
-4.877e+00,0.728,0.72,0.314,0.294
-4.875e+00,0.728,0.744,0.322,0.338
-4.873e+00,0.728,0.72,0.314,0.294
-4.871e+00,0.736,0.744,0.318,0.338
-4.869e+00,0.728,0.728,0.318,0.298
-4.868e+00,0.736,0.744,0.322,0.342
-4.866e+00,0.736,0.728,0.326,0.302
-4.864e+00,0.736,0.744,0.318,0.342
-4.862e+00,0.736,0.728,0.33,0.302
-4.860e+00,0.736,0.744,0.326,0.346
-4.858e+00,0.736,0.728,0.326,0.306
-4.856e+00,0.736,0.752,0.326,0.346
-4.854e+00,0.736,0.728,0.326,0.306
-4.852e+00,0.736,0.752,0.318,0.354
-4.850e+00,0.736,0.728,0.326,0.31
-4.848e+00,0.736,0.752,0.33,0.354
-4.846e+00,0.736,0.728,0.334,0.31
-4.844e+00,0.736,0.752,0.334,0.354
-4.843e+00,0.736,0.728,0.342,0.314
-4.841e+00,0.744,0.752,0.334,0.354
-4.839e+00,0.744,0.728,0.33,0.314
-4.837e+00,0.744,0.752,0.346,0.358
-4.835e+00,0.744,0.728,0.342,0.318
-4.833e+00,0.744,0.752,0.338,0.358
-4.831e+00,0.744,0.728,0.338,0.318
-4.829e+00,0.736,0.752,0.354,0.362
-4.827e+00,0.744,0.728,0.346,0.322
-4.825e+00,0.736,0.752,0.338,0.362
-4.823e+00,0.744,0.728,0.354,0.322
-4.821e+00,0.736,0.752,0.346,0.362
-4.820e+00,0.736,0.728,0.342,0.322
-4.818e+00,0.736,0.752,0.35,0.366
-4.816e+00,0.736,0.728,0.35,0.326
-4.814e+00,0.736,0.752,0.338,0.366
-4.812e+00,0.736,0.728,0.354,0.326
-4.810e+00,0.744,0.752,0.346,0.37
-4.808e+00,0.736,0.728,0.358,0.326
-4.806e+00,0.736,0.744,0.35,0.37
-4.804e+00,0.736,0.728,0.354,0.33
-4.802e+00,0.736,0.744,0.358,0.37
-4.800e+00,0.736,0.728,0.338,0.33
-4.798e+00,0.736,0.744,0.354,0.37
-4.796e+00,0.736,0.728,0.358,0.326
-4.795e+00,0.736,0.744,0.354,0.374
-4.793e+00,0.728,0.72,0.346,0.33
-4.791e+00,0.728,0.744,0.35,0.374
-4.789e+00,0.728,0.72,0.358,0.334
-4.787e+00,0.728,0.744,0.354,0.374
-4.785e+00,0.728,0.72,0.362,0.334
-4.783e+00,0.728,0.736,0.358,0.378
-4.781e+00,0.728,0.72,0.35,0.33
-4.779e+00,0.728,0.736,0.358,0.374
-4.777e+00,0.72,0.712,0.354,0.334
-4.775e+00,0.728,0.736,0.35,0.378
-4.773e+00,0.728,0.712,0.354,0.33
-4.772e+00,0.72,0.728,0.362,0.378
-4.770e+00,0.72,0.712,0.362,0.334
-4.768e+00,0.72,0.728,0.354,0.378
-4.766e+00,0.72,0.704,0.35,0.334
-4.764e+00,0.712,0.728,0.358,0.378
-4.762e+00,0.712,0.704,0.346,0.334
-4.760e+00,0.712,0.728,0.358,0.378
-4.758e+00,0.712,0.704,0.37,0.334
-4.756e+00,0.712,0.72,0.358,0.382
-4.754e+00,0.712,0.696,0.35,0.334
-4.752e+00,0.712,0.72,0.354,0.378
-4.750e+00,0.704,0.696,0.358,0.334
-4.748e+00,0.704,0.712,0.354,0.378
-4.747e+00,0.704,0.688,0.362,0.338
-4.745e+00,0.704,0.712,0.362,0.382
-4.743e+00,0.696,0.688,0.35,0.334
-4.741e+00,0.696,0.712,0.354,0.378
-4.739e+00,0.696,0.688,0.37,0.334
-4.737e+00,0.696,0.704,0.354,0.378
-4.735e+00,0.696,0.68,0.358,0.334
-4.733e+00,0.688,0.704,0.354,0.382
-4.731e+00,0.688,0.68,0.354,0.334
-4.729e+00,0.688,0.696,0.362,0.378
-4.727e+00,0.688,0.672,0.362,0.334
-4.725e+00,0.68,0.696,0.354,0.378
-4.724e+00,0.688,0.664,0.358,0.334
-4.722e+00,0.68,0.688,0.354,0.378
-4.720e+00,0.672,0.664,0.37,0.33
-4.718e+00,0.672,0.688,0.354,0.378
-4.716e+00,0.672,0.656,0.358,0.334
-4.714e+00,0.672,0.68,0.354,0.378
-4.712e+00,0.664,0.656,0.358,0.33
-4.710e+00,0.664,0.68,0.346,0.374
-4.708e+00,0.664,0.648,0.35,0.33
-4.706e+00,0.656,0.672,0.358,0.374
-4.704e+00,0.656,0.648,0.354,0.33
-4.702e+00,0.656,0.672,0.35,0.374
-4.700e+00,0.648,0.64,0.354,0.33
-4.699e+00,0.648,0.664,0.354,0.37
-4.697e+00,0.648,0.632,0.35,0.33
-4.695e+00,0.64,0.656,0.35,0.37
-4.693e+00,0.648,0.624,0.358,0.326
-4.691e+00,0.64,0.648,0.342,0.37
-4.689e+00,0.632,0.624,0.338,0.326
-4.687e+00,0.632,0.648,0.35,0.37
-4.685e+00,0.632,0.616,0.338,0.326
-4.683e+00,0.624,0.64,0.342,0.366
-4.681e+00,0.624,0.608,0.342,0.322
-4.679e+00,0.624,0.632,0.354,0.366
-4.677e+00,0.616,0.608,0.35,0.322
-4.675e+00,0.616,0.624,0.35,0.366
-4.674e+00,0.616,0.6,0.346,0.322
-4.672e+00,0.608,0.624,0.342,0.366
-4.670e+00,0.608,0.592,0.334,0.318
-4.668e+00,0.6,0.616,0.35,0.362
-4.666e+00,0.6,0.584,0.342,0.318
-4.664e+00,0.6,0.608,0.342,0.362
-4.662e+00,0.6,0.584,0.342,0.318
-4.660e+00,0.592,0.608,0.338,0.358
-4.658e+00,0.584,0.576,0.334,0.314
-4.656e+00,0.584,0.6,0.334,0.358
-4.654e+00,0.584,0.568,0.338,0.314
-4.652e+00,0.584,0.592,0.338,0.354
-4.651e+00,0.576,0.56,0.33,0.31
-4.649e+00,0.576,0.584,0.334,0.354
-4.647e+00,0.568,0.552,0.338,0.31
-4.645e+00,0.568,0.576,0.326,0.354
-4.643e+00,0.56,0.544,0.326,0.306
-4.641e+00,0.56,0.568,0.33,0.35
-4.639e+00,0.552,0.536,0.326,0.302
-4.637e+00,0.552,0.56,0.318,0.35
-4.635e+00,0.544,0.528,0.33,0.302
-4.633e+00,0.544,0.552,0.326,0.346
-4.631e+00,0.544,0.528,0.314,0.298
-4.629e+00,0.536,0.552,0.322,0.346
-4.627e+00,0.536,0.512,0.322,0.298
-4.626e+00,0.528,0.544,0.31,0.342
-4.624e+00,0.528,0.504,0.322,0.294
-4.622e+00,0.52,0.536,0.314,0.338
-4.620e+00,0.52,0.504,0.31,0.29
-4.618e+00,0.52,0.528,0.31,0.338
-4.616e+00,0.512,0.496,0.318,0.29
-4.614e+00,0.504,0.52,0.314,0.334
-4.612e+00,0.504,0.488,0.302,0.29
-4.610e+00,0.504,0.512,0.302,0.33
-4.608e+00,0.496,0.48,0.314,0.286
-4.606e+00,0.496,0.504,0.302,0.33
-4.604e+00,0.48,0.472,0.31,0.282
-4.603e+00,0.48,0.496,0.31,0.326
-4.601e+00,0.48,0.464,0.302,0.278
-4.599e+00,0.472,0.488,0.298,0.326
-4.597e+00,0.472,0.456,0.298,0.274
-4.595e+00,0.464,0.48,0.302,0.322
-4.593e+00,0.456,0.44,0.294,0.274
-4.591e+00,0.456,0.472,0.298,0.318
-4.589e+00,0.448,0.44,0.29,0.27
-4.587e+00,0.448,0.464,0.298,0.314
-4.585e+00,0.448,0.424,0.294,0.266
-4.583e+00,0.44,0.456,0.294,0.31
-4.581e+00,0.44,0.416,0.29,0.262
-4.579e+00,0.432,0.448,0.282,0.31
-4.578e+00,0.424,0.408,0.278,0.262
-4.576e+00,0.424,0.44,0.282,0.306
-4.574e+00,0.424,0.4,0.278,0.258
-4.572e+00,0.408,0.432,0.278,0.302
-4.570e+00,0.408,0.392,0.278,0.254
-4.568e+00,0.408,0.416,0.274,0.298
-4.566e+00,0.4,0.384,0.27,0.254
-4.564e+00,0.4,0.408,0.27,0.294
-4.562e+00,0.392,0.376,0.274,0.25
-4.560e+00,0.384,0.4,0.27,0.29
-4.558e+00,0.384,0.368,0.27,0.242
-4.556e+00,0.376,0.392,0.27,0.29
-4.555e+00,0.376,0.352,0.27,0.238
-4.553e+00,0.368,0.384,0.266,0.286
-4.551e+00,0.368,0.344,0.266,0.234
-4.549e+00,0.36,0.376,0.262,0.282
-4.547e+00,0.352,0.336,0.258,0.234
-4.545e+00,0.352,0.36,0.258,0.278
-4.543e+00,0.344,0.32,0.262,0.226
-4.541e+00,0.336,0.352,0.246,0.274
-4.539e+00,0.336,0.312,0.242,0.226
-4.537e+00,0.328,0.344,0.242,0.27
-4.535e+00,0.328,0.304,0.246,0.222
-4.533e+00,0.328,0.336,0.238,0.266
-4.531e+00,0.32,0.296,0.246,0.218
-4.530e+00,0.312,0.328,0.238,0.266
-4.528e+00,0.312,0.288,0.238,0.214
-4.526e+00,0.304,0.312,0.234,0.258
-4.524e+00,0.296,0.28,0.238,0.21
-4.522e+00,0.288,0.304,0.23,0.254
-4.520e+00,0.288,0.264,0.23,0.206
-4.518e+00,0.28,0.296,0.226,0.254
-4.516e+00,0.28,0.256,0.226,0.202
-4.514e+00,0.272,0.28,0.226,0.25
-4.512e+00,0.264,0.248,0.226,0.198
-4.510e+00,0.264,0.272,0.226,0.246
-4.508e+00,0.256,0.232,0.214,0.194
-4.507e+00,0.248,0.264,0.214,0.238
-4.505e+00,0.24,0.224,0.214,0.19
-4.503e+00,0.24,0.256,0.214,0.234
-4.501e+00,0.232,0.216,0.202,0.186
-4.499e+00,0.232,0.248,0.206,0.23
-4.497e+00,0.216,0.2,0.21,0.182
-4.495e+00,0.216,0.232,0.198,0.226
-4.493e+00,0.216,0.192,0.206,0.178
-4.491e+00,0.208,0.224,0.202,0.222
-4.489e+00,0.208,0.184,0.194,0.17
-4.487e+00,0.2,0.216,0.186,0.218
-4.485e+00,0.192,0.176,0.194,0.166
-4.483e+00,0.184,0.2,0.19,0.218
-4.482e+00,0.184,0.16,0.186,0.162
-4.480e+00,0.176,0.192,0.19,0.21
-4.478e+00,0.176,0.152,0.182,0.158
-4.476e+00,0.16,0.184,0.174,0.202
-4.474e+00,0.16,0.144,0.178,0.154
-4.472e+00,0.152,0.168,0.182,0.202
-4.470e+00,0.152,0.136,0.17,0.15
-4.468e+00,0.144,0.16,0.17,0.198
-4.466e+00,0.136,0.12,0.174,0.142
-4.464e+00,0.136,0.152,0.174,0.19
-4.462e+00,0.128,0.112,0.162,0.142
-4.460e+00,0.128,0.136,0.162,0.186
-4.459e+00,0.12,0.096,0.162,0.138
-4.457e+00,0.12,0.128,0.162,0.182
-4.455e+00,0.104,0.088,0.15,0.13
-4.453e+00,0.104,0.112,0.154,0.178
-4.451e+00,0.096,0.08,0.15,0.126
-4.449e+00,0.096,0.104,0.146,0.174
-4.447e+00,0.088,0.064,0.15,0.122
-4.445e+00,0.088,0.096,0.146,0.166
-4.443e+00,0.072,0.056,0.134,0.118
-4.441e+00,0.072,0.08,0.138,0.162
-4.439e+00,0.064,0.048,0.134,0.114
-4.437e+00,0.064,0.072,0.13,0.158
-4.435e+00,0.064,0.032,0.134,0.106
-4.434e+00,0.048,0.064,0.126,0.154
-4.432e+00,0.048,0.024,0.13,0.102
-4.430e+00,0.04,0.056,0.122,0.15
-4.428e+00,0.032,0.016,0.118,0.098
-4.426e+00,0.032,0.04,0.122,0.142
-4.424e+00,0.024,-1.78814e-10,0.118,0.09
-4.422e+00,0.016,0.032,0.106,0.138
-4.420e+00,0.016,-0.008,0.114,0.086
-4.418e+00,0.008,0.024,0.114,0.134
-4.416e+00,0.008,-0.016,0.098,0.082
-4.414e+00,-1.78814e-10,0.016,0.102,0.126
-4.412e+00,-0.008,-0.024,0.102,0.074
-4.411e+00,-0.016,-1.78814e-10,0.098,0.122
-4.409e+00,-0.016,-0.04,0.098,0.074
-4.407e+00,-0.024,-0.008,0.102,0.118
-4.405e+00,-0.024,-0.048,0.09,0.066
-4.403e+00,-0.032,-0.016,0.098,0.114
-4.401e+00,-0.04,-0.056,0.082,0.062
-4.399e+00,-0.04,-0.032,0.078,0.11
-4.397e+00,-0.048,-0.064,0.082,0.058
-4.395e+00,-0.056,-0.04,0.082,0.102
-4.393e+00,-0.056,-0.08,0.078,0.05
-4.391e+00,-0.064,-0.048,0.07,0.098
-4.389e+00,-0.072,-0.088,0.074,0.046
-4.387e+00,-0.072,-0.064,0.07,0.09
-4.386e+00,-0.08,-0.096,0.066,0.042
-4.384e+00,-0.08,-0.072,0.058,0.086
-4.382e+00,-0.088,-0.112,0.062,0.034
-4.380e+00,-0.096,-0.08,0.054,0.082
-4.378e+00,-0.104,-0.12,0.046,0.03
-4.376e+00,-0.104,-0.096,0.054,0.074
-4.374e+00,-0.112,-0.128,0.05,0.026
-4.372e+00,-0.112,-0.104,0.05,0.07
-4.370e+00,-0.12,-0.144,0.046,0.022
-4.368e+00,-0.128,-0.112,0.046,0.066
-4.366e+00,-0.136,-0.152,0.042,0.014
-4.364e+00,-0.136,-0.12,0.03,0.062
-4.363e+00,-0.136,-0.168,0.034,0.006
-4.361e+00,-0.144,-0.136,0.034,0.054
-4.359e+00,-0.152,-0.176,0.022,0.002
-4.357e+00,-0.16,-0.144,0.018,0.05
-4.355e+00,-0.16,-0.184,0.03,-0.002
-4.353e+00,-0.168,-0.152,0.022,0.046
-4.351e+00,-0.176,-0.192,0.018,-0.01
-4.349e+00,-0.176,-0.16,0.018,0.042
-4.347e+00,-0.184,-0.208,0.01,-0.014
-4.345e+00,-0.192,-0.176,0.01,0.034
-4.343e+00,-0.192,-0.216,0.01,-0.018
-4.341e+00,-0.2,-0.184,0.006,0.03
-4.339e+00,-0.2,-0.224,-0.002,-0.026
-4.338e+00,-0.216,-0.192,-0.002,0.026
-4.336e+00,-0.216,-0.232,0.01,-0.03
-4.334e+00,-0.216,-0.208,-0.01,0.018
-4.332e+00,-0.224,-0.248,-0.014,-0.034
-4.330e+00,-0.232,-0.216,-0.006,0.014
-4.328e+00,-0.232,-0.256,-0.01,-0.038
-4.326e+00,-0.24,-0.224,-0.026,0.01
-4.324e+00,-0.248,-0.264,-0.022,-0.046
-4.322e+00,-0.248,-0.24,-0.018,0.002
-4.320e+00,-0.256,-0.272,-0.014,-0.05
-4.318e+00,-0.256,-0.248,-0.03,-0.002
-4.316e+00,-0.272,-0.288,-0.026,-0.054
-4.315e+00,-0.272,-0.256,-0.026,-0.006
-4.313e+00,-0.272,-0.296,-0.034,-0.058
-4.311e+00,-0.28,-0.264,-0.038,-0.014
-4.309e+00,-0.28,-0.312,-0.034,-0.066
-4.307e+00,-0.288,-0.272,-0.05,-0.014
-4.305e+00,-0.296,-0.32,-0.046,-0.07
-4.303e+00,-0.304,-0.288,-0.042,-0.022
-4.301e+00,-0.312,-0.328,-0.05,-0.074
-4.299e+00,-0.312,-0.296,-0.062,-0.026
-4.297e+00,-0.312,-0.336,-0.058,-0.082
-4.295e+00,-0.32,-0.304,-0.066,-0.034
-4.293e+00,-0.328,-0.344,-0.062,-0.086
-4.291e+00,-0.328,-0.32,-0.062,-0.038
-4.290e+00,-0.336,-0.352,-0.058,-0.09
-4.288e+00,-0.336,-0.328,-0.066,-0.042
-4.286e+00,-0.344,-0.368,-0.074,-0.098
-4.284e+00,-0.352,-0.336,-0.074,-0.046
-4.282e+00,-0.352,-0.376,-0.078,-0.102
-4.280e+00,-0.36,-0.344,-0.086,-0.05
-4.278e+00,-0.36,-0.384,-0.078,-0.106
-4.276e+00,-0.368,-0.352,-0.074,-0.058
-4.274e+00,-0.376,-0.392,-0.09,-0.114
-4.272e+00,-0.376,-0.36,-0.086,-0.066
-4.270e+00,-0.384,-0.4,-0.086,-0.118
-4.268e+00,-0.384,-0.376,-0.094,-0.066
-4.267e+00,-0.392,-0.408,-0.102,-0.122
-4.265e+00,-0.392,-0.384,-0.098,-0.074
-4.263e+00,-0.408,-0.416,-0.11,-0.126
-4.261e+00,-0.4,-0.392,-0.106,-0.078
-4.259e+00,-0.408,-0.424,-0.11,-0.13
-4.257e+00,-0.416,-0.4,-0.11,-0.082
-4.255e+00,-0.416,-0.432,-0.118,-0.138
-4.253e+00,-0.424,-0.408,-0.126,-0.09
-4.251e+00,-0.424,-0.44,-0.122,-0.146
-4.249e+00,-0.44,-0.416,-0.126,-0.094
-4.247e+00,-0.44,-0.448,-0.13,-0.146
-4.245e+00,-0.44,-0.424,-0.126,-0.098
-4.243e+00,-0.448,-0.464,-0.122,-0.154
-4.242e+00,-0.448,-0.432,-0.13,-0.106
-4.240e+00,-0.456,-0.472,-0.142,-0.158
-4.238e+00,-0.456,-0.44,-0.134,-0.11
-4.236e+00,-0.456,-0.48,-0.138,-0.166
-4.234e+00,-0.464,-0.448,-0.15,-0.114
-4.232e+00,-0.464,-0.488,-0.142,-0.166
-4.230e+00,-0.48,-0.456,-0.146,-0.118
-4.228e+00,-0.472,-0.496,-0.154,-0.174
-4.226e+00,-0.48,-0.472,-0.158,-0.126
-4.224e+00,-0.488,-0.504,-0.146,-0.178
-4.222e+00,-0.488,-0.472,-0.162,-0.13
-4.220e+00,-0.496,-0.512,-0.158,-0.182
-4.219e+00,-0.496,-0.488,-0.158,-0.134
-4.217e+00,-0.504,-0.52,-0.162,-0.186
-4.215e+00,-0.504,-0.496,-0.158,-0.138
-4.213e+00,-0.504,-0.528,-0.17,-0.19
-4.211e+00,-0.512,-0.496,-0.17,-0.146
-4.209e+00,-0.52,-0.528,-0.17,-0.198
-4.207e+00,-0.52,-0.512,-0.174,-0.15
-4.205e+00,-0.52,-0.536,-0.178,-0.202
-4.203e+00,-0.528,-0.512,-0.182,-0.154
-4.201e+00,-0.528,-0.544,-0.182,-0.206
-4.199e+00,-0.528,-0.52,-0.178,-0.158
-4.197e+00,-0.536,-0.552,-0.19,-0.21
-4.195e+00,-0.544,-0.528,-0.19,-0.166
-4.194e+00,-0.544,-0.56,-0.182,-0.214
-4.192e+00,-0.552,-0.536,-0.198,-0.166
-4.190e+00,-0.552,-0.568,-0.202,-0.222
-4.188e+00,-0.56,-0.544,-0.198,-0.17
-4.186e+00,-0.56,-0.576,-0.19,-0.222
-4.184e+00,-0.568,-0.552,-0.198,-0.174
-4.182e+00,-0.568,-0.584,-0.21,-0.23
-4.180e+00,-0.568,-0.56,-0.21,-0.182
-4.178e+00,-0.576,-0.592,-0.21,-0.234
-4.176e+00,-0.576,-0.56,-0.218,-0.186
-4.174e+00,-0.576,-0.592,-0.218,-0.238
-4.172e+00,-0.584,-0.568,-0.214,-0.19
-4.171e+00,-0.584,-0.6,-0.23,-0.242
-4.169e+00,-0.592,-0.576,-0.222,-0.194
-4.167e+00,-0.592,-0.608,-0.214,-0.246
-4.165e+00,-0.592,-0.584,-0.218,-0.194
-4.163e+00,-0.6,-0.616,-0.226,-0.25
-4.161e+00,-0.6,-0.592,-0.23,-0.202
-4.159e+00,-0.6,-0.624,-0.222,-0.254
-4.157e+00,-0.608,-0.592,-0.238,-0.206
-4.155e+00,-0.608,-0.632,-0.226,-0.262
-4.153e+00,-0.616,-0.6,-0.226,-0.21
-4.151e+00,-0.616,-0.632,-0.242,-0.262
-4.149e+00,-0.624,-0.608,-0.254,-0.218
-4.147e+00,-0.624,-0.64,-0.234,-0.266
-4.146e+00,-0.624,-0.616,-0.242,-0.218
-4.144e+00,-0.632,-0.648,-0.254,-0.27
-4.142e+00,-0.632,-0.616,-0.25,-0.226
-4.140e+00,-0.632,-0.648,-0.246,-0.274
-4.138e+00,-0.64,-0.624,-0.258,-0.226
-4.136e+00,-0.64,-0.656,-0.258,-0.278
-4.134e+00,-0.648,-0.632,-0.262,-0.23
-4.132e+00,-0.648,-0.656,-0.254,-0.282
-4.130e+00,-0.648,-0.632,-0.266,-0.234
-4.128e+00,-0.648,-0.664,-0.262,-0.286
-4.126e+00,-0.656,-0.64,-0.254,-0.242
-4.124e+00,-0.648,-0.672,-0.27,-0.29
-4.123e+00,-0.656,-0.648,-0.262,-0.246
-4.121e+00,-0.656,-0.672,-0.27,-0.298
-4.119e+00,-0.656,-0.648,-0.278,-0.246
-4.117e+00,-0.664,-0.68,-0.282,-0.298
-4.115e+00,-0.664,-0.656,-0.274,-0.25
-4.113e+00,-0.664,-0.68,-0.274,-0.302
-4.111e+00,-0.672,-0.656,-0.282,-0.254
-4.109e+00,-0.672,-0.688,-0.278,-0.306
-4.107e+00,-0.672,-0.664,-0.286,-0.258
-4.105e+00,-0.672,-0.696,-0.29,-0.31
-4.103e+00,-0.68,-0.664,-0.286,-0.262
-4.101e+00,-0.68,-0.696,-0.286,-0.314
-4.099e+00,-0.68,-0.672,-0.29,-0.266
-4.098e+00,-0.68,-0.696,-0.302,-0.318
-4.096e+00,-0.688,-0.672,-0.294,-0.27
-4.094e+00,-0.688,-0.704,-0.294,-0.318
-4.092e+00,-0.688,-0.68,-0.302,-0.27
-4.090e+00,-0.696,-0.704,-0.298,-0.322
-4.088e+00,-0.688,-0.68,-0.298,-0.274
-4.086e+00,-0.688,-0.712,-0.302,-0.326
-4.084e+00,-0.696,-0.688,-0.306,-0.278
-4.082e+00,-0.696,-0.712,-0.302,-0.33
-4.080e+00,-0.696,-0.688,-0.314,-0.282
-4.078e+00,-0.696,-0.72,-0.314,-0.334
-4.076e+00,-0.704,-0.696,-0.31,-0.286
-4.075e+00,-0.704,-0.72,-0.31,-0.334
-4.073e+00,-0.704,-0.696,-0.326,-0.29
-4.071e+00,-0.704,-0.72,-0.314,-0.338
-4.069e+00,-0.712,-0.696,-0.31,-0.29
-4.067e+00,-0.712,-0.728,-0.314,-0.338
-4.065e+00,-0.712,-0.704,-0.326,-0.294
-4.063e+00,-0.712,-0.728,-0.314,-0.342
-4.061e+00,-0.712,-0.704,-0.322,-0.298
-4.059e+00,-0.712,-0.728,-0.318,-0.346
-4.057e+00,-0.712,-0.704,-0.318,-0.298
-4.055e+00,-0.712,-0.728,-0.322,-0.346
-4.053e+00,-0.72,-0.712,-0.33,-0.302
-4.051e+00,-0.72,-0.736,-0.334,-0.35
-4.050e+00,-0.72,-0.712,-0.334,-0.306
-4.048e+00,-0.72,-0.736,-0.334,-0.354
-4.046e+00,-0.72,-0.712,-0.334,-0.306
-4.044e+00,-0.72,-0.736,-0.334,-0.354
-4.042e+00,-0.72,-0.712,-0.338,-0.31
-4.040e+00,-0.728,-0.736,-0.342,-0.358
-4.038e+00,-0.728,-0.72,-0.334,-0.314
-4.036e+00,-0.728,-0.744,-0.338,-0.358
-4.034e+00,-0.728,-0.72,-0.342,-0.314
-4.032e+00,-0.736,-0.744,-0.338,-0.362
-4.030e+00,-0.728,-0.72,-0.342,-0.318
-4.028e+00,-0.728,-0.744,-0.342,-0.366
-4.026e+00,-0.728,-0.72,-0.342,-0.318
-4.025e+00,-0.728,-0.744,-0.354,-0.366
-4.023e+00,-0.736,-0.72,-0.342,-0.322
-4.021e+00,-0.736,-0.744,-0.354,-0.37
-4.019e+00,-0.736,-0.72,-0.35,-0.322
-4.017e+00,-0.736,-0.744,-0.342,-0.37
-4.015e+00,-0.736,-0.72,-0.35,-0.326
-4.013e+00,-0.728,-0.744,-0.358,-0.37
-4.011e+00,-0.728,-0.72,-0.35,-0.326
-4.009e+00,-0.736,-0.744,-0.354,-0.374
-4.007e+00,-0.736,-0.728,-0.358,-0.33
-4.005e+00,-0.736,-0.744,-0.358,-0.374
-4.003e+00,-0.736,-0.72,-0.362,-0.33
-4.002e+00,-0.736,-0.744,-0.35,-0.378
-4.000e+00,-0.736,-0.728,-0.358,-0.334
-3.998e+00,-0.736,-0.752,-0.354,-0.378
-3.996e+00,-0.736,-0.728,-0.354,-0.334
-3.994e+00,-0.736,-0.744,-0.358,-0.382
-3.992e+00,-0.736,-0.728,-0.358,-0.334
-3.990e+00,-0.736,-0.744,-0.354,-0.382
-3.988e+00,-0.736,-0.72,-0.366,-0.338
-3.986e+00,-0.736,-0.744,-0.362,-0.382
-3.984e+00,-0.736,-0.72,-0.358,-0.338
-3.982e+00,-0.736,-0.744,-0.366,-0.386
-3.980e+00,-0.736,-0.72,-0.366,-0.342
-3.978e+00,-0.728,-0.744,-0.362,-0.386
-3.977e+00,-0.728,-0.72,-0.358,-0.342
-3.975e+00,-0.728,-0.744,-0.374,-0.386
-3.973e+00,-0.736,-0.72,-0.366,-0.342
-3.971e+00,-0.728,-0.744,-0.358,-0.39
-3.969e+00,-0.736,-0.72,-0.366,-0.342
-3.967e+00,-0.736,-0.744,-0.378,-0.39
-3.965e+00,-0.728,-0.72,-0.362,-0.342
-3.963e+00,-0.728,-0.744,-0.374,-0.394
-3.961e+00,-0.728,-0.72,-0.374,-0.346
-3.959e+00,-0.728,-0.736,-0.362,-0.394
-3.957e+00,-0.728,-0.712,-0.374,-0.346
-3.955e+00,-0.72,-0.736,-0.37,-0.394
-3.954e+00,-0.72,-0.712,-0.366,-0.346
-3.952e+00,-0.72,-0.736,-0.37,-0.398
