Versuch2/datasets/damp2/T0022.CSV

Model,DPO2002B
Firmware Version,1.52

Point Format,Y,,,
Horizontal Units,S,,,
Horizontal Scale,0.4,,,
Sample Interval,0.000768049,,,
Filter Frequency,7e+07,,,
Record Length,5200,,,
Gating,0.0% to 100.0%,,0.0% to 100.0%,
Probe Attenuation,1,,10,
Vertical Units,V,,V,
Vertical Offset,0,,0,
Vertical Scale,0.2,,0.5,
Label,,,,
TIME,CH1,CH1 Peak Detect,CH2,CH2 Peak Detect
-2.0000e+00,0.144,0.136,-0.63,-0.67
-1.9992e+00,0.144,0.16,-0.63,-0.57
-1.9985e+00,0.152,0.144,-0.61,-0.67
-1.9977e+00,0.152,0.168,-0.63,-0.57
-1.9969e+00,0.152,0.144,-0.63,-0.65
-1.9962e+00,0.16,0.168,-0.61,-0.57
-1.9954e+00,0.16,0.152,-0.61,-0.65
-1.9946e+00,0.168,0.176,-0.61,-0.57
-1.9939e+00,0.168,0.16,-0.61,-0.65
-1.9931e+00,0.168,0.184,-0.61,-0.55
-1.9923e+00,0.176,0.168,-0.61,-0.65
-1.9916e+00,0.176,0.184,-0.61,-0.55
-1.9908e+00,0.176,0.168,-0.61,-0.63
-1.9900e+00,0.184,0.192,-0.61,-0.55
-1.9892e+00,0.184,0.176,-0.57,-0.63
-1.9885e+00,0.184,0.2,-0.59,-0.53
-1.9877e+00,0.192,0.184,-0.59,-0.63
-1.9869e+00,0.192,0.208,-0.59,-0.53
-1.9862e+00,0.2,0.184,-0.59,-0.63
-1.9854e+00,0.2,0.208,-0.59,-0.53
-1.9846e+00,0.2,0.192,-0.59,-0.61
-1.9839e+00,0.2,0.216,-0.59,-0.53
-1.9831e+00,0.208,0.2,-0.59,-0.61
-1.9823e+00,0.208,0.224,-0.57,-0.53
-1.9816e+00,0.216,0.2,-0.57,-0.61
-1.9808e+00,0.216,0.224,-0.57,-0.51
-1.9800e+00,0.216,0.208,-0.57,-0.59
-1.9793e+00,0.224,0.232,-0.55,-0.51
-1.9785e+00,0.224,0.216,-0.57,-0.59
-1.9777e+00,0.224,0.24,-0.57,-0.51
-1.9770e+00,0.24,0.224,-0.57,-0.59
-1.9762e+00,0.232,0.248,-0.55,-0.49
-1.9754e+00,0.232,0.224,-0.57,-0.59
-1.9747e+00,0.24,0.248,-0.55,-0.49
-1.9739e+00,0.24,0.232,-0.55,-0.57
-1.9731e+00,0.24,0.256,-0.55,-0.49
-1.9724e+00,0.24,0.24,-0.55,-0.57
-1.9716e+00,0.248,0.264,-0.53,-0.49
-1.9708e+00,0.256,0.24,-0.55,-0.57
-1.9700e+00,0.256,0.264,-0.51,-0.47
-1.9693e+00,0.256,0.248,-0.53,-0.57
-1.9685e+00,0.264,0.272,-0.53,-0.47
-1.9677e+00,0.264,0.256,-0.51,-0.57
-1.9670e+00,0.264,0.272,-0.53,-0.47
-1.9662e+00,0.264,0.256,-0.51,-0.55
-1.9654e+00,0.272,0.28,-0.51,-0.47
-1.9647e+00,0.28,0.264,-0.51,-0.55
-1.9639e+00,0.28,0.288,-0.53,-0.45
-1.9631e+00,0.28,0.272,-0.51,-0.53
-1.9624e+00,0.28,0.296,-0.51,-0.45
-1.9616e+00,0.28,0.272,-0.51,-0.53
-1.9608e+00,0.288,0.296,-0.51,-0.45
-1.9601e+00,0.288,0.28,-0.49,-0.53
-1.9593e+00,0.288,0.304,-0.49,-0.45
-1.9585e+00,0.304,0.288,-0.49,-0.53
-1.9578e+00,0.296,0.312,-0.49,-0.43
-1.9570e+00,0.304,0.288,-0.49,-0.53
-1.9562e+00,0.304,0.312,-0.49,-0.43
-1.9555e+00,0.304,0.296,-0.47,-0.51
-1.9547e+00,0.312,0.32,-0.47,-0.41
-1.9539e+00,0.312,0.296,-0.47,-0.51
-1.9531e+00,0.32,0.328,-0.47,-0.41
-1.9524e+00,0.312,0.312,-0.47,-0.51
-1.9516e+00,0.32,0.328,-0.47,-0.41
-1.9508e+00,0.32,0.312,-0.47,-0.49
-1.9501e+00,0.328,0.336,-0.47,-0.41
-1.9493e+00,0.328,0.32,-0.47,-0.49
-1.9485e+00,0.328,0.336,-0.45,-0.39
-1.9478e+00,0.336,0.32,-0.45,-0.49
-1.9470e+00,0.336,0.344,-0.43,-0.39
-1.9462e+00,0.344,0.328,-0.43,-0.49
-1.9455e+00,0.344,0.352,-0.45,-0.39
-1.9447e+00,0.344,0.336,-0.43,-0.47
-1.9439e+00,0.352,0.352,-0.45,-0.37
-1.9432e+00,0.344,0.336,-0.43,-0.47
-1.9424e+00,0.344,0.36,-0.43,-0.37
-1.9416e+00,0.352,0.344,-0.41,-0.45
-1.9409e+00,0.36,0.368,-0.43,-0.37
-1.9401e+00,0.36,0.352,-0.43,-0.45
-1.9393e+00,0.36,0.368,-0.41,-0.37
-1.9386e+00,0.36,0.352,-0.41,-0.45
-1.9378e+00,0.368,0.376,-0.43,-0.35
-1.9370e+00,0.368,0.36,-0.39,-0.43
-1.9363e+00,0.376,0.384,-0.41,-0.35
-1.9355e+00,0.376,0.368,-0.39,-0.43
-1.9347e+00,0.376,0.384,-0.41,-0.35
-1.9339e+00,0.384,0.368,-0.41,-0.43
-1.9332e+00,0.384,0.392,-0.39,-0.33
-1.9324e+00,0.376,0.376,-0.39,-0.43
-1.9316e+00,0.384,0.392,-0.39,-0.33
-1.9309e+00,0.384,0.376,-0.37,-0.41
-1.9301e+00,0.392,0.4,-0.39,-0.33
-1.9293e+00,0.392,0.384,-0.37,-0.41
-1.9286e+00,0.392,0.408,-0.37,-0.33
-1.9278e+00,0.4,0.392,-0.37,-0.41
-1.9270e+00,0.4,0.408,-0.37,-0.31
-1.9263e+00,0.4,0.392,-0.37,-0.39
-1.9255e+00,0.408,0.416,-0.35,-0.31
-1.9247e+00,0.408,0.4,-0.35,-0.39
-1.9240e+00,0.408,0.424,-0.35,-0.31
-1.9232e+00,0.416,0.408,-0.37,-0.39
-1.9224e+00,0.416,0.424,-0.33,-0.31
-1.9217e+00,0.416,0.408,-0.35,-0.39
-1.9209e+00,0.424,0.432,-0.35,-0.29
-1.9201e+00,0.424,0.408,-0.35,-0.37
-1.9194e+00,0.424,0.432,-0.33,-0.29
-1.9186e+00,0.424,0.416,-0.33,-0.37
-1.9178e+00,0.432,0.44,-0.35,-0.27
-1.9171e+00,0.432,0.424,-0.33,-0.37
-1.9163e+00,0.432,0.448,-0.33,-0.27
-1.9155e+00,0.432,0.424,-0.33,-0.35
-1.9147e+00,0.44,0.448,-0.31,-0.27
-1.9140e+00,0.44,0.432,-0.31,-0.35
-1.9132e+00,0.448,0.456,-0.31,-0.27
-1.9124e+00,0.448,0.44,-0.31,-0.35
-1.9117e+00,0.448,0.456,-0.31,-0.25
-1.9109e+00,0.448,0.44,-0.31,-0.33
-1.9101e+00,0.448,0.464,-0.29,-0.25
-1.9094e+00,0.456,0.448,-0.31,-0.33
-1.9086e+00,0.456,0.464,-0.29,-0.25
-1.9078e+00,0.456,0.448,-0.29,-0.33
-1.9071e+00,0.464,0.472,-0.29,-0.23
-1.9063e+00,0.464,0.456,-0.29,-0.33
-1.9055e+00,0.464,0.48,-0.27,-0.23
-1.9048e+00,0.472,0.464,-0.27,-0.31
-1.9040e+00,0.464,0.48,-0.27,-0.23
-1.9032e+00,0.472,0.464,-0.27,-0.31
-1.9025e+00,0.472,0.488,-0.27,-0.21
-1.9017e+00,0.48,0.464,-0.27,-0.29
-1.9009e+00,0.48,0.488,-0.27,-0.21
-1.9002e+00,0.48,0.472,-0.25,-0.29
-1.8994e+00,0.48,0.496,-0.25,-0.21
-1.8986e+00,0.48,0.48,-0.27,-0.29
-1.8978e+00,0.488,0.496,-0.25,-0.19
-1.8971e+00,0.488,0.48,-0.25,-0.27
-1.8963e+00,0.496,0.504,-0.25,-0.19
-1.8955e+00,0.496,0.48,-0.23,-0.27
-1.8948e+00,0.496,0.504,-0.23,-0.19
-1.8940e+00,0.496,0.488,-0.25,-0.27
-1.8932e+00,0.496,0.512,-0.25,-0.19
-1.8925e+00,0.504,0.496,-0.23,-0.27
-1.8917e+00,0.504,0.512,-0.23,-0.17
-1.8909e+00,0.512,0.496,-0.23,-0.25
-1.8902e+00,0.512,0.52,-0.23,-0.17
-1.8894e+00,0.504,0.504,-0.23,-0.25
-1.8886e+00,0.512,0.528,-0.21,-0.17
-1.8879e+00,0.52,0.504,-0.21,-0.25
-1.8871e+00,0.512,0.528,-0.21,-0.15
-1.8863e+00,0.52,0.512,-0.23,-0.23
-1.8856e+00,0.52,0.528,-0.21,-0.15
-1.8848e+00,0.528,0.512,-0.19,-0.23
-1.8840e+00,0.528,0.536,-0.21,-0.15
-1.8833e+00,0.528,0.52,-0.19,-0.23
-1.8825e+00,0.536,0.536,-0.19,-0.13
-1.8817e+00,0.528,0.52,-0.19,-0.21
-1.8810e+00,0.528,0.544,-0.19,-0.13
-1.8802e+00,0.536,0.528,-0.17,-0.21
-1.8794e+00,0.536,0.544,-0.17,-0.13
-1.8786e+00,0.536,0.528,-0.17,-0.21
-1.8779e+00,0.536,0.552,-0.17,-0.13
-1.8771e+00,0.536,0.536,-0.17,-0.19
-1.8763e+00,0.544,0.552,-0.17,-0.11
-1.8756e+00,0.544,0.536,-0.15,-0.19
-1.8748e+00,0.552,0.56,-0.17,-0.11
-1.8740e+00,0.552,0.544,-0.17,-0.19
-1.8733e+00,0.552,0.56,-0.15,-0.09
-1.8725e+00,0.56,0.544,-0.15,-0.17
-1.8717e+00,0.56,0.568,-0.15,-0.09
-1.8710e+00,0.56,0.552,-0.13,-0.17
-1.8702e+00,0.56,0.568,-0.13,-0.09
-1.8694e+00,0.56,0.552,-0.13,-0.17
-1.8687e+00,0.56,0.576,-0.13,-0.07
-1.8679e+00,0.568,0.56,-0.13,-0.17
-1.8671e+00,0.568,0.576,-0.13,-0.07
-1.8664e+00,0.568,0.56,-0.11,-0.15
-1.8656e+00,0.568,0.576,-0.11,-0.07
-1.8648e+00,0.568,0.56,-0.11,-0.15
-1.8641e+00,0.568,0.584,-0.11,-0.07
-1.8633e+00,0.576,0.568,-0.11,-0.13
-1.8625e+00,0.576,0.592,-0.11,-0.05
-1.8618e+00,0.576,0.568,-0.11,-0.13
-1.8610e+00,0.584,0.592,-0.09,-0.05
-1.8602e+00,0.584,0.576,-0.09,-0.13
-1.8594e+00,0.584,0.592,-0.09,-0.05
-1.8587e+00,0.584,0.576,-0.09,-0.11
-1.8579e+00,0.584,0.6,-0.09,-0.03
-1.8571e+00,0.592,0.584,-0.09,-0.11
-1.8564e+00,0.592,0.608,-0.09,-0.03
-1.8556e+00,0.592,0.584,-0.07,-0.11
-1.8548e+00,0.592,0.608,-0.07,-0.01
-1.8541e+00,0.6,0.584,-0.07,-0.11
-1.8533e+00,0.6,0.608,-0.07,-0.01
-1.8525e+00,0.6,0.592,-0.07,-0.09
-1.8518e+00,0.6,0.616,-0.05,-0.01
-1.8510e+00,0.608,0.6,-0.05,-0.09
-1.8502e+00,0.6,0.616,-0.05,-0.01
-1.8495e+00,0.608,0.6,-0.05,-0.07
-1.8487e+00,0.616,0.624,-0.05,0.01
-1.8479e+00,0.608,0.6,-0.05,-0.07
-1.8472e+00,0.608,0.624,-0.05,0.01
-1.8464e+00,0.616,0.608,-0.05,-0.07
-1.8456e+00,0.616,0.624,-0.03,0.01
-1.8449e+00,0.616,0.608,-0.03,-0.05
-1.8441e+00,0.616,0.632,-0.03,0.03
-1.8433e+00,0.624,0.608,-0.03,-0.05
-1.8425e+00,0.616,0.632,-0.01,0.03
-1.8418e+00,0.624,0.616,-0.01,-0.05
-1.8410e+00,0.624,0.632,-0.01,0.03
-1.8402e+00,0.624,0.616,-0.01,-0.05
-1.8395e+00,0.624,0.64,0.01,0.05
-1.8387e+00,0.632,0.616,-0.01,-0.03
-1.8379e+00,0.632,0.64,-0.01,0.05
-1.8372e+00,0.632,0.624,0.01,-0.03
-1.8364e+00,0.632,0.64,0.01,0.05
-1.8356e+00,0.632,0.624,0.01,-0.01
-1.8349e+00,0.632,0.648,0.03,0.07
-1.8341e+00,0.64,0.632,0.01,-0.01
-1.8333e+00,0.64,0.648,0.01,0.07
-1.8326e+00,0.64,0.632,0.03,-0.01
-1.8318e+00,0.64,0.648,0.03,0.07
-1.8310e+00,0.64,0.632,0.03,-0.01
-1.8303e+00,0.64,0.656,0.03,0.07
-1.8295e+00,0.64,0.64,0.05,0.01
-1.8287e+00,0.648,0.656,0.03,0.09
-1.8280e+00,0.656,0.64,0.03,0.01
-1.8272e+00,0.648,0.656,0.05,0.09
-1.8264e+00,0.648,0.64,0.05,0.01
-1.8257e+00,0.656,0.664,0.05,0.09
-1.8249e+00,0.656,0.648,0.05,0.03
-1.8241e+00,0.656,0.664,0.05,0.11
-1.8233e+00,0.656,0.648,0.07,0.03
-1.8226e+00,0.656,0.672,0.07,0.13
-1.8218e+00,0.664,0.648,0.07,0.05
-1.8210e+00,0.664,0.672,0.07,0.13
-1.8203e+00,0.664,0.656,0.07,0.05
-1.8195e+00,0.664,0.672,0.07,0.13
-1.8187e+00,0.664,0.656,0.09,0.05
-1.8180e+00,0.664,0.68,0.09,0.13
-1.8172e+00,0.664,0.656,0.09,0.05
-1.8164e+00,0.672,0.68,0.09,0.15
-1.8157e+00,0.672,0.664,0.11,0.07
-1.8149e+00,0.672,0.68,0.09,0.15
-1.8141e+00,0.672,0.664,0.11,0.07
-1.8134e+00,0.672,0.688,0.09,0.15
-1.8126e+00,0.68,0.664,0.11,0.07
-1.8118e+00,0.672,0.688,0.11,0.15
-1.8111e+00,0.68,0.672,0.13,0.09
-1.8103e+00,0.68,0.688,0.13,0.17
-1.8095e+00,0.68,0.672,0.13,0.09
-1.8088e+00,0.68,0.688,0.13,0.17
-1.8080e+00,0.68,0.672,0.13,0.11
-1.8072e+00,0.68,0.696,0.13,0.17
-1.8065e+00,0.688,0.68,0.13,0.11
-1.8057e+00,0.688,0.696,0.15,0.19
-1.8049e+00,0.688,0.68,0.15,0.11
-1.8041e+00,0.688,0.696,0.15,0.19
-1.8034e+00,0.688,0.68,0.15,0.11
-1.8026e+00,0.688,0.696,0.17,0.19
-1.8018e+00,0.696,0.68,0.15,0.13
-1.8011e+00,0.696,0.704,0.17,0.21
-1.8003e+00,0.696,0.68,0.15,0.13
-1.7995e+00,0.696,0.704,0.17,0.21
-1.7988e+00,0.696,0.688,0.17,0.13
-1.7980e+00,0.696,0.704,0.17,0.21
-1.7972e+00,0.696,0.688,0.17,0.15
-1.7965e+00,0.696,0.704,0.19,0.23
-1.7957e+00,0.696,0.688,0.19,0.15
-1.7949e+00,0.704,0.712,0.17,0.23
-1.7942e+00,0.704,0.696,0.19,0.15
-1.7934e+00,0.704,0.712,0.21,0.23
-1.7926e+00,0.704,0.696,0.19,0.17
-1.7919e+00,0.704,0.712,0.21,0.25
-1.7911e+00,0.704,0.696,0.21,0.17
-1.7903e+00,0.704,0.712,0.21,0.25
-1.7896e+00,0.704,0.696,0.19,0.17
-1.7888e+00,0.704,0.712,0.21,0.25
-1.7880e+00,0.704,0.696,0.21,0.19
-1.7873e+00,0.704,0.72,0.23,0.27
-1.7865e+00,0.704,0.704,0.23,0.19
-1.7857e+00,0.712,0.72,0.21,0.27
-1.7849e+00,0.712,0.704,0.23,0.19
-1.7842e+00,0.712,0.72,0.25,0.27
-1.7834e+00,0.712,0.704,0.23,0.21
-1.7826e+00,0.712,0.72,0.25,0.29
-1.7819e+00,0.712,0.704,0.25,0.21
-1.7811e+00,0.712,0.728,0.25,0.29
-1.7803e+00,0.712,0.704,0.25,0.21
-1.7796e+00,0.72,0.728,0.25,0.29
-1.7788e+00,0.72,0.712,0.25,0.23
-1.7780e+00,0.72,0.728,0.25,0.29
-1.7773e+00,0.72,0.712,0.25,0.23
-1.7765e+00,0.72,0.728,0.27,0.31
-1.7757e+00,0.72,0.712,0.27,0.23
-1.7750e+00,0.72,0.728,0.27,0.31
-1.7742e+00,0.72,0.712,0.27,0.25
-1.7734e+00,0.72,0.736,0.27,0.31
-1.7727e+00,0.72,0.712,0.29,0.25
-1.7719e+00,0.72,0.728,0.29,0.33
-1.7711e+00,0.72,0.712,0.29,0.25
-1.7704e+00,0.72,0.736,0.29,0.33
-1.7696e+00,0.72,0.72,0.29,0.25
-1.7688e+00,0.72,0.736,0.27,0.33
-1.7680e+00,0.728,0.72,0.29,0.27
-1.7673e+00,0.728,0.736,0.31,0.35
-1.7665e+00,0.728,0.72,0.31,0.27
-1.7657e+00,0.72,0.736,0.31,0.35
-1.7650e+00,0.728,0.72,0.31,0.27
-1.7642e+00,0.728,0.736,0.33,0.35
-1.7634e+00,0.728,0.72,0.31,0.29
-1.7627e+00,0.728,0.736,0.31,0.35
-1.7619e+00,0.728,0.72,0.33,0.29
-1.7611e+00,0.728,0.744,0.31,0.37
-1.7604e+00,0.728,0.72,0.33,0.29
-1.7596e+00,0.728,0.744,0.33,0.37
-1.7588e+00,0.736,0.72,0.33,0.31
-1.7581e+00,0.736,0.744,0.33,0.37
-1.7573e+00,0.736,0.72,0.35,0.31
-1.7565e+00,0.728,0.744,0.33,0.39
-1.7558e+00,0.728,0.72,0.35,0.31
-1.7550e+00,0.736,0.744,0.35,0.39
-1.7542e+00,0.728,0.728,0.33,0.31
-1.7535e+00,0.736,0.744,0.35,0.39
-1.7527e+00,0.736,0.728,0.37,0.33
-1.7519e+00,0.736,0.744,0.35,0.41
-1.7512e+00,0.736,0.728,0.35,0.33
-1.7504e+00,0.736,0.744,0.37,0.41
-1.7496e+00,0.736,0.728,0.39,0.33
-1.7488e+00,0.736,0.744,0.37,0.41
-1.7481e+00,0.736,0.728,0.37,0.35
-1.7473e+00,0.736,0.744,0.39,0.43
-1.7465e+00,0.736,0.728,0.37,0.35
-1.7458e+00,0.736,0.744,0.39,0.43
-1.7450e+00,0.736,0.728,0.39,0.35
-1.7442e+00,0.736,0.752,0.39,0.43
-1.7435e+00,0.736,0.728,0.39,0.37
-1.7427e+00,0.736,0.752,0.41,0.43
-1.7419e+00,0.736,0.728,0.39,0.37
-1.7412e+00,0.744,0.752,0.41,0.45
-1.7404e+00,0.736,0.728,0.41,0.37
-1.7396e+00,0.744,0.752,0.39,0.45
-1.7389e+00,0.744,0.728,0.41,0.37
-1.7381e+00,0.744,0.752,0.41,0.45
-1.7373e+00,0.736,0.728,0.43,0.39
-1.7366e+00,0.736,0.752,0.43,0.47
-1.7358e+00,0.744,0.728,0.43,0.39
-1.7350e+00,0.736,0.752,0.43,0.47
-1.7343e+00,0.744,0.728,0.43,0.39
-1.7335e+00,0.744,0.752,0.43,0.47
-1.7327e+00,0.736,0.728,0.43,0.39
-1.7320e+00,0.744,0.752,0.43,0.49
-1.7312e+00,0.744,0.728,0.43,0.41
-1.7304e+00,0.744,0.752,0.45,0.49
-1.7296e+00,0.744,0.728,0.45,0.41
-1.7289e+00,0.736,0.752,0.45,0.49
-1.7281e+00,0.744,0.728,0.45,0.41
-1.7273e+00,0.736,0.752,0.45,0.49
-1.7266e+00,0.736,0.728,0.45,0.43
-1.7258e+00,0.736,0.752,0.47,0.51
-1.7250e+00,0.736,0.736,0.47,0.43
-1.7243e+00,0.736,0.752,0.45,0.51
-1.7235e+00,0.736,0.728,0.47,0.43
-1.7227e+00,0.744,0.752,0.47,0.51
-1.7220e+00,0.744,0.728,0.47,0.45
-1.7212e+00,0.744,0.752,0.49,0.53
-1.7204e+00,0.744,0.728,0.49,0.45
-1.7197e+00,0.736,0.752,0.49,0.53
-1.7189e+00,0.744,0.728,0.49,0.45
-1.7181e+00,0.744,0.752,0.49,0.53
-1.7174e+00,0.744,0.728,0.49,0.47
-1.7166e+00,0.736,0.752,0.51,0.53
-1.7158e+00,0.736,0.728,0.51,0.47
-1.7151e+00,0.736,0.752,0.51,0.55
-1.7143e+00,0.736,0.728,0.53,0.47
-1.7135e+00,0.736,0.752,0.51,0.55
-1.7127e+00,0.744,0.728,0.51,0.47
-1.7120e+00,0.744,0.752,0.51,0.55
-1.7112e+00,0.736,0.728,0.51,0.47
-1.7104e+00,0.736,0.744,0.51,0.55
-1.7097e+00,0.736,0.728,0.53,0.49
-1.7089e+00,0.736,0.744,0.53,0.57
-1.7081e+00,0.736,0.728,0.53,0.49
-1.7074e+00,0.736,0.744,0.53,0.57
-1.7066e+00,0.736,0.728,0.53,0.49
-1.7058e+00,0.736,0.744,0.53,0.57
-1.7051e+00,0.736,0.728,0.51,0.51
-1.7043e+00,0.736,0.744,0.53,0.59
-1.7035e+00,0.736,0.728,0.55,0.51
-1.7028e+00,0.736,0.744,0.55,0.59
-1.7020e+00,0.728,0.728,0.55,0.51
-1.7012e+00,0.736,0.744,0.55,0.59
-1.7005e+00,0.736,0.728,0.55,0.51
-1.6997e+00,0.736,0.744,0.55,0.61
-1.6989e+00,0.736,0.728,0.55,0.53
-1.6982e+00,0.728,0.744,0.57,0.61
-1.6974e+00,0.736,0.72,0.57,0.53
-1.6966e+00,0.728,0.744,0.57,0.61
-1.6959e+00,0.728,0.72,0.55,0.53
-1.6951e+00,0.728,0.744,0.57,0.61
-1.6943e+00,0.728,0.72,0.57,0.53
-1.6935e+00,0.728,0.736,0.57,0.63
-1.6928e+00,0.728,0.72,0.57,0.55
-1.6920e+00,0.728,0.736,0.59,0.63
-1.6912e+00,0.728,0.72,0.57,0.55
-1.6905e+00,0.728,0.736,0.57,0.63
-1.6897e+00,0.728,0.72,0.59,0.55
-1.6889e+00,0.72,0.736,0.59,0.63
-1.6882e+00,0.72,0.72,0.59,0.55
-1.6874e+00,0.728,0.736,0.59,0.63
-1.6866e+00,0.72,0.712,0.59,0.57
-1.6859e+00,0.72,0.736,0.61,0.65
-1.6851e+00,0.72,0.712,0.61,0.57
-1.6843e+00,0.72,0.736,0.61,0.65
-1.6836e+00,0.72,0.712,0.61,0.57
-1.6828e+00,0.72,0.728,0.61,0.65
-1.6820e+00,0.72,0.712,0.61,0.57
-1.6813e+00,0.72,0.728,0.61,0.67
-1.6805e+00,0.72,0.712,0.61,0.59
-1.6797e+00,0.72,0.728,0.63,0.67
-1.6790e+00,0.72,0.712,0.63,0.59
-1.6782e+00,0.72,0.728,0.61,0.67
-1.6774e+00,0.712,0.712,0.63,0.59
-1.6767e+00,0.712,0.728,0.63,0.67
-1.6759e+00,0.72,0.704,0.65,0.59
-1.6751e+00,0.712,0.728,0.63,0.67
-1.6743e+00,0.72,0.704,0.63,0.59
-1.6736e+00,0.712,0.728,0.63,0.69
-1.6728e+00,0.712,0.704,0.65,0.61
-1.6720e+00,0.712,0.72,0.63,0.69
-1.6713e+00,0.712,0.704,0.65,0.61
-1.6705e+00,0.712,0.72,0.65,0.69
-1.6697e+00,0.712,0.704,0.63,0.61
-1.6690e+00,0.704,0.72,0.65,0.69
-1.6682e+00,0.712,0.696,0.65,0.61
-1.6674e+00,0.704,0.72,0.65,0.69
-1.6667e+00,0.712,0.696,0.63,0.63
-1.6659e+00,0.712,0.72,0.65,0.71
-1.6651e+00,0.704,0.696,0.67,0.63
-1.6644e+00,0.704,0.712,0.67,0.71
-1.6636e+00,0.704,0.696,0.65,0.63
-1.6628e+00,0.704,0.712,0.67,0.71
-1.6621e+00,0.704,0.696,0.67,0.63
-1.6613e+00,0.704,0.712,0.67,0.71
-1.6605e+00,0.704,0.688,0.65,0.63
-1.6598e+00,0.696,0.712,0.69,0.71
-1.6590e+00,0.704,0.688,0.67,0.63
-1.6582e+00,0.696,0.704,0.67,0.73
-1.6575e+00,0.696,0.688,0.67,0.65
-1.6567e+00,0.696,0.704,0.69,0.73
-1.6559e+00,0.696,0.68,0.69,0.65
-1.6551e+00,0.696,0.704,0.69,0.73
-1.6544e+00,0.688,0.68,0.67,0.65
-1.6536e+00,0.696,0.704,0.69,0.73
-1.6528e+00,0.688,0.68,0.67,0.65
-1.6521e+00,0.688,0.696,0.69,0.73
-1.6513e+00,0.688,0.68,0.69,0.67
-1.6505e+00,0.688,0.696,0.69,0.73
-1.6498e+00,0.688,0.672,0.69,0.67
-1.6490e+00,0.688,0.696,0.71,0.75
-1.6482e+00,0.688,0.672,0.69,0.67
-1.6475e+00,0.688,0.696,0.71,0.75
-1.6467e+00,0.68,0.672,0.71,0.67
-1.6459e+00,0.68,0.688,0.71,0.75
-1.6452e+00,0.68,0.664,0.69,0.67
-1.6444e+00,0.68,0.688,0.73,0.75
-1.6436e+00,0.672,0.664,0.73,0.69
-1.6429e+00,0.672,0.688,0.69,0.75
-1.6421e+00,0.672,0.664,0.71,0.69
-1.6413e+00,0.672,0.688,0.73,0.77
-1.6406e+00,0.672,0.664,0.73,0.69
-1.6398e+00,0.672,0.68,0.73,0.77
-1.6390e+00,0.672,0.656,0.73,0.69
-1.6382e+00,0.672,0.68,0.71,0.77
-1.6375e+00,0.672,0.656,0.71,0.69
-1.6367e+00,0.664,0.672,0.73,0.77
-1.6359e+00,0.664,0.656,0.73,0.69
-1.6352e+00,0.664,0.672,0.73,0.77
-1.6344e+00,0.664,0.648,0.75,0.71
-1.6336e+00,0.656,0.672,0.73,0.77
-1.6329e+00,0.664,0.648,0.73,0.71
-1.6321e+00,0.656,0.664,0.73,0.79
-1.6313e+00,0.656,0.64,0.75,0.71
-1.6306e+00,0.656,0.664,0.73,0.79
-1.6298e+00,0.656,0.64,0.73,0.71
-1.6290e+00,0.648,0.664,0.75,0.79
-1.6283e+00,0.648,0.64,0.73,0.71
-1.6275e+00,0.648,0.664,0.75,0.79
-1.6267e+00,0.656,0.64,0.75,0.71
-1.6260e+00,0.648,0.656,0.75,0.79
-1.6252e+00,0.64,0.632,0.77,0.73
-1.6244e+00,0.64,0.656,0.75,0.79
-1.6237e+00,0.64,0.632,0.75,0.73
-1.6229e+00,0.64,0.648,0.77,0.81
-1.6221e+00,0.64,0.632,0.77,0.73
-1.6214e+00,0.64,0.648,0.77,0.81
-1.6206e+00,0.632,0.624,0.75,0.73
-1.6198e+00,0.632,0.648,0.75,0.81
-1.6190e+00,0.632,0.624,0.77,0.73
-1.6183e+00,0.632,0.64,0.77,0.81
-1.6175e+00,0.632,0.624,0.79,0.73
-1.6167e+00,0.624,0.64,0.77,0.81
-1.6160e+00,0.632,0.616,0.77,0.75
-1.6152e+00,0.624,0.64,0.77,0.81
-1.6144e+00,0.624,0.616,0.77,0.75
-1.6137e+00,0.624,0.632,0.75,0.83
-1.6129e+00,0.624,0.608,0.79,0.75
-1.6121e+00,0.624,0.632,0.77,0.83
-1.6114e+00,0.616,0.608,0.77,0.75
-1.6106e+00,0.616,0.624,0.79,0.83
-1.6098e+00,0.616,0.6,0.79,0.75
-1.6091e+00,0.616,0.624,0.79,0.83
-1.6083e+00,0.608,0.6,0.77,0.75
-1.6075e+00,0.608,0.624,0.77,0.83
-1.6068e+00,0.608,0.6,0.77,0.75
-1.6060e+00,0.608,0.616,0.79,0.83
-1.6052e+00,0.608,0.6,0.79,0.75
-1.6045e+00,0.6,0.616,0.79,0.83
-1.6037e+00,0.608,0.592,0.79,0.75
-1.6029e+00,0.6,0.616,0.79,0.83
-1.6022e+00,0.6,0.584,0.81,0.75
-1.6014e+00,0.6,0.608,0.79,0.83
-1.6006e+00,0.6,0.584,0.81,0.77
-1.5998e+00,0.592,0.608,0.79,0.85
-1.5991e+00,0.592,0.584,0.79,0.77
-1.5983e+00,0.592,0.6,0.81,0.85
-1.5975e+00,0.592,0.576,0.81,0.77
-1.5968e+00,0.584,0.6,0.79,0.85
-1.5960e+00,0.584,0.576,0.81,0.77
-1.5952e+00,0.584,0.592,0.81,0.85
-1.5945e+00,0.584,0.568,0.81,0.77
-1.5937e+00,0.576,0.592,0.81,0.85
-1.5929e+00,0.584,0.568,0.79,0.77
-1.5922e+00,0.576,0.592,0.79,0.85
-1.5914e+00,0.576,0.56,0.81,0.77
-1.5906e+00,0.568,0.584,0.81,0.85
-1.5899e+00,0.568,0.56,0.81,0.77
-1.5891e+00,0.568,0.576,0.81,0.87
-1.5883e+00,0.568,0.56,0.81,0.77
-1.5876e+00,0.568,0.576,0.81,0.85
-1.5868e+00,0.568,0.552,0.81,0.77
-1.5860e+00,0.568,0.576,0.83,0.87
-1.5853e+00,0.56,0.544,0.83,0.79
-1.5845e+00,0.56,0.568,0.81,0.87
-1.5837e+00,0.56,0.544,0.81,0.79
-1.5829e+00,0.56,0.568,0.81,0.87
-1.5822e+00,0.552,0.544,0.83,0.79
-1.5814e+00,0.552,0.56,0.83,0.87
-1.5806e+00,0.552,0.536,0.83,0.79
-1.5799e+00,0.544,0.56,0.83,0.87
-1.5791e+00,0.544,0.528,0.83,0.79
-1.5783e+00,0.544,0.552,0.83,0.87
-1.5776e+00,0.544,0.528,0.83,0.79
-1.5768e+00,0.544,0.552,0.83,0.87
-1.5760e+00,0.536,0.528,0.83,0.79
-1.5753e+00,0.536,0.544,0.83,0.87
-1.5745e+00,0.536,0.52,0.83,0.79
-1.5737e+00,0.528,0.544,0.83,0.87
-1.5730e+00,0.528,0.512,0.81,0.79
-1.5722e+00,0.528,0.536,0.83,0.87
-1.5714e+00,0.528,0.512,0.83,0.79
-1.5707e+00,0.528,0.536,0.83,0.87
-1.5699e+00,0.52,0.512,0.83,0.79
-1.5691e+00,0.52,0.528,0.85,0.89
-1.5684e+00,0.52,0.504,0.83,0.79
-1.5676e+00,0.512,0.528,0.83,0.89
-1.5668e+00,0.512,0.496,0.83,0.81
-1.5661e+00,0.512,0.52,0.83,0.89
-1.5653e+00,0.512,0.496,0.83,0.81
-1.5645e+00,0.504,0.52,0.83,0.89
-1.5637e+00,0.504,0.496,0.83,0.81
-1.5630e+00,0.504,0.512,0.85,0.89
-1.5622e+00,0.504,0.488,0.83,0.81
-1.5614e+00,0.496,0.512,0.83,0.89
